{"p":"B.1.177","w":{"d":29,"y":2020,"m":10},"l":{"r":"Wales","c":"United Kingdom"},"o":{"r":"NCBI","i":"ERR4839074"}}
{"p":"B.1.224","w":{"d":29,"y":2020,"m":3},"l":{"c":"Austria"},"o":{"r":"NCBI","i":"ERR4704347"}}
{"p":"AD.2","w":{"d":29,"y":2020,"m":9},"l":{"r":"England","c":"United Kingdom"},"o":{"r":"NCBI","i":"ERR4688916"}}
{"p":"B.1.177","w":{"d":29,"y":2020,"m":8},"l":{"r":"England","c":"United Kingdom"},"o":{"r":"NCBI","i":"ERR4599552"}}
{"p":"B.1.177","w":{"d":29,"y":2020,"m":10},"l":{"r":"Wales","c":"United Kingdom"},"o":{"r":"NCBI","i":"ERR4838734"}}
{"p":"B.1","w":{"d":29,"y":2020,"m":8},"l":{"r":"England","c":"United Kingdom"},"o":{"r":"NCBI","i":"ERR4599560"}}
{"p":"B.1.1","w":{"d":29,"y":2020,"m":4},"l":{"r":"England","c":"United Kingdom"},"o":{"r":"NCBI","i":"ERR4248853"}}
{"p":"B.1.1.198","w":{"d":29,"y":2020,"m":9},"l":{"r":"England","c":"United Kingdom"},"o":{"r":"NCBI","i":"ERR4671400"}}
{"p":"B.1.177","w":{"d":29,"y":2020,"m":8},"l":{"r":"Scotland","c":"United Kingdom"},"o":{"r":"NCBI","i":"ERR4615556"}}
{"p":"B.1.177","w":{"d":29,"y":2020,"m":8},"l":{"r":"Scotland","c":"United Kingdom"},"o":{"r":"NCBI","i":"ERR4599563"}}
{"p":"B.1.177","w":{"d":29,"y":2020,"m":8},"l":{"r":"Scotland","c":"United Kingdom"},"o":{"r":"NCBI","i":"ERR4599573"}}
{"p":"B.1.1.315","w":{"d":29,"y":2020,"m":8},"l":{"r":"Wales","c":"United Kingdom"},"o":{"r":"NCBI","i":"ERR4646872"}}
{"p":"B.1.1.25","w":{"d":29,"y":2020,"m":8},"l":{"r":"England","c":"United Kingdom"},"o":{"r":"NCBI","i":"ERR4646875"}}
{"p":"B.1.160.7","w":{"d":29,"y":2020,"m":10},"l":{"r":"Wales","c":"United Kingdom"},"o":{"r":"NCBI","i":"ERR4837552"}}
{"p":"B.1.177.7","w":{"d":29,"y":2020,"m":10},"l":{"r":"Wales","c":"United Kingdom"},"o":{"r":"NCBI","i":"ERR4838921"}}
{"p":"B.1.1","w":{"d":29,"y":2020,"m":4},"l":{"r":"England","c":"United Kingdom"},"o":{"r":"NCBI","i":"ERR4248873"}}
{"p":"B.1.177","w":{"d":29,"y":2020,"m":9},"l":{"r":"England","c":"United Kingdom"},"o":{"r":"NCBI","i":"ERR4688936"}}
{"p":"B.1.1.37","w":{"d":29,"y":2020,"m":9},"l":{"r":"England","c":"United Kingdom"},"o":{"r":"NCBI","i":"ERR4688939"}}
{"p":"B.1.177.10","w":{"d":29,"y":2020,"m":9},"l":{"r":"England","c":"United Kingdom"},"o":{"r":"NCBI","i":"ERR4688932"}}
{"p":"B.1.177.5","w":{"d":29,"y":2020,"m":8},"l":{"r":"Scotland","c":"United Kingdom"},"o":{"r":"NCBI","i":"ERR4615552"}}
{"p":"B.1.160","w":{"d":29,"y":2020,"m":9},"l":{"r":"England","c":"United Kingdom"},"o":{"r":"NCBI","i":"ERR4688921"}}
{"p":"B.1","w":{"d":29,"y":2020,"m":2},"l":{"r":"England","c":"United Kingdom"},"o":{"r":"NCBI","i":"ERR4208838"}}
{"p":"B.1","w":{"d":29,"y":2020,"m":2},"l":{"r":"England","c":"United Kingdom"},"o":{"r":"NCBI","i":"ERR4165157"}}
{"p":"B.1.1.59","w":{"d":29,"y":2020,"m":6},"l":{"r":"Wales","c":"United Kingdom"},"o":{"r":"NCBI","i":"ERR4439246"}}
{"p":"B.1.177.7","w":{"d":29,"y":2020,"m":10},"l":{"r":"Wales","c":"United Kingdom"},"o":{"r":"NCBI","i":"ERR4838899"}}
{"p":"B.1.597","w":{"d":29,"y":2020,"m":8},"l":{"r":"England","c":"United Kingdom"},"o":{"r":"NCBI","i":"ERR4646860"}}
{"p":"B.1.177","w":{"d":29,"y":2020,"m":8},"l":{"r":"Scotland","c":"United Kingdom"},"o":{"r":"NCBI","i":"ERR4615554"}}
{"p":"B.1","w":{"d":29,"y":2020,"m":3},"l":{"c":"Austria"},"o":{"r":"NCBI","i":"ERR4704230"}}
{"p":"B.1","w":{"d":29,"y":2020,"m":4},"l":{"r":"England","c":"United Kingdom"},"o":{"r":"NCBI","i":"ERR4248473"}}
{"p":"B.1.177.56","w":{"d":29,"y":2020,"m":8},"l":{"r":"England","c":"United Kingdom"},"o":{"r":"NCBI","i":"ERR4645847"}}
{"p":"B.1","w":{"d":29,"y":2020,"m":8},"l":{"r":"England","c":"United Kingdom"},"o":{"r":"NCBI","i":"ERR4615781"}}
{"p":"B.1","w":{"d":29,"y":2020,"m":8},"l":{"r":"England","c":"United Kingdom"},"o":{"r":"NCBI","i":"ERR4646884"}}
{"p":"B.1.160","w":{"d":29,"y":2020,"m":8},"l":{"r":"England","c":"United Kingdom"},"o":{"r":"NCBI","i":"ERR4599561"}}
{"p":"B.1.1.37","w":{"d":29,"y":2020,"m":8},"l":{"r":"England","c":"United Kingdom"},"o":{"r":"NCBI","i":"ERR4646856"}}
{"p":"B.1.36.23","w":{"d":29,"y":2020,"m":8},"l":{"r":"Scotland","c":"United Kingdom"},"o":{"r":"NCBI","i":"ERR4599566"}}
{"p":"B.1.177","w":{"d":29,"y":2020,"m":8},"l":{"r":"Scotland","c":"United Kingdom"},"o":{"r":"NCBI","i":"ERR4599572"}}
{"p":"B.1.1.307","w":{"d":29,"y":2020,"m":9},"l":{"r":"England","c":"United Kingdom"},"o":{"r":"NCBI","i":"ERR4688942"}}
{"p":"AD.2","w":{"d":29,"y":2020,"m":9},"l":{"r":"England","c":"United Kingdom"},"o":{"r":"NCBI","i":"ERR4688894"}}
{"p":"B.1.1","w":{"d":29,"y":2020,"m":4},"l":{"r":"England","c":"United Kingdom"},"o":{"r":"NCBI","i":"ERR4248478"}}
{"p":"B.1.1.198","w":{"d":29,"y":2020,"m":8},"l":{"r":"England","c":"United Kingdom"},"o":{"r":"NCBI","i":"ERR4646886"}}
{"p":"B.1.13","w":{"d":29,"y":2020,"m":4},"l":{"r":"England","c":"United Kingdom"},"o":{"r":"NCBI","i":"ERR4248927"}}
{"p":"B.1.177.82","w":{"d":29,"y":2020,"m":8},"l":{"r":"England","c":"United Kingdom"},"o":{"r":"NCBI","i":"ERR4646859"}}
{"p":"B.1.1.29","w":{"d":29,"y":2020,"m":5},"l":{"r":"Wales","c":"United Kingdom"},"o":{"r":"NCBI","i":"ERR4309118"}}
{"p":"AD.2","w":{"d":29,"y":2020,"m":8},"l":{"r":"England","c":"United Kingdom"},"o":{"r":"NCBI","i":"ERR4599551"}}
{"p":"AP.1","w":{"d":29,"y":2020,"m":10},"l":{"r":"Wales","c":"United Kingdom"},"o":{"r":"NCBI","i":"ERR4838787"}}
{"p":"B.4","w":{"d":29,"y":2020,"m":2},"l":{"r":"England","c":"United Kingdom"},"o":{"r":"NCBI","i":"ERR4207820"}}
{"p":"B.1.177.7","w":{"d":29,"y":2020,"m":8},"l":{"r":"Wales","c":"United Kingdom"},"o":{"r":"NCBI","i":"ERR4666706"}}
{"p":"B.1.177.65","w":{"d":29,"y":2020,"m":10},"l":{"r":"Wales","c":"United Kingdom"},"o":{"r":"NCBI","i":"ERR4838750"}}
{"p":"B.1.1.309","w":{"d":29,"y":2020,"m":8},"l":{"r":"England","c":"United Kingdom"},"o":{"r":"NCBI","i":"ERR4599550"}}
{"p":"B.1.1.311","w":{"d":29,"y":2020,"m":9},"l":{"r":"England","c":"United Kingdom"},"o":{"r":"NCBI","i":"ERR4688931"}}
{"p":"B.1","w":{"d":29,"y":2020,"m":8},"l":{"r":"England","c":"United Kingdom"},"o":{"r":"NCBI","i":"ERR4646885"}}
{"p":"B.1.1.237","w":{"d":29,"y":2020,"m":7},"l":{"r":"Wales","c":"United Kingdom"},"o":{"r":"NCBI","i":"ERR4495550"}}
{"p":"B.1.1","w":{"d":29,"y":2020,"m":8},"l":{"r":"England","c":"United Kingdom"},"o":{"r":"NCBI","i":"ERR4599549"}}
{"p":"B.1","w":{"d":29,"y":2020,"m":8},"l":{"r":"England","c":"United Kingdom"},"o":{"r":"NCBI","i":"ERR4646862"}}
{"p":"B.1.1.315","w":{"d":29,"y":2020,"m":8},"l":{"r":"England","c":"United Kingdom"},"o":{"r":"NCBI","i":"ERR4646854"}}
{"p":"B.1.177","w":{"d":29,"y":2020,"m":9},"l":{"r":"England","c":"United Kingdom"},"o":{"r":"NCBI","i":"ERR4688914"}}
{"p":"B.1.1","w":{"d":29,"y":2020,"m":2},"l":{"r":"England","c":"United Kingdom"},"o":{"r":"NCBI","i":"ERR4206006"}}
{"p":"B.1","w":{"d":29,"y":2020,"m":4},"l":{"r":"England","c":"United Kingdom"},"o":{"r":"NCBI","i":"ERR4248464"}}
{"p":"B.1.177","w":{"d":29,"y":2020,"m":10},"l":{"r":"Wales","c":"United Kingdom"},"o":{"r":"NCBI","i":"ERR4838709"}}
{"p":"B.1.177","w":{"d":29,"y":2020,"m":9},"l":{"r":"England","c":"United Kingdom"},"o":{"r":"NCBI","i":"ERR4688920"}}
{"p":"B.1.177.7","w":{"d":29,"y":2020,"m":10},"l":{"r":"Wales","c":"United Kingdom"},"o":{"r":"NCBI","i":"ERR4837643"}}
{"p":"AD.2","w":{"d":29,"y":2020,"m":8},"l":{"r":"Wales","c":"United Kingdom"},"o":{"r":"NCBI","i":"ERR4645016"}}
{"p":"B.1.258.7","w":{"d":29,"y":2020,"m":10},"l":{"r":"Wales","c":"United Kingdom"},"o":{"r":"NCBI","i":"ERR4839066"}}
{"p":"B.1.1.70","c":"Alpha","w":{"d":29,"y":2020,"m":8},"l":{"r":"England","c":"United Kingdom"},"o":{"r":"NCBI","i":"ERR4646855"}}
{"p":"B.1.177.56","w":{"d":29,"y":2020,"m":8},"l":{"r":"England","c":"United Kingdom"},"o":{"r":"NCBI","i":"ERR4645858"}}
{"p":"B.1.1.29","w":{"d":29,"y":2020,"m":5},"l":{"r":"Wales","c":"United Kingdom"},"o":{"r":"NCBI","i":"ERR4309035"}}
{"p":"B.1.1.237","w":{"d":29,"y":2020,"m":7},"l":{"r":"Wales","c":"United Kingdom"},"o":{"r":"NCBI","i":"ERR4440694"}}
{"p":"B.1.177","w":{"d":29,"y":2020,"m":8},"l":{"r":"Scotland","c":"United Kingdom"},"o":{"r":"NCBI","i":"ERR4615550"}}
{"p":"B.1.1.49","w":{"d":29,"y":2020,"m":5},"l":{"r":"Wales","c":"United Kingdom"},"o":{"r":"NCBI","i":"ERR4309161"}}
{"p":"B.1.36.23","w":{"d":29,"y":2020,"m":8},"l":{"r":"Scotland","c":"United Kingdom"},"o":{"r":"NCBI","i":"ERR4599564"}}
{"p":"B.1.1","w":{"d":29,"y":2020,"m":8},"l":{"r":"England","c":"United Kingdom"},"o":{"r":"NCBI","i":"ERR4599569"}}
{"p":"B.1.177.4","w":{"d":29,"y":2020,"m":10},"l":{"r":"Wales","c":"United Kingdom"},"o":{"r":"NCBI","i":"ERR4838893"}}
{"p":"B.1.1.289","w":{"d":29,"y":2020,"m":5},"l":{"r":"Wales","c":"United Kingdom"},"o":{"r":"NCBI","i":"ERR4309016"}}
{"p":"B.1.1","w":{"d":29,"y":2020,"m":4},"l":{"r":"England","c":"United Kingdom"},"o":{"r":"NCBI","i":"ERR4248487"}}
{"p":"B.1.1.37","w":{"d":29,"y":2020,"m":9},"l":{"r":"England","c":"United Kingdom"},"o":{"r":"NCBI","i":"ERR4688938"}}
{"p":"B.1.1","w":{"d":29,"y":2020,"m":4},"l":{"r":"England","c":"United Kingdom"},"o":{"r":"NCBI","i":"ERR4248908"}}
{"p":"B.1.177.19","w":{"d":29,"y":2020,"m":10},"l":{"r":"Wales","c":"United Kingdom"},"o":{"r":"NCBI","i":"ERR4838850"}}
{"p":"B.1.1.369","w":{"d":29,"y":2020,"m":7},"l":{"r":"England","c":"United Kingdom"},"o":{"r":"NCBI","i":"ERR4584916"}}
{"p":"B.1.258.7","w":{"d":29,"y":2020,"m":10},"l":{"r":"Wales","c":"United Kingdom"},"o":{"r":"NCBI","i":"ERR4837664"}}
{"p":"B.1.1.363","w":{"d":29,"y":2020,"m":5},"l":{"r":"Wales","c":"United Kingdom"},"o":{"r":"NCBI","i":"ERR4309023"}}
{"p":"AD.2","w":{"d":29,"y":2020,"m":8},"l":{"r":"England","c":"United Kingdom"},"o":{"r":"NCBI","i":"ERR4599568"}}
{"p":"B.1","w":{"d":29,"y":2020,"m":2},"l":{"r":"England","c":"United Kingdom"},"o":{"r":"NCBI","i":"ERR4206281"}}
{"p":"B.1.1.363","w":{"d":29,"y":2020,"m":5},"l":{"r":"Wales","c":"United Kingdom"},"o":{"r":"NCBI","i":"ERR4305246"}}
{"p":"B.1.1","w":{"d":29,"y":2020,"m":2},"l":{"r":"England","c":"United Kingdom"},"o":{"r":"NCBI","i":"ERR4204247"}}
{"p":"B.1.1.237","w":{"d":29,"y":2020,"m":7},"l":{"r":"Wales","c":"United Kingdom"},"o":{"r":"NCBI","i":"ERR4495154"}}
{"p":"B.1","w":{"d":29,"y":2020,"m":8},"l":{"r":"England","c":"United Kingdom"},"o":{"r":"NCBI","i":"ERR4645609"}}
{"p":"B.1.1.37","w":{"d":29,"y":2020,"m":9},"l":{"r":"England","c":"United Kingdom"},"o":{"r":"NCBI","i":"ERR4688930"}}
{"p":"B.1.1.315","w":{"d":29,"y":2020,"m":8},"l":{"r":"England","c":"United Kingdom"},"o":{"r":"NCBI","i":"ERR4646871"}}
{"p":"B.1.201","w":{"d":29,"y":2020,"m":4},"l":{"r":"England","c":"United Kingdom"},"o":{"r":"NCBI","i":"ERR4248376"}}
{"p":"B.1.177","w":{"d":29,"y":2020,"m":10},"l":{"r":"Wales","c":"United Kingdom"},"o":{"r":"NCBI","i":"ERR4838994"}}
{"p":"B.1.1.37","w":{"d":29,"y":2020,"m":9},"l":{"r":"England","c":"United Kingdom"},"o":{"r":"NCBI","i":"ERR4688935"}}
{"p":"A","w":{"d":29,"y":2020,"m":1},"l":{"r":"England","c":"United Kingdom"},"o":{"r":"NCBI","i":"ERR4206494"}}
{"p":"B","w":{"d":29,"y":2020,"m":2},"l":{"r":"England","c":"United Kingdom"},"o":{"r":"NCBI","i":"ERR4209021"}}
{"p":"B.1.1","w":{"d":29,"y":2020,"m":5},"l":{"r":"Wales","c":"United Kingdom"},"o":{"r":"NCBI","i":"ERR4309166"}}
{"p":"B","w":{"d":29,"y":2020,"m":4},"l":{"r":"England","c":"United Kingdom"},"o":{"r":"NCBI","i":"ERR4248823"}}
{"p":"B.1.1.37","w":{"d":29,"y":2020,"m":9},"l":{"r":"England","c":"United Kingdom"},"o":{"r":"NCBI","i":"ERR4688922"}}
{"p":"B.1.177","w":{"d":29,"y":2020,"m":10},"l":{"r":"Wales","c":"United Kingdom"},"o":{"r":"NCBI","i":"ERR4837640"}}
{"p":"B.1.1.323","w":{"d":29,"y":2020,"m":2},"l":{"r":"England","c":"United Kingdom"},"o":{"r":"NCBI","i":"ERR4207636"}}
{"p":"B.1.177.56","w":{"d":29,"y":2020,"m":9},"l":{"r":"England","c":"United Kingdom"},"o":{"r":"NCBI","i":"ERR4688895"}}
{"p":"B.1.223","w":{"d":29,"y":2020,"m":4},"l":{"r":"England","c":"United Kingdom"},"o":{"r":"NCBI","i":"ERR4248366"}}
{"p":"B.1.177.7","w":{"d":29,"y":2020,"m":10},"l":{"r":"Wales","c":"United Kingdom"},"o":{"r":"NCBI","i":"ERR4838937"}}
{"p":"B.1.1.315","w":{"d":29,"y":2020,"m":8},"l":{"r":"England","c":"United Kingdom"},"o":{"r":"NCBI","i":"ERR4645797"}}
{"p":"B.1.177.9","w":{"d":29,"y":2020,"m":10},"l":{"r":"England","c":"United Kingdom"},"o":{"r":"NCBI","i":"ERR4834931"}}
{"p":"B.4","w":{"d":29,"y":2020,"m":2},"l":{"r":"England","c":"United Kingdom"},"o":{"r":"NCBI","i":"ERR4205085"}}
{"p":"B.1.1.315","w":{"d":29,"y":2020,"m":8},"l":{"r":"England","c":"United Kingdom"},"o":{"r":"NCBI","i":"ERR4615633"}}
{"p":"B.1.1.279","w":{"d":29,"y":2020,"m":7},"l":{"r":"England","c":"United Kingdom"},"o":{"r":"NCBI","i":"ERR4584914"}}
{"p":"B.1.1.37","w":{"d":29,"y":2020,"m":10},"l":{"r":"Wales","c":"United Kingdom"},"o":{"r":"NCBI","i":"ERR4837730"}}
{"p":"B.1.1.363","w":{"d":29,"y":2020,"m":5},"l":{"r":"Wales","c":"United Kingdom"},"o":{"r":"NCBI","i":"ERR4309119"}}
{"p":"B.1","w":{"d":29,"y":2020,"m":9},"l":{"r":"England","c":"United Kingdom"},"o":{"r":"NCBI","i":"ERR4688941"}}
{"p":"B.1.1.198","w":{"d":29,"y":2020,"m":9},"l":{"r":"England","c":"United Kingdom"},"o":{"r":"NCBI","i":"ERR4671513"}}
{"p":"B.1.1.37","w":{"d":29,"y":2020,"m":9},"l":{"r":"England","c":"United Kingdom"},"o":{"r":"NCBI","i":"ERR4688928"}}
{"p":"B.1.1","w":{"d":29,"y":2020,"m":6},"l":{"r":"Wales","c":"United Kingdom"},"o":{"r":"NCBI","i":"ERR4439391"}}
{"p":"B.1.610","w":{"d":29,"y":2020,"m":8},"l":{"r":"England","c":"United Kingdom"},"o":{"r":"NCBI","i":"ERR4646883"}}
{"p":"B.1","w":{"d":29,"y":2020,"m":2},"l":{"r":"England","c":"United Kingdom"},"o":{"r":"NCBI","i":"ERR4205001"}}
{"p":"B.29","w":{"d":29,"y":2020,"m":2},"l":{"r":"England","c":"United Kingdom"},"o":{"r":"NCBI","i":"ERR4206273"}}
{"p":"B.1","w":{"d":29,"y":2020,"m":2},"l":{"r":"England","c":"United Kingdom"},"o":{"r":"NCBI","i":"ERR4206035"}}
{"p":"B.1.1","w":{"d":29,"y":2020,"m":5},"l":{"r":"Wales","c":"United Kingdom"},"o":{"r":"NCBI","i":"ERR4309055"}}
{"p":"B.1.177","w":{"d":29,"y":2020,"m":8},"l":{"r":"England","c":"United Kingdom"},"o":{"r":"NCBI","i":"ERR4615765"}}
{"p":"B.1","w":{"d":29,"y":2020,"m":2},"l":{"r":"England","c":"United Kingdom"},"o":{"r":"NCBI","i":"ERR4205802"}}
{"p":"B.1.177.7","w":{"d":29,"y":2020,"m":10},"l":{"r":"Wales","c":"United Kingdom"},"o":{"r":"NCBI","i":"ERR4838955"}}
{"p":"B.1.1","w":{"d":29,"y":2020,"m":4},"l":{"r":"England","c":"United Kingdom"},"o":{"r":"NCBI","i":"ERR4249117"}}
{"p":"B.1.1.237","w":{"d":29,"y":2020,"m":7},"l":{"r":"Wales","c":"United Kingdom"},"o":{"r":"NCBI","i":"ERR4495378"}}
{"p":"A.2","w":{"d":29,"y":2020,"m":3},"l":{"c":"Austria"},"o":{"r":"NCBI","i":"ERR4704231"}}
{"p":"B.1","w":{"d":29,"y":2020,"m":10},"l":{"r":"Wales","c":"United Kingdom"},"o":{"r":"NCBI","i":"ERR4838932"}}
{"p":"B.1","w":{"d":29,"y":2020,"m":3},"l":{"r":"Scotland","c":"United Kingdom"},"o":{"r":"NCBI","i":"ERR5061310"}}
{"p":"AD.2","w":{"d":29,"y":2020,"m":8},"l":{"r":"England","c":"United Kingdom"},"o":{"r":"NCBI","i":"ERR4646874"}}
{"p":"B.1.177.7","w":{"d":29,"y":2020,"m":10},"l":{"r":"Wales","c":"United Kingdom"},"o":{"r":"NCBI","i":"ERR4838644"}}
{"p":"B.1.160.7","w":{"d":29,"y":2020,"m":10},"l":{"r":"Wales","c":"United Kingdom"},"o":{"r":"NCBI","i":"ERR4839126"}}
{"p":"B.1.177","w":{"d":29,"y":2020,"m":8},"l":{"r":"Scotland","c":"United Kingdom"},"o":{"r":"NCBI","i":"ERR4599571"}}
{"p":"B.1.142","w":{"d":29,"y":2020,"m":5},"l":{"r":"Wales","c":"United Kingdom"},"o":{"r":"NCBI","i":"ERR4307675"}}
{"p":"B.1","w":{"d":29,"y":2020,"m":9},"l":{"r":"England","c":"United Kingdom"},"o":{"r":"NCBI","i":"ERR4688919"}}
{"p":"B.1.177","w":{"d":29,"y":2020,"m":10},"l":{"r":"Wales","c":"United Kingdom"},"o":{"r":"NCBI","i":"ERR4837548"}}
{"p":"B.1.1.37","w":{"d":29,"y":2020,"m":10},"l":{"r":"Wales","c":"United Kingdom"},"o":{"r":"NCBI","i":"ERR4837685"}}
{"p":"B.1.389","w":{"d":29,"y":2020,"m":9},"l":{"r":"England","c":"United Kingdom"},"o":{"r":"NCBI","i":"ERR4688925"}}
{"p":"B.1.177","w":{"d":29,"y":2020,"m":10},"l":{"r":"Wales","c":"United Kingdom"},"o":{"r":"NCBI","i":"ERR4838896"}}
{"p":"B.1.389","w":{"d":29,"y":2020,"m":9},"l":{"r":"England","c":"United Kingdom"},"o":{"r":"NCBI","i":"ERR4688918"}}
{"p":"B.1.1.37","w":{"d":29,"y":2020,"m":9},"l":{"r":"England","c":"United Kingdom"},"o":{"r":"NCBI","i":"ERR4688923"}}
{"p":"B.1.1.307","w":{"d":29,"y":2020,"m":9},"l":{"r":"England","c":"United Kingdom"},"o":{"r":"NCBI","i":"ERR4688937"}}
{"p":"AD.2","w":{"d":29,"y":2020,"m":8},"l":{"r":"England","c":"United Kingdom"},"o":{"r":"NCBI","i":"ERR4599548"}}
{"p":"B.1.1.37","w":{"d":29,"y":2020,"m":9},"l":{"r":"England","c":"United Kingdom"},"o":{"r":"NCBI","i":"ERR4688933"}}
{"p":"B.1","w":{"d":29,"y":2020,"m":3},"l":{"c":"Austria","l":"Korneuburg"},"o":{"r":"NCBI","i":"ERR4704232"}}
{"p":"B.1.36.17","w":{"d":29,"y":2020,"m":8},"l":{"r":"England","c":"United Kingdom"},"o":{"r":"NCBI","i":"ERR4645584"}}
{"p":"B.1.201","w":{"d":29,"y":2020,"m":4},"l":{"r":"England","c":"United Kingdom"},"o":{"r":"NCBI","i":"ERR4249096"}}
{"p":"AD.2","w":{"d":29,"y":2020,"m":9},"l":{"r":"England","c":"United Kingdom"},"o":{"r":"NCBI","i":"ERR4688940"}}
{"p":"B.1","w":{"d":29,"y":2020,"m":2},"l":{"r":"England","c":"United Kingdom"},"o":{"r":"NCBI","i":"ERR4205646"}}
{"p":"B.1.367","w":{"d":29,"y":2020,"m":8},"l":{"r":"England","c":"United Kingdom"},"o":{"r":"NCBI","i":"ERR4646858"}}
{"p":"B.1.160","w":{"d":29,"y":2020,"m":8},"l":{"r":"England","c":"United Kingdom"},"o":{"r":"NCBI","i":"ERR4599562"}}
{"p":"B.1.177","w":{"d":29,"y":2020,"m":8},"l":{"r":"Scotland","c":"United Kingdom"},"o":{"r":"NCBI","i":"ERR4599567"}}
{"p":"B.40","w":{"d":29,"y":2020,"m":4},"l":{"r":"England","c":"United Kingdom"},"o":{"r":"NCBI","i":"ERR4248355"}}
{"p":"B.1.1.37","w":{"d":29,"y":2020,"m":8},"l":{"r":"Scotland","c":"United Kingdom"},"o":{"r":"NCBI","i":"ERR4615918"}}
{"p":"B.1.1.37","w":{"d":29,"y":2020,"m":9},"l":{"r":"England","c":"United Kingdom"},"o":{"r":"NCBI","i":"ERR4688934"}}
{"p":"B.1.1.237","w":{"d":29,"y":2020,"m":7},"l":{"r":"Wales","c":"United Kingdom"},"o":{"r":"NCBI","i":"ERR4495509"}}
