{"p":"B.1.1.217","w":{"d":7,"y":2020,"m":6},"l":{"r":"England","c":"United Kingdom"},"o":{"r":"NCBI","i":"ERR4640589"}}
{"p":"B.1.177","w":{"d":7,"y":2020,"m":10},"l":{"r":"Wales","c":"United Kingdom"},"o":{"r":"NCBI","i":"ERR4692736"}}
{"p":"B.1.1.200","w":{"d":7,"y":2020,"m":6},"l":{"r":"England","c":"United Kingdom"},"o":{"r":"NCBI","i":"ERR4632186"}}
{"p":"B.1","w":{"d":7,"y":2020,"m":11},"l":{"r":"England","c":"United Kingdom"},"o":{"r":"NCBI","i":"ERR4866459"}}
{"p":"B.1.1","w":{"d":7,"y":2020,"m":6},"l":{"r":"England","c":"United Kingdom"},"o":{"r":"NCBI","i":"ERR4640564"}}
{"p":"B.1.1","w":{"d":7,"y":2020,"m":11},"l":{"r":"England","c":"United Kingdom"},"o":{"r":"NCBI","i":"ERR4866456"}}
{"p":"B.1.177","w":{"d":7,"y":2020,"m":9},"l":{"r":"Scotland","c":"United Kingdom"},"o":{"r":"NCBI","i":"ERR4651063"}}
{"p":"B.1.1","w":{"d":7,"y":2020,"m":6},"l":{"r":"England","c":"United Kingdom"},"o":{"r":"NCBI","i":"ERR4632481"}}
{"p":"B.1.1","w":{"d":7,"y":2020,"m":5},"l":{"r":"England","c":"United Kingdom"},"o":{"r":"NCBI","i":"ERR4248223"}}
{"p":"B.1","w":{"d":7,"y":2020,"m":6},"l":{"r":"England","c":"United Kingdom"},"o":{"r":"NCBI","i":"ERR4640574"}}
{"p":"B.1.1.51","w":{"d":7,"y":2020,"m":8},"l":{"r":"England","c":"United Kingdom"},"o":{"r":"NCBI","i":"ERR4597115"}}
{"p":"B.1.1.269","w":{"d":7,"y":2020,"m":9},"l":{"r":"England","c":"United Kingdom"},"o":{"r":"NCBI","i":"ERR4651095"}}
{"p":"B.1.1","w":{"d":7,"y":2020,"m":6},"l":{"r":"England","c":"United Kingdom"},"o":{"r":"NCBI","i":"ERR4640547"}}
{"p":"B.1.1.45","w":{"d":7,"y":2020,"m":6},"l":{"r":"England","c":"United Kingdom"},"o":{"r":"NCBI","i":"ERR4632177"}}
{"p":"B.1.177","w":{"d":7,"y":2020,"m":11},"l":{"r":"England","c":"United Kingdom"},"o":{"r":"NCBI","i":"ERR5061761"}}
{"p":"B.1.1","w":{"d":7,"y":2020,"m":8},"l":{"r":"Scotland","c":"United Kingdom"},"o":{"r":"NCBI","i":"ERR4585242"}}
{"p":"B.1.1.200","w":{"d":7,"y":2020,"m":6},"l":{"r":"England","c":"United Kingdom"},"o":{"r":"NCBI","i":"ERR4640590"}}
{"p":"B.1.1.301","w":{"d":7,"y":2020,"m":6},"l":{"r":"England","c":"United Kingdom"},"o":{"r":"NCBI","i":"ERR4632495"}}
{"p":"B.1.1.4","w":{"d":7,"y":2020,"m":8},"l":{"r":"England","c":"United Kingdom"},"o":{"r":"NCBI","i":"ERR4599933"}}
{"p":"B.1.1.45","w":{"d":7,"y":2020,"m":6},"l":{"r":"England","c":"United Kingdom"},"o":{"r":"NCBI","i":"ERR4632493"}}
{"p":"B.1.225","w":{"d":7,"y":2020,"m":5},"l":{"c":"United Kingdom"},"o":{"r":"NCBI","i":"ERR4238343"}}
{"p":"B.1.1","w":{"d":7,"y":2020,"m":8},"l":{"r":"England","c":"United Kingdom"},"o":{"r":"NCBI","i":"ERR4597204"}}
{"p":"B.1.1.1","w":{"d":7,"y":2020,"m":6},"l":{"r":"England","c":"United Kingdom"},"o":{"r":"NCBI","i":"ERR4640548"}}
{"p":"B.1","w":{"d":7,"y":2020,"m":3},"l":{"c":"Switzerland"},"o":{"r":"NCBI","i":"ERR4589026"}}
{"p":"B.1","w":{"d":7,"y":2020,"m":6},"l":{"r":"England","c":"United Kingdom"},"o":{"r":"NCBI","i":"ERR4639793"}}
{"p":"B.1.1.315","w":{"d":7,"y":2020,"m":8},"l":{"r":"Scotland","c":"United Kingdom"},"o":{"r":"NCBI","i":"ERR4597141"}}
{"p":"B.1.1","w":{"d":7,"y":2020,"m":5},"l":{"c":"United Kingdom"},"o":{"r":"NCBI","i":"ERR4238376"}}
{"p":"B.1.1.37","w":{"d":7,"y":2020,"m":10},"l":{"r":"Wales","c":"United Kingdom"},"o":{"r":"NCBI","i":"ERR4692583"}}
{"p":"B.1.160","w":{"d":7,"y":2020,"m":8},"l":{"r":"England","c":"United Kingdom"},"o":{"r":"NCBI","i":"ERR4599931"}}
{"p":"B.1.36.12","w":{"d":7,"y":2020,"m":9},"l":{"r":"England","c":"United Kingdom"},"o":{"r":"NCBI","i":"ERR4651055"}}
{"p":"B.1.1","w":{"d":7,"y":2020,"m":5},"l":{"c":"United Kingdom"},"o":{"r":"NCBI","i":"ERR4238458"}}
{"p":"B.1.1","w":{"d":7,"y":2020,"m":5},"l":{"c":"United Kingdom"},"o":{"r":"NCBI","i":"ERR4238360"}}
{"p":"B.1","w":{"d":7,"y":2020,"m":8},"l":{"r":"England","c":"United Kingdom"},"o":{"r":"NCBI","i":"ERR4597156"}}
{"p":"B.1.1","w":{"d":7,"y":2020,"m":4},"l":{"r":"England","c":"United Kingdom"},"o":{"r":"NCBI","i":"ERR5060839"}}
{"p":"B.1.1.305","w":{"d":7,"y":2020,"m":9},"l":{"r":"England","c":"United Kingdom"},"o":{"r":"NCBI","i":"ERR4651066"}}
{"p":"B.1.177","w":{"d":7,"y":2020,"m":11},"l":{"r":"Wales","c":"United Kingdom"},"o":{"r":"NCBI","i":"ERR5062371"}}
{"p":"B.1.177","w":{"d":7,"y":2020,"m":11},"l":{"r":"England","c":"United Kingdom"},"o":{"r":"NCBI","i":"ERR4866436"}}
{"p":"B.1.1.289","w":{"d":7,"y":2020,"m":6},"l":{"r":"Wales","c":"United Kingdom"},"o":{"r":"NCBI","i":"ERR4366415"}}
{"p":"B.1.1.200","w":{"d":7,"y":2020,"m":6},"l":{"r":"England","c":"United Kingdom"},"o":{"r":"NCBI","i":"ERR4632178"}}
{"p":"B.1.1","w":{"d":7,"y":2020,"m":6},"l":{"r":"England","c":"United Kingdom"},"o":{"r":"NCBI","i":"ERR4640549"}}
{"p":"B.1","w":{"d":7,"y":2020,"m":3},"l":{"c":"Austria"},"o":{"r":"NCBI","i":"ERR4704512"}}
{"p":"B.1.177","w":{"d":7,"y":2020,"m":11},"l":{"r":"England","c":"United Kingdom"},"o":{"r":"NCBI","i":"ERR4866430"}}
{"p":"B.1.532","w":{"d":7,"y":2020,"m":8},"l":{"r":"England","c":"United Kingdom"},"o":{"r":"NCBI","i":"ERR4599929"}}
{"p":"B.1.177","w":{"d":7,"y":2020,"m":8},"l":{"r":"England","c":"United Kingdom"},"o":{"r":"NCBI","i":"ERR4597123"}}
{"p":"B.1.177","w":{"d":7,"y":2020,"m":9},"l":{"r":"England","c":"United Kingdom"},"o":{"r":"NCBI","i":"ERR5061512"}}
{"p":"B.1.1.51","w":{"d":7,"y":2020,"m":8},"l":{"r":"England","c":"United Kingdom"},"o":{"r":"NCBI","i":"ERR4599860"}}
{"p":"B.1.160","w":{"d":7,"y":2020,"m":9},"l":{"r":"England","c":"United Kingdom"},"o":{"r":"NCBI","i":"ERR4651026"}}
{"p":"B.1.177","w":{"d":7,"y":2020,"m":11},"l":{"r":"England","c":"United Kingdom"},"o":{"r":"NCBI","i":"ERR4866421"}}
{"p":"B.1.177","w":{"d":7,"y":2020,"m":11},"l":{"r":"England","c":"United Kingdom"},"o":{"r":"NCBI","i":"ERR4866429"}}
{"p":"B.1.1.227","w":{"d":7,"y":2020,"m":8},"l":{"r":"England","c":"United Kingdom"},"o":{"r":"NCBI","i":"ERR4597154"}}
{"p":"B.1.1","w":{"d":7,"y":2020,"m":8},"l":{"r":"England","c":"United Kingdom"},"o":{"r":"NCBI","i":"ERR4597202"}}
{"p":"B.1.1","w":{"d":7,"y":2020,"m":8},"l":{"r":"England","c":"United Kingdom"},"o":{"r":"NCBI","i":"ERR4597106"}}
{"p":"B.1.1.289","w":{"d":7,"y":2020,"m":6},"l":{"r":"Wales","c":"United Kingdom"},"o":{"r":"NCBI","i":"ERR4366457"}}
{"p":"B.1","w":{"d":7,"y":2020,"m":11},"l":{"r":"England","c":"United Kingdom"},"o":{"r":"NCBI","i":"ERR4866454"}}
{"p":"B.1.1.311","w":{"d":7,"y":2020,"m":10},"l":{"r":"England","c":"United Kingdom"},"o":{"r":"NCBI","i":"ERR5061029"}}
{"p":"B.1.1.130","w":{"d":7,"y":2020,"m":8},"l":{"r":"England","c":"United Kingdom"},"o":{"r":"NCBI","i":"ERR4585085"}}
{"p":"B.1.160","w":{"d":7,"y":2020,"m":11},"l":{"r":"England","c":"United Kingdom"},"o":{"r":"NCBI","i":"ERR4866422"}}
{"p":"B.1.1","w":{"d":7,"y":2020,"m":5},"l":{"c":"United Kingdom"},"o":{"r":"NCBI","i":"ERR4238416"}}
{"p":"B.1.1.365","w":{"d":7,"y":2020,"m":6},"l":{"r":"England","c":"United Kingdom"},"o":{"r":"NCBI","i":"ERR4639744"}}
{"p":"B.23","w":{"d":7,"y":2020,"m":3},"l":{"r":"England","c":"United Kingdom"},"o":{"r":"NCBI","i":"ERR4205061"}}
{"p":"B.1.1.161","w":{"d":7,"y":2020,"m":8},"l":{"r":"England","c":"United Kingdom"},"o":{"r":"NCBI","i":"ERR4597130"}}
{"p":"B.1.1.161","w":{"d":7,"y":2020,"m":8},"l":{"r":"England","c":"United Kingdom"},"o":{"r":"NCBI","i":"ERR4597188"}}
{"p":"B.1.1.67","w":{"d":7,"y":2020,"m":6},"l":{"r":"England","c":"United Kingdom"},"o":{"r":"NCBI","i":"ERR4640577"}}
{"p":"B.1","w":{"d":7,"y":2020,"m":3},"l":{"c":"Austria"},"o":{"r":"NCBI","i":"ERR4702408"}}
{"p":"B.1.1.164","w":{"d":7,"y":2020,"m":6},"l":{"r":"England","c":"United Kingdom"},"o":{"r":"NCBI","i":"ERR4632189"}}
{"p":"B.1.1.45","w":{"d":7,"y":2020,"m":6},"l":{"r":"England","c":"United Kingdom"},"o":{"r":"NCBI","i":"ERR4632180"}}
{"p":"B.1.221.1","w":{"d":7,"y":2020,"m":9},"l":{"r":"England","c":"United Kingdom"},"o":{"r":"NCBI","i":"ERR4651059"}}
{"p":"B.1.1.200","w":{"d":7,"y":2020,"m":6},"l":{"r":"England","c":"United Kingdom"},"o":{"r":"NCBI","i":"ERR4632487"}}
{"p":"B.1.1","w":{"d":7,"y":2020,"m":6},"l":{"r":"England","c":"United Kingdom"},"o":{"r":"NCBI","i":"ERR4640578"}}
{"p":"B.1.1.37","w":{"d":7,"y":2020,"m":10},"l":{"r":"Wales","c":"United Kingdom"},"o":{"r":"NCBI","i":"ERR4692739"}}
{"p":"B.1.177","w":{"d":7,"y":2020,"m":11},"l":{"r":"England","c":"United Kingdom"},"o":{"r":"NCBI","i":"ERR4866451"}}
{"p":"B.1.1.331","w":{"d":7,"y":2020,"m":3},"l":{"c":"Austria","l":"Korneuburg"},"o":{"r":"NCBI","i":"ERR4703626"}}
{"p":"B.1.177","w":{"d":7,"y":2020,"m":9},"l":{"r":"England","c":"United Kingdom"},"o":{"r":"NCBI","i":"ERR5060569"}}
{"p":"B.1.1.107","w":{"d":7,"y":2020,"m":6},"l":{"r":"England","c":"United Kingdom"},"o":{"r":"NCBI","i":"ERR4640546"}}
{"p":"B.1.177","w":{"d":7,"y":2020,"m":8},"l":{"r":"England","c":"United Kingdom"},"o":{"r":"NCBI","i":"ERR4597116"}}
{"p":"B.1.1.37","w":{"d":7,"y":2020,"m":9},"l":{"r":"England","c":"United Kingdom"},"o":{"r":"NCBI","i":"ERR5060537"}}
{"p":"B.1.1.331","w":{"d":7,"y":2020,"m":3},"l":{"c":"Austria"},"o":{"r":"NCBI","i":"ERR4703629"}}
{"p":"B.1.1.4","w":{"d":7,"y":2020,"m":8},"l":{"r":"England","c":"United Kingdom"},"o":{"r":"NCBI","i":"ERR4597195"}}
{"p":"B.1","w":{"d":7,"y":2020,"m":6},"l":{"r":"England","c":"United Kingdom"},"o":{"r":"NCBI","i":"ERR4639748"}}
{"p":"B.1.1","w":{"d":7,"y":2020,"m":6},"l":{"r":"England","c":"United Kingdom"},"o":{"r":"NCBI","i":"ERR4640545"}}
{"p":"B.1.1","w":{"d":7,"y":2020,"m":5},"l":{"c":"United Kingdom"},"o":{"r":"NCBI","i":"ERR4238471"}}
{"p":"B.1.1.307","w":{"d":7,"y":2020,"m":10},"l":{"r":"England","c":"United Kingdom"},"o":{"r":"NCBI","i":"ERR5062514"}}
{"p":"B.1.177","w":{"d":7,"y":2020,"m":9},"l":{"r":"England","c":"United Kingdom"},"o":{"r":"NCBI","i":"ERR4651105"}}
{"p":"B.40","w":{"d":7,"y":2020,"m":3},"l":{"r":"England","c":"United Kingdom"},"o":{"r":"NCBI","i":"ERR4204594"}}
{"p":"B.1.1.217","w":{"d":7,"y":2020,"m":6},"l":{"r":"England","c":"United Kingdom"},"o":{"r":"NCBI","i":"ERR4639790"}}
{"p":"B.1.1.305","w":{"d":7,"y":2020,"m":9},"l":{"r":"England","c":"United Kingdom"},"o":{"r":"NCBI","i":"ERR4651064"}}
{"p":"B.1.1.55","w":{"d":7,"y":2020,"m":6},"l":{"r":"England","c":"United Kingdom"},"o":{"r":"NCBI","i":"ERR4639770"}}
{"p":"B.1.177","w":{"d":7,"y":2020,"m":11},"l":{"r":"England","c":"United Kingdom"},"o":{"r":"NCBI","i":"ERR4866455"}}
{"p":"B.1.1.289","w":{"d":7,"y":2020,"m":6},"l":{"r":"Wales","c":"United Kingdom"},"o":{"r":"NCBI","i":"ERR4364208"}}
{"p":"B.1.1.99","w":{"d":7,"y":2020,"m":6},"l":{"r":"England","c":"United Kingdom"},"o":{"r":"NCBI","i":"ERR4639865"}}
{"p":"B.1.1","w":{"d":7,"y":2020,"m":9},"l":{"r":"England","c":"United Kingdom"},"o":{"r":"NCBI","i":"ERR4651061"}}
{"p":"B.1","w":{"d":7,"y":2020,"m":8},"l":{"r":"England","c":"United Kingdom"},"o":{"r":"NCBI","i":"ERR4597147"}}
{"p":"B.1.1.257","w":{"d":7,"y":2020,"m":4},"l":{"r":"England","c":"United Kingdom"},"o":{"r":"NCBI","i":"ERR5062184"}}
{"p":"B.1.177","w":{"d":7,"y":2020,"m":11},"l":{"r":"England","c":"United Kingdom"},"o":{"r":"NCBI","i":"ERR4866450"}}
{"p":"AK.1","w":{"d":7,"y":2020,"m":9},"l":{"r":"England","c":"United Kingdom"},"o":{"r":"NCBI","i":"ERR5062126"}}
{"p":"B.1.36.17","w":{"d":7,"y":2020,"m":9},"l":{"r":"England","c":"United Kingdom"},"o":{"r":"NCBI","i":"ERR4651090"}}
{"p":"B.1.1.315","w":{"d":7,"y":2020,"m":8},"l":{"r":"Scotland","c":"United Kingdom"},"o":{"r":"NCBI","i":"ERR4597139"}}
{"p":"B.33","w":{"d":7,"y":2020,"m":5},"l":{"r":"Scotland","c":"United Kingdom"},"o":{"r":"NCBI","i":"ERR4248290"}}
{"p":"B.1.1","w":{"d":7,"y":2020,"m":3},"l":{"r":"England","c":"United Kingdom"},"o":{"r":"NCBI","i":"ERR4204625"}}
{"p":"B.1.1.37","w":{"d":7,"y":2020,"m":10},"l":{"r":"Wales","c":"United Kingdom"},"o":{"r":"NCBI","i":"ERR4692718"}}
{"p":"B.1.1.289","w":{"d":7,"y":2020,"m":6},"l":{"r":"Wales","c":"United Kingdom"},"o":{"r":"NCBI","i":"ERR4365855"}}
{"p":"B.1.1.161","w":{"d":7,"y":2020,"m":6},"l":{"r":"England","c":"United Kingdom"},"o":{"r":"NCBI","i":"ERR4632527"}}
{"p":"B.1.1.4","w":{"d":7,"y":2020,"m":8},"l":{"r":"England","c":"United Kingdom"},"o":{"r":"NCBI","i":"ERR4597151"}}
{"p":"B.1.1","w":{"d":7,"y":2020,"m":3},"l":{"c":"Austria"},"o":{"r":"NCBI","i":"ERR4703627"}}
{"p":"B.1.1","w":{"d":7,"y":2020,"m":5},"l":{"r":"England","c":"United Kingdom"},"o":{"r":"NCBI","i":"ERR4248411"}}
{"p":"B.1.1.155","w":{"d":7,"y":2020,"m":6},"l":{"r":"England","c":"United Kingdom"},"o":{"r":"NCBI","i":"ERR4640592"}}
{"p":"B.1","w":{"d":7,"y":2020,"m":4},"l":{"c":"Austria"},"o":{"r":"NCBI","i":"ERR4704326"}}
{"p":"B.1.1","w":{"d":7,"y":2020,"m":11},"l":{"r":"England","c":"United Kingdom"},"o":{"r":"NCBI","i":"ERR4866447"}}
{"p":"B.1.560","w":{"d":7,"y":2020,"m":8},"l":{"r":"Scotland","c":"United Kingdom"},"o":{"r":"NCBI","i":"ERR4599877"}}
{"p":"B.1.1","w":{"d":7,"y":2020,"m":8},"l":{"r":"England","c":"United Kingdom"},"o":{"r":"NCBI","i":"ERR4597198"}}
{"p":"B.1.1","w":{"d":7,"y":2020,"m":5},"l":{"r":"England","c":"United Kingdom"},"o":{"r":"NCBI","i":"ERR4248673"}}
{"p":"B","w":{"d":7,"y":2020,"m":3},"l":{"c":"Austria"},"o":{"r":"NCBI","i":"ERR4704520"}}
{"p":"B.1.1.45","w":{"d":7,"y":2020,"m":6},"l":{"r":"England","c":"United Kingdom"},"o":{"r":"NCBI","i":"ERR4632197"}}
{"p":"B.1.1.3","w":{"d":7,"y":2020,"m":5},"l":{"r":"England","c":"United Kingdom"},"o":{"r":"NCBI","i":"ERR4248278"}}
{"p":"B.3","w":{"d":7,"y":2020,"m":4},"l":{"r":"England","c":"United Kingdom"},"o":{"r":"NCBI","i":"ERR5062364"}}
{"p":"B.1.1.12","w":{"d":7,"y":2020,"m":8},"l":{"r":"England","c":"United Kingdom"},"o":{"r":"NCBI","i":"ERR4597132"}}
{"p":"B.1.1","w":{"d":7,"y":2020,"m":9},"l":{"r":"England","c":"United Kingdom"},"o":{"r":"NCBI","i":"ERR4651104"}}
{"p":"B.39","w":{"d":7,"y":2020,"m":3},"l":{"r":"England","c":"United Kingdom"},"o":{"r":"NCBI","i":"ERR4204973"}}
{"p":"B.1.258.5","w":{"d":7,"y":2020,"m":11},"l":{"r":"England","c":"United Kingdom"},"o":{"r":"NCBI","i":"ERR4866457"}}
{"p":"B.1.177","w":{"d":7,"y":2020,"m":11},"l":{"r":"England","c":"United Kingdom"},"o":{"r":"NCBI","i":"ERR4866458"}}
{"p":"B.1.1","w":{"d":7,"y":2020,"m":4},"l":{"r":"England","c":"United Kingdom"},"o":{"r":"NCBI","i":"ERR5061113"}}
{"p":"B.1.1.369","w":{"d":7,"y":2020,"m":8},"l":{"r":"England","c":"United Kingdom"},"o":{"r":"NCBI","i":"ERR4585124"}}
{"p":"B.1.1.369","w":{"d":7,"y":2020,"m":6},"l":{"r":"England","c":"United Kingdom"},"o":{"r":"NCBI","i":"ERR4632183"}}
{"p":"B.1.1.142","w":{"d":7,"y":2020,"m":3},"l":{"r":"England","c":"United Kingdom"},"o":{"r":"NCBI","i":"ERR4204701"}}
{"p":"B.1.142","w":{"d":7,"y":2020,"m":6},"l":{"r":"Wales","c":"United Kingdom"},"o":{"r":"NCBI","i":"ERR4365649"}}
{"p":"B.1.391","w":{"d":7,"y":2020,"m":6},"l":{"r":"England","c":"United Kingdom"},"o":{"r":"NCBI","i":"ERR4632491"}}
{"p":"B.1.177.57","w":{"d":7,"y":2020,"m":9},"l":{"r":"England","c":"United Kingdom"},"o":{"r":"NCBI","i":"ERR4651067"}}
{"p":"B.1.201","w":{"d":7,"y":2020,"m":5},"l":{"r":"England","c":"United Kingdom"},"o":{"r":"NCBI","i":"ERR4248276"}}
{"p":"B.1.1.331","w":{"d":7,"y":2020,"m":4},"l":{"c":"Austria"},"o":{"r":"NCBI","i":"ERR4704264"}}
{"p":"B.1.177","w":{"d":7,"y":2020,"m":10},"l":{"r":"Wales","c":"United Kingdom"},"o":{"r":"NCBI","i":"ERR4692341"}}
{"p":"B.1.1","w":{"d":7,"y":2020,"m":6},"l":{"r":"England","c":"United Kingdom"},"o":{"r":"NCBI","i":"ERR4639739"}}
{"p":"B.1.93","w":{"d":7,"y":2020,"m":4},"l":{"c":"Austria"},"o":{"r":"NCBI","i":"ERR4704325"}}
{"p":"B.1.1.301","w":{"d":7,"y":2020,"m":6},"l":{"r":"England","c":"United Kingdom"},"o":{"r":"NCBI","i":"ERR4632489"}}
{"p":"B.1.1.51","w":{"d":7,"y":2020,"m":8},"l":{"r":"England","c":"United Kingdom"},"o":{"r":"NCBI","i":"ERR4599859"}}
{"p":"B.1.93","w":{"d":7,"y":2020,"m":5},"l":{"r":"Scotland","c":"United Kingdom"},"o":{"r":"NCBI","i":"ERR4248383"}}
{"p":"B.40","w":{"d":7,"y":2020,"m":4},"l":{"r":"England","c":"United Kingdom"},"o":{"r":"NCBI","i":"ERR5060696"}}
{"p":"B.1.222","w":{"d":7,"y":2020,"m":5},"l":{"r":"Scotland","c":"United Kingdom"},"o":{"r":"NCBI","i":"ERR4248207"}}
{"p":"B.1","w":{"d":7,"y":2020,"m":8},"l":{"r":"England","c":"United Kingdom"},"o":{"r":"NCBI","i":"ERR4597183"}}
{"p":"B.1.177","w":{"d":7,"y":2020,"m":11},"l":{"r":"England","c":"United Kingdom"},"o":{"r":"NCBI","i":"ERR4866420"}}
{"p":"B.1","w":{"d":7,"y":2020,"m":9},"l":{"r":"Scotland","c":"United Kingdom"},"o":{"r":"NCBI","i":"ERR4651097"}}
{"p":"B.1.1","w":{"d":7,"y":2020,"m":11},"l":{"r":"England","c":"United Kingdom"},"o":{"r":"NCBI","i":"ERR4866448"}}
{"p":"B.1.1.161","w":{"d":7,"y":2020,"m":6},"l":{"r":"England","c":"United Kingdom"},"o":{"r":"NCBI","i":"ERR4640565"}}
{"p":"B.1.1.315","w":{"d":7,"y":2020,"m":8},"l":{"r":"Scotland","c":"United Kingdom"},"o":{"r":"NCBI","i":"ERR4585243"}}
{"p":"B.1.1.301","w":{"d":7,"y":2020,"m":6},"l":{"r":"England","c":"United Kingdom"},"o":{"r":"NCBI","i":"ERR4632192"}}
{"p":"B.1.177","w":{"d":7,"y":2020,"m":11},"l":{"r":"England","c":"United Kingdom"},"o":{"r":"NCBI","i":"ERR4866438"}}
{"p":"B.1.1","w":{"d":7,"y":2020,"m":8},"l":{"r":"England","c":"United Kingdom"},"o":{"r":"NCBI","i":"ERR4599858"}}
{"p":"B.1.1.315","w":{"d":7,"y":2020,"m":8},"l":{"r":"Scotland","c":"United Kingdom"},"o":{"r":"NCBI","i":"ERR4599882"}}
{"p":"B.1.177","w":{"d":7,"y":2020,"m":9},"l":{"r":"England","c":"United Kingdom"},"o":{"r":"NCBI","i":"ERR4651099"}}
{"p":"B.1.1.369","w":{"d":7,"y":2020,"m":8},"l":{"r":"England","c":"United Kingdom"},"o":{"r":"NCBI","i":"ERR4585125"}}
{"p":"B.1.1","w":{"d":7,"y":2020,"m":6},"l":{"r":"England","c":"United Kingdom"},"o":{"r":"NCBI","i":"ERR4632482"}}
{"p":"B.1.1.315","w":{"d":7,"y":2020,"m":11},"l":{"r":"England","c":"United Kingdom"},"o":{"r":"NCBI","i":"ERR4866432"}}
{"p":"B.1.1.33","w":{"d":7,"y":2020,"m":3},"l":{"r":"England","c":"United Kingdom"},"o":{"r":"NCBI","i":"ERR4204879"}}
{"p":"B.1.1.70","c":"Alpha","w":{"d":7,"y":2020,"m":8},"l":{"r":"England","c":"United Kingdom"},"o":{"r":"NCBI","i":"ERR4597173"}}
{"p":"B.1.1.45","w":{"d":7,"y":2020,"m":6},"l":{"r":"England","c":"United Kingdom"},"o":{"r":"NCBI","i":"ERR4632193"}}
{"p":"B.1.1.315","w":{"d":7,"y":2020,"m":9},"l":{"r":"England","c":"United Kingdom"},"o":{"r":"NCBI","i":"ERR4651103"}}
{"p":"B.1.1.130","w":{"d":7,"y":2020,"m":8},"l":{"r":"England","c":"United Kingdom"},"o":{"r":"NCBI","i":"ERR4597117"}}
{"p":"B.1.560","w":{"d":7,"y":2020,"m":8},"l":{"r":"Scotland","c":"United Kingdom"},"o":{"r":"NCBI","i":"ERR4599878"}}
{"p":"B.1.408","w":{"d":7,"y":2020,"m":11},"l":{"r":"England","c":"United Kingdom"},"o":{"r":"NCBI","i":"ERR4866453"}}
{"p":"B.1.1","w":{"d":7,"y":2020,"m":6},"l":{"r":"Wales","c":"United Kingdom"},"o":{"r":"NCBI","i":"ERR4365936"}}
{"p":"B.1.1.145","w":{"d":7,"y":2020,"m":6},"l":{"r":"England","c":"United Kingdom"},"o":{"r":"NCBI","i":"ERR4632480"}}
{"p":"B.1.1.369","w":{"d":7,"y":2020,"m":6},"l":{"r":"England","c":"United Kingdom"},"o":{"r":"NCBI","i":"ERR4632485"}}
{"p":"B.1.1.331","w":{"d":7,"y":2020,"m":3},"l":{"c":"Austria"},"o":{"r":"NCBI","i":"ERR4703628"}}
{"p":"B.1","w":{"d":7,"y":2020,"m":3},"l":{"c":"Switzerland"},"o":{"r":"NCBI","i":"ERR4589027"}}
{"p":"B.1.177","w":{"d":7,"y":2020,"m":11},"l":{"r":"England","c":"United Kingdom"},"o":{"r":"NCBI","i":"ERR4866445"}}
{"p":"B.40","w":{"d":7,"y":2020,"m":3},"l":{"r":"England","c":"United Kingdom"},"o":{"r":"NCBI","i":"ERR4204533"}}
{"p":"B.1","w":{"d":7,"y":2020,"m":11},"l":{"r":"England","c":"United Kingdom"},"o":{"r":"NCBI","i":"ERR4866449"}}
{"p":"B.1.177","w":{"d":7,"y":2020,"m":11},"l":{"r":"England","c":"United Kingdom"},"o":{"r":"NCBI","i":"ERR4866423"}}
{"p":"B.1.1.301","w":{"d":7,"y":2020,"m":6},"l":{"r":"England","c":"United Kingdom"},"o":{"r":"NCBI","i":"ERR4640591"}}
{"p":"B.1.1.67","w":{"d":7,"y":2020,"m":8},"l":{"r":"Scotland","c":"United Kingdom"},"o":{"r":"NCBI","i":"ERR4597143"}}
{"p":"B.1.177","w":{"d":7,"y":2020,"m":11},"l":{"r":"England","c":"United Kingdom"},"o":{"r":"NCBI","i":"ERR4866452"}}
{"p":"B.1.177.65","w":{"d":7,"y":2020,"m":11},"l":{"r":"Wales","c":"United Kingdom"},"o":{"r":"NCBI","i":"ERR5062329"}}
{"p":"B.1.177","w":{"d":7,"y":2020,"m":11},"l":{"r":"England","c":"United Kingdom"},"o":{"r":"NCBI","i":"ERR4866440"}}
{"p":"B.1.1","w":{"d":7,"y":2020,"m":6},"l":{"r":"England","c":"United Kingdom"},"o":{"r":"NCBI","i":"ERR4639800"}}
{"p":"B.1.177.65","w":{"d":7,"y":2020,"m":10},"l":{"r":"Wales","c":"United Kingdom"},"o":{"r":"NCBI","i":"ERR4692692"}}
{"p":"B.1.1.89","w":{"d":7,"y":2020,"m":6},"l":{"r":"England","c":"United Kingdom"},"o":{"r":"NCBI","i":"ERR4639797"}}
{"p":"B.1.1","w":{"d":7,"y":2020,"m":4},"l":{"c":"Austria"},"o":{"r":"NCBI","i":"ERR4704324"}}
{"p":"B.1.177.4","w":{"d":7,"y":2020,"m":11},"l":{"r":"England","c":"United Kingdom"},"o":{"r":"NCBI","i":"ERR4866419"}}
{"p":"B.1.177.65","w":{"d":7,"y":2020,"m":10},"l":{"r":"Wales","c":"United Kingdom"},"o":{"r":"NCBI","i":"ERR4692399"}}
{"p":"B.1.1.369","w":{"d":7,"y":2020,"m":8},"l":{"r":"England","c":"United Kingdom"},"o":{"r":"NCBI","i":"ERR4585244"}}
{"p":"B.1","w":{"d":7,"y":2020,"m":6},"l":{"r":"England","c":"United Kingdom"},"o":{"r":"NCBI","i":"ERR4632483"}}
{"p":"B.1.1","w":{"d":7,"y":2020,"m":8},"l":{"r":"England","c":"United Kingdom"},"o":{"r":"NCBI","i":"ERR4597175"}}
{"p":"B.1.1.107","w":{"d":7,"y":2020,"m":6},"l":{"r":"England","c":"United Kingdom"},"o":{"r":"NCBI","i":"ERR4640544"}}
{"p":"B.1.1.279","w":{"d":7,"y":2020,"m":9},"l":{"r":"England","c":"United Kingdom"},"o":{"r":"NCBI","i":"ERR4651083"}}
{"p":"B.1.1.165","w":{"d":7,"y":2020,"m":9},"l":{"r":"England","c":"United Kingdom"},"o":{"r":"NCBI","i":"ERR4651065"}}
{"p":"B.1.1","w":{"d":7,"y":2020,"m":11},"l":{"r":"England","c":"United Kingdom"},"o":{"r":"NCBI","i":"ERR4866434"}}
{"p":"B.1.177","w":{"d":7,"y":2020,"m":11},"l":{"r":"England","c":"United Kingdom"},"o":{"r":"NCBI","i":"ERR4866427"}}
{"p":"B.1","w":{"d":7,"y":2020,"m":8},"l":{"r":"England","c":"United Kingdom"},"o":{"r":"NCBI","i":"ERR4597142"}}
{"p":"B.1.173","w":{"d":7,"y":2020,"m":6},"l":{"r":"England","c":"United Kingdom"},"o":{"r":"NCBI","i":"ERR4640576"}}
{"p":"B.1.1","w":{"d":7,"y":2020,"m":6},"l":{"r":"England","c":"United Kingdom"},"o":{"r":"NCBI","i":"ERR4639774"}}
{"p":"B.1.1.363","w":{"d":7,"y":2020,"m":6},"l":{"r":"Wales","c":"United Kingdom"},"o":{"r":"NCBI","i":"ERR4365624"}}
{"p":"B.1.177.55","w":{"d":7,"y":2020,"m":11},"l":{"c":"Ireland","l":"Dublin"},"o":{"r":"NCBI","i":"ERR5029418"}}
{"p":"B.1.1.51","w":{"d":7,"y":2020,"m":8},"l":{"r":"England","c":"United Kingdom"},"o":{"r":"NCBI","i":"ERR4597125"}}
{"p":"B.1.1","w":{"d":7,"y":2020,"m":6},"l":{"r":"Wales","c":"United Kingdom"},"o":{"r":"NCBI","i":"ERR4365770"}}
