{"p":"B.1.1.315","w":{"d":8,"y":2020,"m":8},"l":{"r":"Scotland","c":"United Kingdom"},"o":{"r":"NCBI","i":"ERR4597274"}}
{"p":"B.1.177","w":{"d":8,"y":2020,"m":10},"l":{"r":"Scotland","c":"United Kingdom"},"o":{"r":"NCBI","i":"ERR5060722"}}
{"p":"B.1.1.315","w":{"d":8,"y":2020,"m":8},"l":{"r":"Scotland","c":"United Kingdom"},"o":{"r":"NCBI","i":"ERR4597127"}}
{"p":"B.1.1.1","w":{"d":8,"y":2020,"m":8},"l":{"r":"England","c":"United Kingdom"},"o":{"r":"NCBI","i":"ERR4599808"}}
{"p":"B.1","w":{"d":8,"y":2020,"m":6},"l":{"r":"England","c":"United Kingdom"},"o":{"r":"NCBI","i":"ERR4439317"}}
{"p":"B.1.1.289","w":{"d":8,"y":2020,"m":6},"l":{"r":"Wales","c":"United Kingdom"},"o":{"r":"NCBI","i":"ERR4366174"}}
{"p":"B.1","w":{"d":8,"y":2020,"m":11},"l":{"r":"England","c":"United Kingdom"},"o":{"r":"NCBI","i":"ERR4875065"}}
{"p":"B.1.1.369","w":{"d":8,"y":2020,"m":8},"l":{"r":"England","c":"United Kingdom"},"o":{"r":"NCBI","i":"ERR4597107"}}
{"p":"B.1.1.289","w":{"d":8,"y":2020,"m":5},"l":{"r":"Wales","c":"United Kingdom"},"o":{"r":"NCBI","i":"ERR4308493"}}
{"p":"B.40","w":{"d":8,"y":2020,"m":3},"l":{"r":"England","c":"United Kingdom"},"o":{"r":"NCBI","i":"ERR4208650"}}
{"p":"B.1.1.315","w":{"d":8,"y":2020,"m":8},"l":{"r":"Scotland","c":"United Kingdom"},"o":{"r":"NCBI","i":"ERR4597181"}}
{"p":"B","w":{"d":8,"y":2020,"m":11},"l":{"r":"England","c":"United Kingdom"},"o":{"r":"NCBI","i":"ERR4875062"}}
{"p":"B.1.1","w":{"d":8,"y":2020,"m":3},"l":{"r":"England","c":"United Kingdom"},"o":{"r":"NCBI","i":"ERR4205947"}}
{"p":"B.1.1","w":{"d":8,"y":2020,"m":3},"l":{"r":"England","c":"United Kingdom"},"o":{"r":"NCBI","i":"ERR4208208"}}
{"p":"B.1.142","w":{"d":8,"y":2020,"m":6},"l":{"r":"Wales","c":"United Kingdom"},"o":{"r":"NCBI","i":"ERR4365674"}}
{"p":"B.1.1","w":{"d":8,"y":2020,"m":4},"l":{"c":"Austria"},"o":{"r":"NCBI","i":"ERR4704327"}}
{"p":"B.1.1.315","w":{"d":8,"y":2020,"m":8},"l":{"r":"Scotland","c":"United Kingdom"},"o":{"r":"NCBI","i":"ERR4597276"}}
{"p":"B.1.1","w":{"d":8,"y":2020,"m":8},"l":{"r":"England","c":"United Kingdom"},"o":{"r":"NCBI","i":"ERR4599919"}}
{"p":"B.1.1.301","w":{"d":8,"y":2020,"m":6},"l":{"r":"England","c":"United Kingdom"},"o":{"r":"NCBI","i":"ERR4632349"}}
{"p":"B.1.1.301","w":{"d":8,"y":2020,"m":6},"l":{"r":"England","c":"United Kingdom"},"o":{"r":"NCBI","i":"ERR4632373"}}
{"p":"B.1.258.7","w":{"d":8,"y":2020,"m":10},"l":{"r":"Wales","c":"United Kingdom"},"o":{"r":"NCBI","i":"ERR4692472"}}
{"p":"B.1.1.315","w":{"d":8,"y":2020,"m":8},"l":{"r":"Scotland","c":"United Kingdom"},"o":{"r":"NCBI","i":"ERR4597929"}}
{"p":"B.1.1.303","w":{"d":8,"y":2020,"m":11},"l":{"r":"England","c":"United Kingdom"},"o":{"r":"NCBI","i":"ERR4875074"}}
{"p":"B.1.177.48","w":{"d":8,"y":2020,"m":11},"l":{"r":"England","c":"United Kingdom"},"o":{"r":"NCBI","i":"ERR4875046"}}
{"p":"B","w":{"d":8,"y":2020,"m":3},"l":{"r":"England","c":"United Kingdom"},"o":{"r":"NCBI","i":"ERR4209023"}}
{"p":"B.1.1.198","w":{"d":8,"y":2020,"m":11},"l":{"r":"England","c":"United Kingdom"},"o":{"r":"NCBI","i":"ERR4867087"}}
{"p":"AD.2","w":{"d":8,"y":2020,"m":8},"l":{"r":"Scotland","c":"United Kingdom"},"o":{"r":"NCBI","i":"ERR4597278"}}
{"p":"B.1.1","w":{"d":8,"y":2020,"m":6},"l":{"r":"England","c":"United Kingdom"},"o":{"r":"NCBI","i":"ERR4641748"}}
{"p":"B.1.1.198","w":{"d":8,"y":2020,"m":10},"l":{"r":"England","c":"United Kingdom"},"o":{"r":"NCBI","i":"ERR4693209"}}
{"p":"B.1.177.57","w":{"d":8,"y":2020,"m":11},"l":{"r":"England","c":"United Kingdom"},"o":{"r":"NCBI","i":"ERR4875072"}}
{"p":"B.1.1","w":{"d":8,"y":2020,"m":3},"l":{"r":"England","c":"United Kingdom"},"o":{"r":"NCBI","i":"ERR4205874"}}
{"p":"B.1.1.200","w":{"d":8,"y":2020,"m":6},"l":{"r":"England","c":"United Kingdom"},"o":{"r":"NCBI","i":"ERR4632361"}}
{"p":"B.1.1.142","w":{"d":8,"y":2020,"m":3},"l":{"r":"England","c":"United Kingdom"},"o":{"r":"NCBI","i":"ERR4205907"}}
{"p":"B.1.1","w":{"d":8,"y":2020,"m":6},"l":{"r":"Scotland","c":"United Kingdom"},"o":{"r":"NCBI","i":"ERR4440544"}}
{"p":"B","w":{"d":8,"y":2020,"m":3},"l":{"r":"England","c":"United Kingdom"},"o":{"r":"NCBI","i":"ERR4205094"}}
{"p":"B.3.1","w":{"d":8,"y":2020,"m":5},"l":{"r":"Wales","c":"United Kingdom"},"o":{"r":"NCBI","i":"ERR4308698"}}
{"p":"B.1.1","w":{"d":8,"y":2020,"m":6},"l":{"r":"England","c":"United Kingdom"},"o":{"r":"NCBI","i":"ERR4439831"}}
{"p":"B.1.1","w":{"d":8,"y":2020,"m":8},"l":{"r":"Northern Ireland","c":"United Kingdom"},"o":{"r":"NCBI","i":"ERR4597233"}}
{"p":"B.33","w":{"d":8,"y":2020,"m":3},"l":{"r":"England","c":"United Kingdom"},"o":{"r":"NCBI","i":"ERR4165141"}}
{"p":"B.1.1.51","w":{"d":8,"y":2020,"m":8},"l":{"r":"Northern Ireland","c":"United Kingdom"},"o":{"r":"NCBI","i":"ERR4597231"}}
{"p":"B.1.1.51","w":{"d":8,"y":2020,"m":6},"l":{"r":"England","c":"United Kingdom"},"o":{"r":"NCBI","i":"ERR4641746"}}
{"p":"B.1.1.315","w":{"d":8,"y":2020,"m":8},"l":{"r":"Scotland","c":"United Kingdom"},"o":{"r":"NCBI","i":"ERR4597235"}}
{"p":"B.1.177.7","w":{"d":8,"y":2020,"m":10},"l":{"r":"Wales","c":"United Kingdom"},"o":{"r":"NCBI","i":"ERR4693187"}}
{"p":"B.1.258.7","w":{"d":8,"y":2020,"m":10},"l":{"r":"Wales","c":"United Kingdom"},"o":{"r":"NCBI","i":"ERR4692406"}}
{"p":"B","w":{"d":8,"y":2020,"m":2},"l":{"r":"England","c":"United Kingdom"},"o":{"r":"NCBI","i":"ERR4205346"}}
{"p":"B.1.177","w":{"d":8,"y":2020,"m":11},"l":{"r":"England","c":"United Kingdom"},"o":{"r":"NCBI","i":"ERR4875068"}}
{"p":"B.1.1.51","w":{"d":8,"y":2020,"m":8},"l":{"r":"England","c":"United Kingdom"},"o":{"r":"NCBI","i":"ERR4599809"}}
{"p":"B.29","w":{"d":8,"y":2020,"m":3},"l":{"r":"England","c":"United Kingdom"},"o":{"r":"NCBI","i":"ERR4206111"}}
{"p":"B.1.1.7","c":"Alpha","w":{"d":8,"y":2020,"m":11},"l":{"r":"England","c":"United Kingdom"},"o":{"r":"NCBI","i":"ERR4867737"}}
{"p":"B","w":{"d":8,"y":2020,"m":3},"l":{"r":"England","c":"United Kingdom"},"o":{"r":"NCBI","i":"ERR4204944"}}
{"p":"B.40","w":{"d":8,"y":2020,"m":3},"l":{"r":"England","c":"United Kingdom"},"o":{"r":"NCBI","i":"ERR4204970"}}
{"p":"B.1.177.16","w":{"d":8,"y":2020,"m":11},"l":{"r":"England","c":"United Kingdom"},"o":{"r":"NCBI","i":"ERR5060479"}}
{"p":"B.1.1","w":{"d":8,"y":2020,"m":6},"l":{"r":"England","c":"United Kingdom"},"o":{"r":"NCBI","i":"ERR4632336"}}
{"p":"B.1.1.307","w":{"d":8,"y":2020,"m":9},"l":{"r":"England","c":"United Kingdom"},"o":{"r":"NCBI","i":"ERR4651051"}}
{"p":"B.1.1.7","c":"Alpha","w":{"d":8,"y":2020,"m":11},"l":{"r":"England","c":"United Kingdom"},"o":{"r":"NCBI","i":"ERR4867835"}}
{"p":"B.1.1.142","w":{"d":8,"y":2020,"m":3},"l":{"r":"England","c":"United Kingdom"},"o":{"r":"NCBI","i":"ERR4206359"}}
{"p":"B.1.177","w":{"d":8,"y":2020,"m":10},"l":{"r":"Wales","c":"United Kingdom"},"o":{"r":"NCBI","i":"ERR4693230"}}
{"p":"B.1.1","w":{"d":8,"y":2020,"m":6},"l":{"r":"England","c":"United Kingdom"},"o":{"r":"NCBI","i":"ERR4632266"}}
{"p":"B","w":{"d":8,"y":2020,"m":3},"l":{"r":"England","c":"United Kingdom"},"o":{"r":"NCBI","i":"ERR4206469"}}
{"p":"B.1.1","w":{"d":8,"y":2020,"m":6},"l":{"r":"England","c":"United Kingdom"},"o":{"r":"NCBI","i":"ERR4641791"}}
{"p":"B.1.1.67","w":{"d":8,"y":2020,"m":8},"l":{"r":"England","c":"United Kingdom"},"o":{"r":"NCBI","i":"ERR4597816"}}
{"p":"B.1","w":{"d":8,"y":2020,"m":6},"l":{"r":"England","c":"United Kingdom"},"o":{"r":"NCBI","i":"ERR4641787"}}
{"p":"B.1.177.8","w":{"d":8,"y":2020,"m":10},"l":{"r":"Scotland","c":"United Kingdom"},"o":{"r":"NCBI","i":"ERR5061990"}}
{"p":"B.40","w":{"d":8,"y":2020,"m":3},"l":{"r":"England","c":"United Kingdom"},"o":{"r":"NCBI","i":"ERR4205567"}}
{"p":"B.1.1.279","w":{"d":8,"y":2020,"m":8},"l":{"r":"England","c":"United Kingdom"},"o":{"r":"NCBI","i":"ERR4597220"}}
{"p":"B.1.1.289","w":{"d":8,"y":2020,"m":6},"l":{"r":"Wales","c":"United Kingdom"},"o":{"r":"NCBI","i":"ERR4439436"}}
{"p":"B.1.1.161","w":{"d":8,"y":2020,"m":8},"l":{"r":"Northern Ireland","c":"United Kingdom"},"o":{"r":"NCBI","i":"ERR4597182"}}
{"p":"B.1","w":{"d":8,"y":2020,"m":11},"l":{"r":"England","c":"United Kingdom"},"o":{"r":"NCBI","i":"ERR4875063"}}
{"p":"B.40","w":{"d":8,"y":2020,"m":3},"l":{"r":"England","c":"United Kingdom"},"o":{"r":"NCBI","i":"ERR4206900"}}
{"p":"B.1.1","w":{"d":8,"y":2020,"m":8},"l":{"r":"Northern Ireland","c":"United Kingdom"},"o":{"r":"NCBI","i":"ERR4597226"}}
{"p":"B.1","w":{"d":8,"y":2020,"m":6},"l":{"r":"England","c":"United Kingdom"},"o":{"r":"NCBI","i":"ERR4632330"}}
{"p":"B.1.1.41","w":{"d":8,"y":2020,"m":6},"l":{"r":"England","c":"United Kingdom"},"o":{"r":"NCBI","i":"ERR4632168"}}
{"p":"B.1.1.301","w":{"d":8,"y":2020,"m":6},"l":{"r":"England","c":"United Kingdom"},"o":{"r":"NCBI","i":"ERR4632162"}}
{"p":"B.1.1","w":{"d":8,"y":2020,"m":6},"l":{"r":"England","c":"United Kingdom"},"o":{"r":"NCBI","i":"ERR4641727"}}
{"p":"B.1.1.315","w":{"d":8,"y":2020,"m":8},"l":{"r":"Scotland","c":"United Kingdom"},"o":{"r":"NCBI","i":"ERR4597272"}}
{"p":"B.1.1.315","w":{"d":8,"y":2020,"m":8},"l":{"r":"Scotland","c":"United Kingdom"},"o":{"r":"NCBI","i":"ERR4597213"}}
{"p":"B.40","w":{"d":8,"y":2020,"m":3},"l":{"r":"England","c":"United Kingdom"},"o":{"r":"NCBI","i":"ERR4206389"}}
{"p":"B.1.177.55","w":{"d":8,"y":2020,"m":11},"l":{"c":"Ireland","l":"Dublin"},"o":{"r":"NCBI","i":"ERR5029423"}}
{"p":"B.1.1","w":{"d":8,"y":2020,"m":8},"l":{"r":"England","c":"United Kingdom"},"o":{"r":"NCBI","i":"ERR4597751"}}
{"p":"B.1.1","w":{"d":8,"y":2020,"m":3},"l":{"r":"England","c":"United Kingdom"},"o":{"r":"NCBI","i":"ERR4208770"}}
{"p":"B","w":{"d":8,"y":2020,"m":3},"l":{"r":"England","c":"United Kingdom"},"o":{"r":"NCBI","i":"ERR4204193"}}
{"p":"B.1.177.55","w":{"d":8,"y":2020,"m":11},"l":{"c":"Ireland","l":"Dublin"},"o":{"r":"NCBI","i":"ERR5029390"}}
{"p":"B.1.1","w":{"d":8,"y":2020,"m":8},"l":{"r":"Northern Ireland","c":"United Kingdom"},"o":{"r":"NCBI","i":"ERR4597946"}}
{"p":"B.1.1","w":{"d":8,"y":2020,"m":6},"l":{"r":"England","c":"United Kingdom"},"o":{"r":"NCBI","i":"ERR4632376"}}
{"p":"B.1.177.15","w":{"d":8,"y":2020,"m":10},"l":{"r":"Wales","c":"United Kingdom"},"o":{"r":"NCBI","i":"ERR4692684"}}
{"p":"B.1.177","w":{"d":8,"y":2020,"m":10},"l":{"r":"Wales","c":"United Kingdom"},"o":{"r":"NCBI","i":"ERR4693163"}}
{"p":"B.1.1.200","w":{"d":8,"y":2020,"m":6},"l":{"r":"England","c":"United Kingdom"},"o":{"r":"NCBI","i":"ERR4632156"}}
{"p":"B.1.1","w":{"d":8,"y":2020,"m":11},"l":{"r":"England","c":"United Kingdom"},"o":{"r":"NCBI","i":"ERR4875069"}}
{"p":"B.1","w":{"d":8,"y":2020,"m":3},"l":{"r":"England","c":"United Kingdom"},"o":{"r":"NCBI","i":"ERR4208314"}}
{"p":"B.1.258.7","w":{"d":8,"y":2020,"m":11},"l":{"r":"Wales","c":"United Kingdom"},"o":{"r":"NCBI","i":"ERR5060559"}}
{"p":"B.1.1","w":{"d":8,"y":2020,"m":6},"l":{"r":"England","c":"United Kingdom"},"o":{"r":"NCBI","i":"ERR4632315"}}
{"p":"B.1.142","w":{"d":8,"y":2020,"m":5},"l":{"r":"Wales","c":"United Kingdom"},"o":{"r":"NCBI","i":"ERR4308495"}}
{"p":"B.1","w":{"d":8,"y":2020,"m":3},"l":{"c":"Austria"},"o":{"r":"NCBI","i":"ERR4704361"}}
{"p":"B.1.1.25","w":{"d":8,"y":2020,"m":11},"l":{"r":"England","c":"United Kingdom"},"o":{"r":"NCBI","i":"ERR5061253"}}
{"p":"B.1","w":{"d":8,"y":2020,"m":6},"l":{"r":"England","c":"United Kingdom"},"o":{"r":"NCBI","i":"ERR4439273"}}
{"p":"B.1.1.369","w":{"d":8,"y":2020,"m":6},"l":{"r":"England","c":"United Kingdom"},"o":{"r":"NCBI","i":"ERR4632342"}}
{"p":"B.1.177","w":{"d":8,"y":2020,"m":11},"l":{"r":"England","c":"United Kingdom"},"o":{"r":"NCBI","i":"ERR4875061"}}
{"p":"B.1.177","w":{"d":8,"y":2020,"m":11},"l":{"r":"England","c":"United Kingdom"},"o":{"r":"NCBI","i":"ERR4875073"}}
{"p":"B.1.177","w":{"d":8,"y":2020,"m":11},"l":{"r":"England","c":"United Kingdom"},"o":{"r":"NCBI","i":"ERR5060896"}}
{"p":"B.1.177","w":{"d":8,"y":2020,"m":10},"l":{"r":"Wales","c":"United Kingdom"},"o":{"r":"NCBI","i":"ERR4693331"}}
{"p":"B.1.177","w":{"d":8,"y":2020,"m":11},"l":{"r":"England","c":"United Kingdom"},"o":{"r":"NCBI","i":"ERR4875070"}}
{"p":"B.1.142","w":{"d":8,"y":2020,"m":6},"l":{"r":"Wales","c":"United Kingdom"},"o":{"r":"NCBI","i":"ERR4366860"}}
{"p":"B.1.1.25","w":{"d":8,"y":2020,"m":8},"l":{"r":"England","c":"United Kingdom"},"o":{"r":"NCBI","i":"ERR4597915"}}
{"p":"B.1","w":{"d":8,"y":2020,"m":3},"l":{"r":"England","c":"United Kingdom"},"o":{"r":"NCBI","i":"ERR4208865"}}
{"p":"B.1.1","w":{"d":8,"y":2020,"m":6},"l":{"r":"England","c":"United Kingdom"},"o":{"r":"NCBI","i":"ERR4641744"}}
{"p":"B.1.177","w":{"d":8,"y":2020,"m":10},"l":{"r":"Wales","c":"United Kingdom"},"o":{"r":"NCBI","i":"ERR4692443"}}
{"p":"B.1.1.161","w":{"d":8,"y":2020,"m":8},"l":{"r":"England","c":"United Kingdom"},"o":{"r":"NCBI","i":"ERR4597762"}}
{"p":"B.1.1.1","w":{"d":8,"y":2020,"m":3},"l":{"r":"England","c":"United Kingdom"},"o":{"r":"NCBI","i":"ERR4205823"}}
{"p":"B.1.395","w":{"d":8,"y":2020,"m":5},"l":{"r":"Wales","c":"United Kingdom"},"o":{"r":"NCBI","i":"ERR4308728"}}
{"p":"B.1.36.17","w":{"d":8,"y":2020,"m":11},"l":{"r":"England","c":"United Kingdom"},"o":{"r":"NCBI","i":"ERR4875059"}}
{"p":"B.1.1.289","w":{"d":8,"y":2020,"m":6},"l":{"r":"Wales","c":"United Kingdom"},"o":{"r":"NCBI","i":"ERR4366722"}}
{"p":"B.1.1.161","w":{"d":8,"y":2020,"m":6},"l":{"r":"England","c":"United Kingdom"},"o":{"r":"NCBI","i":"ERR4641793"}}
{"p":"B.1.1","w":{"d":8,"y":2020,"m":5},"l":{"c":"United Kingdom"},"o":{"r":"NCBI","i":"ERR4238660"}}
{"p":"B.1.8","w":{"d":8,"y":2020,"m":3},"l":{"c":"Austria"},"o":{"r":"NCBI","i":"ERR4699888"}}
{"p":"B.1.177","w":{"d":8,"y":2020,"m":11},"l":{"r":"England","c":"United Kingdom"},"o":{"r":"NCBI","i":"ERR4875058"}}
{"p":"B.1","w":{"d":8,"y":2020,"m":8},"l":{"r":"England","c":"United Kingdom"},"o":{"r":"NCBI","i":"ERR4597095"}}
{"p":"B.1.1.51","w":{"d":8,"y":2020,"m":8},"l":{"r":"Northern Ireland","c":"United Kingdom"},"o":{"r":"NCBI","i":"ERR4597148"}}
{"p":"B.1.1.289","w":{"d":8,"y":2020,"m":5},"l":{"r":"Wales","c":"United Kingdom"},"o":{"r":"NCBI","i":"ERR4308600"}}
{"p":"B.29","w":{"d":8,"y":2020,"m":3},"l":{"r":"England","c":"United Kingdom"},"o":{"r":"NCBI","i":"ERR4206737"}}
{"p":"B.1.177.11","w":{"d":8,"y":2020,"m":10},"l":{"r":"Scotland","c":"United Kingdom"},"o":{"r":"NCBI","i":"ERR5060550"}}
{"p":"B.1.395","w":{"d":8,"y":2020,"m":5},"l":{"r":"Wales","c":"United Kingdom"},"o":{"r":"NCBI","i":"ERR4308474"}}
{"p":"B.1.1.138","w":{"d":8,"y":2020,"m":8},"l":{"r":"England","c":"United Kingdom"},"o":{"r":"NCBI","i":"ERR4598586"}}
{"p":"B.1.1.198","w":{"d":8,"y":2020,"m":10},"l":{"r":"England","c":"United Kingdom"},"o":{"r":"NCBI","i":"ERR4693278"}}
{"p":"B.1.235","w":{"d":8,"y":2020,"m":6},"l":{"r":"England","c":"United Kingdom"},"o":{"r":"NCBI","i":"ERR4641795"}}
{"p":"B.1.177.81","w":{"d":8,"y":2020,"m":9},"l":{"r":"England","c":"United Kingdom"},"o":{"r":"NCBI","i":"ERR5062490"}}
{"p":"B.3","w":{"d":8,"y":2020,"m":3},"l":{"r":"England","c":"United Kingdom"},"o":{"r":"NCBI","i":"ERR4207907"}}
{"p":"B.1.1.115","w":{"d":8,"y":2020,"m":8},"l":{"r":"England","c":"United Kingdom"},"o":{"r":"NCBI","i":"ERR4599917"}}
{"p":"B.1.177","w":{"d":8,"y":2020,"m":11},"l":{"r":"England","c":"United Kingdom"},"o":{"r":"NCBI","i":"ERR4875064"}}
{"p":"B","w":{"d":8,"y":2020,"m":5},"l":{"c":"United Kingdom"},"o":{"r":"NCBI","i":"ERR4238617"}}
{"p":"B.1.36.17","w":{"d":8,"y":2020,"m":8},"l":{"r":"England","c":"United Kingdom"},"o":{"r":"NCBI","i":"ERR4599735"}}
{"p":"B","w":{"d":8,"y":2020,"m":2},"l":{"r":"England","c":"United Kingdom"},"o":{"r":"NCBI","i":"ERR4204543"}}
{"p":"B.1","w":{"d":8,"y":2020,"m":11},"l":{"r":"England","c":"United Kingdom"},"o":{"r":"NCBI","i":"ERR4875066"}}
{"p":"AP.1","w":{"d":8,"y":2020,"m":10},"l":{"r":"Wales","c":"United Kingdom"},"o":{"r":"NCBI","i":"ERR4693411"}}
{"p":"B.1.1.289","w":{"d":8,"y":2020,"m":6},"l":{"r":"Wales","c":"United Kingdom"},"o":{"r":"NCBI","i":"ERR4363670"}}
{"p":"B.1.177.54","w":{"d":8,"y":2020,"m":11},"l":{"r":"England","c":"United Kingdom"},"o":{"r":"NCBI","i":"ERR4868150"}}
{"p":"B.1.177","w":{"d":8,"y":2020,"m":11},"l":{"r":"England","c":"United Kingdom"},"o":{"r":"NCBI","i":"ERR5062578"}}
{"p":"B.58","w":{"d":8,"y":2020,"m":3},"l":{"r":"England","c":"United Kingdom"},"o":{"r":"NCBI","i":"ERR4208970"}}
{"p":"B.1.1.51","w":{"d":8,"y":2020,"m":8},"l":{"r":"Northern Ireland","c":"United Kingdom"},"o":{"r":"NCBI","i":"ERR4597214"}}
{"p":"B.1.1","w":{"d":8,"y":2020,"m":3},"l":{"r":"England","c":"United Kingdom"},"o":{"r":"NCBI","i":"ERR4207862"}}
{"p":"AP.1","w":{"d":8,"y":2020,"m":10},"l":{"r":"Wales","c":"United Kingdom"},"o":{"r":"NCBI","i":"ERR4693106"}}
{"p":"B.1.223","w":{"d":8,"y":2020,"m":6},"l":{"r":"England","c":"United Kingdom"},"o":{"r":"NCBI","i":"ERR4641789"}}
{"p":"B.1.177.57","w":{"d":8,"y":2020,"m":11},"l":{"r":"England","c":"United Kingdom"},"o":{"r":"NCBI","i":"ERR4867053"}}
{"p":"B.1","w":{"d":8,"y":2020,"m":3},"l":{"r":"England","c":"United Kingdom"},"o":{"r":"NCBI","i":"ERR4165162"}}
{"p":"B.1.1.142","w":{"d":8,"y":2020,"m":3},"l":{"r":"England","c":"United Kingdom"},"o":{"r":"NCBI","i":"ERR4206027"}}
{"p":"B.1.1","w":{"d":8,"y":2020,"m":8},"l":{"r":"England","c":"United Kingdom"},"o":{"r":"NCBI","i":"ERR4597921"}}
{"p":"B.1.177.7","w":{"d":8,"y":2020,"m":10},"l":{"r":"Wales","c":"United Kingdom"},"o":{"r":"NCBI","i":"ERR4692505"}}
{"p":"B.1.177.6","w":{"d":8,"y":2020,"m":10},"l":{"r":"Wales","c":"United Kingdom"},"o":{"r":"NCBI","i":"ERR4692490"}}
{"p":"B.1","w":{"d":8,"y":2020,"m":11},"l":{"r":"England","c":"United Kingdom"},"o":{"r":"NCBI","i":"ERR4875071"}}
{"p":"B.1.1.198","w":{"d":8,"y":2020,"m":10},"l":{"r":"England","c":"United Kingdom"},"o":{"r":"NCBI","i":"ERR4693281"}}
{"p":"B.1.177.57","w":{"d":8,"y":2020,"m":11},"l":{"r":"England","c":"United Kingdom"},"o":{"r":"NCBI","i":"ERR4868237"}}
{"p":"B.1","w":{"d":8,"y":2020,"m":3},"l":{"r":"England","c":"United Kingdom"},"o":{"r":"NCBI","i":"ERR4206078"}}
{"p":"B.1.1.67","w":{"d":8,"y":2020,"m":8},"l":{"r":"England","c":"United Kingdom"},"o":{"r":"NCBI","i":"ERR4599713"}}
{"p":"B.1.1","w":{"d":8,"y":2020,"m":5},"l":{"r":"Wales","c":"United Kingdom"},"o":{"r":"NCBI","i":"ERR4308436"}}
{"p":"B.1.1.142","w":{"d":8,"y":2020,"m":3},"l":{"r":"England","c":"United Kingdom"},"o":{"r":"NCBI","i":"ERR4204590"}}
{"p":"B.33","w":{"d":8,"y":2020,"m":3},"l":{"r":"England","c":"United Kingdom"},"o":{"r":"NCBI","i":"ERR4207309"}}
{"p":"B.1.142","w":{"d":8,"y":2020,"m":5},"l":{"r":"Wales","c":"United Kingdom"},"o":{"r":"NCBI","i":"ERR4308676"}}
{"p":"B.1.1.1","w":{"d":8,"y":2020,"m":3},"l":{"r":"England","c":"United Kingdom"},"o":{"r":"NCBI","i":"ERR4207573"}}
{"p":"B.1.1.37","w":{"d":8,"y":2020,"m":9},"l":{"r":"England","c":"United Kingdom"},"o":{"r":"NCBI","i":"ERR5061413"}}
{"p":"B.1.36","w":{"d":8,"y":2020,"m":11},"l":{"r":"England","c":"United Kingdom"},"o":{"r":"NCBI","i":"ERR4875067"}}
{"p":"B.1.177.7","w":{"d":8,"y":2020,"m":10},"l":{"r":"Wales","c":"United Kingdom"},"o":{"r":"NCBI","i":"ERR4692427"}}
{"p":"B.1.1","w":{"d":8,"y":2020,"m":6},"l":{"r":"England","c":"United Kingdom"},"o":{"r":"NCBI","i":"ERR4632365"}}
{"p":"B.1.1.74","c":"Alpha","w":{"d":8,"y":2020,"m":8},"l":{"r":"Northern Ireland","c":"United Kingdom"},"o":{"r":"NCBI","i":"ERR4597880"}}
{"p":"B.1.1.125","w":{"d":8,"y":2020,"m":6},"l":{"r":"England","c":"United Kingdom"},"o":{"r":"NCBI","i":"ERR4632368"}}
{"p":"B.1.177","w":{"d":8,"y":2020,"m":10},"l":{"r":"Wales","c":"United Kingdom"},"o":{"r":"NCBI","i":"ERR4692661"}}
{"p":"B","w":{"d":8,"y":2020,"m":11},"l":{"r":"England","c":"United Kingdom"},"o":{"r":"NCBI","i":"ERR4875060"}}
{"p":"B.1","w":{"d":8,"y":2020,"m":3},"l":{"r":"England","c":"United Kingdom"},"o":{"r":"NCBI","i":"ERR4206748"}}
{"p":"B.1.1","w":{"d":8,"y":2020,"m":6},"l":{"r":"England","c":"United Kingdom"},"o":{"r":"NCBI","i":"ERR4632174"}}
{"p":"B.1.1","w":{"d":8,"y":2020,"m":6},"l":{"r":"England","c":"United Kingdom"},"o":{"r":"NCBI","i":"ERR4641743"}}
{"p":"B.1.1","w":{"d":8,"y":2020,"m":8},"l":{"r":"England","c":"United Kingdom"},"o":{"r":"NCBI","i":"ERR4599719"}}
{"p":"B.1.1.253","w":{"d":8,"y":2020,"m":8},"l":{"r":"England","c":"United Kingdom"},"o":{"r":"NCBI","i":"ERR4597843"}}
{"p":"B.1.1.279","w":{"d":8,"y":2020,"m":8},"l":{"r":"England","c":"United Kingdom"},"o":{"r":"NCBI","i":"ERR4597122"}}
{"p":"B.1.1.161","w":{"d":8,"y":2020,"m":6},"l":{"r":"England","c":"United Kingdom"},"o":{"r":"NCBI","i":"ERR4641745"}}
{"p":"B.1.177.7","w":{"d":8,"y":2020,"m":10},"l":{"r":"Wales","c":"United Kingdom"},"o":{"r":"NCBI","i":"ERR4693326"}}
