{"p":"B.1.177.69","w":{"d":6,"y":2020,"m":11},"l":{"r":"England","c":"United Kingdom"},"o":{"r":"NCBI","i":"ERR4837933"}}
{"p":"B.1","w":{"d":8,"y":2020,"m":11},"l":{"r":"England","c":"United Kingdom"},"o":{"r":"NCBI","i":"ERR4875065"}}
{"p":"B.1","w":{"d":7,"y":2020,"m":11},"l":{"r":"England","c":"United Kingdom"},"o":{"r":"NCBI","i":"ERR4866459"}}
{"p":"B.1.1","w":{"d":7,"y":2020,"m":11},"l":{"r":"England","c":"United Kingdom"},"o":{"r":"NCBI","i":"ERR4866456"}}
{"p":"B.1.36.17","w":{"d":15,"y":2020,"m":11},"l":{"r":"England","c":"United Kingdom"},"o":{"r":"NCBI","i":"ERR5061188"}}
{"p":"B.1","w":{"d":21,"y":2020,"m":11},"l":{"r":"England","c":"United Kingdom"},"o":{"r":"NCBI","i":"ERR4989774"}}
{"p":"B.1.177.54","w":{"d":10,"y":2020,"m":11},"l":{"c":"Ireland","l":"Louth"},"o":{"r":"NCBI","i":"ERR5029422"}}
{"p":"B.1.258.7","w":{"d":1,"y":2020,"m":11},"l":{"r":"Wales","c":"United Kingdom"},"o":{"r":"NCBI","i":"ERR4838903"}}
{"p":"AS.1","w":{"d":14,"y":2020,"m":11},"l":{"r":"England","c":"United Kingdom"},"o":{"r":"NCBI","i":"ERR5061153"}}
{"p":"W.4","w":{"d":21,"y":2020,"m":11},"l":{"r":"England","c":"United Kingdom"},"o":{"r":"NCBI","i":"ERR4990017"}}
{"p":"B.1.1.311","w":{"d":14,"y":2020,"m":11},"l":{"r":"England","c":"United Kingdom"},"o":{"r":"NCBI","i":"ERR5062129"}}
{"p":"B","w":{"d":8,"y":2020,"m":11},"l":{"r":"England","c":"United Kingdom"},"o":{"r":"NCBI","i":"ERR4875062"}}
{"p":"B.1.177","w":{"d":21,"y":2020,"m":11},"l":{"r":"England","c":"United Kingdom"},"o":{"r":"NCBI","i":"ERR4989652"}}
{"p":"B.1.177","w":{"d":21,"y":2020,"m":11},"l":{"r":"England","c":"United Kingdom"},"o":{"r":"NCBI","i":"ERR4989982"}}
{"p":"B.1.177","w":{"d":1,"y":2020,"m":11},"l":{"r":"Wales","c":"United Kingdom"},"o":{"r":"NCBI","i":"ERR4839158"}}
{"p":"B.1.177","w":{"d":28,"y":2020,"m":11},"l":{"r":"England","c":"United Kingdom"},"o":{"r":"NCBI","i":"ERR4990526"}}
{"p":"B.1.177","w":{"d":7,"y":2020,"m":11},"l":{"r":"England","c":"United Kingdom"},"o":{"r":"NCBI","i":"ERR5061761"}}
{"p":"B.1.177.65","w":{"d":15,"y":2020,"m":11},"l":{"r":"Wales","c":"United Kingdom"},"o":{"r":"NCBI","i":"ERR5061045"}}
{"p":"B.1.1.7","c":"Alpha","w":{"d":21,"y":2020,"m":11},"l":{"r":"England","c":"United Kingdom"},"o":{"r":"NCBI","i":"ERR4893143"}}
{"p":"B.1.1","w":{"d":12,"y":2020,"m":11},"l":{"r":"England","c":"United Kingdom"},"o":{"r":"NCBI","i":"ERR5057254"}}
{"p":"B.1.177.54","w":{"d":9,"y":2020,"m":11},"l":{"c":"Ireland","l":"Louth"},"o":{"r":"NCBI","i":"ERR5029393"}}
{"p":"B.1.1.7","c":"Alpha","w":{"d":21,"y":2020,"m":11},"l":{"r":"England","c":"United Kingdom"},"o":{"r":"NCBI","i":"ERR4988737"}}
{"p":"B.1","w":{"d":12,"y":2020,"m":11},"l":{"r":"England","c":"United Kingdom"},"o":{"r":"NCBI","i":"ERR5057240"}}
{"p":"B.1.177","w":{"d":9,"y":2020,"m":11},"l":{"r":"Wales","c":"United Kingdom"},"o":{"r":"NCBI","i":"ERR5060841"}}
{"p":"B.1.1.7","c":"Alpha","w":{"d":22,"y":2020,"m":11},"l":{"r":"England","c":"United Kingdom"},"o":{"r":"NCBI","i":"ERR4988528"}}
{"p":"B.1","w":{"d":21,"y":2020,"m":11},"l":{"r":"England","c":"United Kingdom"},"o":{"r":"NCBI","i":"ERR4989804"}}
{"p":"B.1.177.7","w":{"d":1,"y":2020,"m":11},"l":{"r":"Wales","c":"United Kingdom"},"o":{"r":"NCBI","i":"ERR4838991"}}
{"p":"B.1.1.7","c":"Alpha","w":{"d":28,"y":2020,"m":11},"l":{"r":"England","c":"United Kingdom"},"o":{"r":"NCBI","i":"ERR4990531"}}
{"p":"B.1.177","w":{"d":21,"y":2020,"m":11},"l":{"r":"England","c":"United Kingdom"},"o":{"r":"NCBI","i":"ERR4989980"}}
{"p":"AD.2","w":{"d":9,"y":2020,"m":11},"l":{"r":"Wales","c":"United Kingdom"},"o":{"r":"NCBI","i":"ERR5061993"}}
{"p":"AP.1","w":{"d":1,"y":2020,"m":11},"l":{"r":"Wales","c":"United Kingdom"},"o":{"r":"NCBI","i":"ERR4837852"}}
{"p":"B.1","w":{"d":15,"y":2020,"m":11},"l":{"r":"England","c":"United Kingdom"},"o":{"r":"NCBI","i":"ERR4906975"}}
{"p":"B.1.177","w":{"d":1,"y":2020,"m":11},"l":{"r":"Wales","c":"United Kingdom"},"o":{"r":"NCBI","i":"ERR4839613"}}
{"p":"B.1.1.311","w":{"d":6,"y":2020,"m":11},"l":{"r":"England","c":"United Kingdom"},"o":{"r":"NCBI","i":"ERR4838725"}}
{"p":"AP.1","w":{"d":1,"y":2020,"m":11},"l":{"r":"Wales","c":"United Kingdom"},"o":{"r":"NCBI","i":"ERR4839599"}}
{"p":"B.1.177.7","w":{"d":26,"y":2020,"m":11},"l":{"r":"Wales","c":"United Kingdom"},"o":{"r":"NCBI","i":"ERR5062246"}}
{"p":"B.1","w":{"d":6,"y":2020,"m":11},"l":{"r":"England","c":"United Kingdom"},"o":{"r":"NCBI","i":"ERR4866583"}}
{"p":"B.1.177","w":{"d":1,"y":2020,"m":11},"l":{"r":"England","c":"United Kingdom"},"o":{"r":"NCBI","i":"ERR5061791"}}
{"p":"B.1.177","w":{"d":21,"y":2020,"m":11},"l":{"r":"England","c":"United Kingdom"},"o":{"r":"NCBI","i":"ERR4989999"}}
{"p":"B.1.1.7","c":"Alpha","w":{"d":21,"y":2020,"m":11},"l":{"r":"England","c":"United Kingdom"},"o":{"r":"NCBI","i":"ERR4891862"}}
{"p":"B.1.1.7","c":"Alpha","w":{"d":22,"y":2020,"m":11},"l":{"r":"England","c":"United Kingdom"},"o":{"r":"NCBI","i":"ERR4891538"}}
{"p":"B.1.177","w":{"d":15,"y":2020,"m":11},"l":{"r":"England","c":"United Kingdom"},"o":{"r":"NCBI","i":"ERR4906674"}}
{"p":"B.1.177.16","w":{"d":12,"y":2020,"m":11},"l":{"r":"England","c":"United Kingdom"},"o":{"r":"NCBI","i":"ERR5057256"}}
{"p":"B.1.1.303","w":{"d":8,"y":2020,"m":11},"l":{"r":"England","c":"United Kingdom"},"o":{"r":"NCBI","i":"ERR4875074"}}
{"p":"B.1.177","w":{"d":21,"y":2020,"m":11},"l":{"r":"England","c":"United Kingdom"},"o":{"r":"NCBI","i":"ERR4989997"}}
{"p":"B.1.177.48","w":{"d":8,"y":2020,"m":11},"l":{"r":"England","c":"United Kingdom"},"o":{"r":"NCBI","i":"ERR4875046"}}
{"p":"B.1.177.7","w":{"d":1,"y":2020,"m":11},"l":{"r":"Wales","c":"United Kingdom"},"o":{"r":"NCBI","i":"ERR4838863"}}
{"p":"B.1.177","w":{"d":14,"y":2020,"m":11},"l":{"r":"England","c":"United Kingdom"},"o":{"r":"NCBI","i":"ERR5062346"}}
{"p":"B.1.177.7","w":{"d":14,"y":2020,"m":11},"l":{"r":"Wales","c":"United Kingdom"},"o":{"r":"NCBI","i":"ERR5062055"}}
{"p":"Z.1","w":{"d":15,"y":2020,"m":11},"l":{"r":"Wales","c":"United Kingdom"},"o":{"r":"NCBI","i":"ERR5061383"}}
{"p":"B.1.177","w":{"d":6,"y":2020,"m":11},"l":{"r":"Scotland","c":"United Kingdom"},"o":{"r":"NCBI","i":"ERR4866504"}}
{"p":"B.1.177","w":{"d":6,"y":2020,"m":11},"l":{"r":"England","c":"United Kingdom"},"o":{"r":"NCBI","i":"ERR4866505"}}
{"p":"B.1.1","w":{"d":28,"y":2020,"m":11},"l":{"r":"England","c":"United Kingdom"},"o":{"r":"NCBI","i":"ERR4990524"}}
{"p":"B.1.177","w":{"d":22,"y":2020,"m":11},"l":{"r":"Wales","c":"United Kingdom"},"o":{"r":"NCBI","i":"ERR5049883"}}
{"p":"B.1.177.65","w":{"d":1,"y":2020,"m":11},"l":{"r":"Wales","c":"United Kingdom"},"o":{"r":"NCBI","i":"ERR4837572"}}
{"p":"B.1.177.54","w":{"d":9,"y":2020,"m":11},"l":{"c":"Ireland","l":"Louth"},"o":{"r":"NCBI","i":"ERR5029391"}}
{"p":"B.1.177","w":{"d":28,"y":2020,"m":11},"l":{"r":"Wales","c":"United Kingdom"},"o":{"r":"NCBI","i":"ERR5062082"}}
{"p":"B.1.177","w":{"d":12,"y":2020,"m":11},"l":{"r":"England","c":"United Kingdom"},"o":{"r":"NCBI","i":"ERR5057247"}}
{"p":"B.1.1.198","w":{"d":8,"y":2020,"m":11},"l":{"r":"England","c":"United Kingdom"},"o":{"r":"NCBI","i":"ERR4867087"}}
{"p":"B.1.1.7","c":"Alpha","w":{"d":12,"y":2020,"m":11},"l":{"r":"England","c":"United Kingdom"},"o":{"r":"NCBI","i":"ERR5057244"}}
{"p":"B.1.177","w":{"d":10,"y":2020,"m":11},"l":{"r":"England","c":"United Kingdom"},"o":{"r":"NCBI","i":"ERR5060681"}}
{"p":"B.1.177.66","w":{"d":3,"y":2020,"m":11},"l":{"c":"Ireland","l":"Dublin"},"o":{"r":"NCBI","i":"ERR5029427"}}
{"p":"B.1.1","w":{"d":22,"y":2020,"m":11},"l":{"r":"England","c":"United Kingdom"},"o":{"r":"NCBI","i":"ERR4988520"}}
{"p":"B.1.1.7","c":"Alpha","w":{"d":21,"y":2020,"m":11},"l":{"r":"England","c":"United Kingdom"},"o":{"r":"NCBI","i":"ERR5061577"}}
{"p":"B.1.177.7","w":{"d":28,"y":2020,"m":11},"l":{"r":"Wales","c":"United Kingdom"},"o":{"r":"NCBI","i":"ERR5061068"}}
{"p":"B.1.177.57","w":{"d":8,"y":2020,"m":11},"l":{"r":"England","c":"United Kingdom"},"o":{"r":"NCBI","i":"ERR4875072"}}
{"p":"B.1","w":{"d":26,"y":2020,"m":11},"l":{"r":"England","c":"United Kingdom"},"o":{"r":"NCBI","i":"ERR4989269"}}
{"p":"B.1.177","w":{"d":14,"y":2020,"m":11},"l":{"r":"England","c":"United Kingdom"},"o":{"r":"NCBI","i":"ERR5061915"}}
{"p":"B.1.532","w":{"d":9,"y":2020,"m":11},"l":{"r":"England","c":"United Kingdom"},"o":{"r":"NCBI","i":"ERR5061788"}}
{"p":"B.1.177","w":{"d":7,"y":2020,"m":11},"l":{"r":"Wales","c":"United Kingdom"},"o":{"r":"NCBI","i":"ERR5062371"}}
{"p":"B.1.1.198","w":{"d":21,"y":2020,"m":11},"l":{"r":"England","c":"United Kingdom"},"o":{"r":"NCBI","i":"ERR4891004"}}
{"p":"B.1.460","w":{"d":1,"y":2020,"m":11},"l":{"r":"England","c":"United Kingdom"},"o":{"r":"NCBI","i":"ERR5061273"}}
{"p":"AP.1","w":{"d":1,"y":2020,"m":11},"l":{"r":"Wales","c":"United Kingdom"},"o":{"r":"NCBI","i":"ERR4838025"}}
{"p":"B.1.177","w":{"d":7,"y":2020,"m":11},"l":{"r":"England","c":"United Kingdom"},"o":{"r":"NCBI","i":"ERR4866436"}}
{"p":"B.1.177","w":{"d":7,"y":2020,"m":11},"l":{"r":"England","c":"United Kingdom"},"o":{"r":"NCBI","i":"ERR4866430"}}
{"p":"B.1","w":{"d":11,"y":2020,"m":11},"l":{"c":"Ireland","l":"Louth"},"o":{"r":"NCBI","i":"ERR5029408"}}
{"p":"B.1.177.69","w":{"d":21,"y":2020,"m":11},"l":{"r":"England","c":"United Kingdom"},"o":{"r":"NCBI","i":"ERR4988681"}}
{"p":"B.1.177.87","w":{"d":21,"y":2020,"m":11},"l":{"r":"England","c":"United Kingdom"},"o":{"r":"NCBI","i":"ERR5061581"}}
{"p":"B.1.177.57","w":{"d":14,"y":2020,"m":11},"l":{"r":"England","c":"United Kingdom"},"o":{"r":"NCBI","i":"ERR5060951"}}
{"p":"AK.1","w":{"d":1,"y":2020,"m":11},"l":{"r":"Wales","c":"United Kingdom"},"o":{"r":"NCBI","i":"ERR4839209"}}
{"p":"B.1.1.7","c":"Alpha","w":{"d":21,"y":2020,"m":11},"l":{"r":"England","c":"United Kingdom"},"o":{"r":"NCBI","i":"ERR5042875"}}
{"p":"B.1.177","w":{"d":26,"y":2020,"m":11},"l":{"r":"Wales","c":"United Kingdom"},"o":{"r":"NCBI","i":"ERR5062159"}}
{"p":"B.1.177.7","w":{"d":21,"y":2020,"m":11},"l":{"r":"Wales","c":"United Kingdom"},"o":{"r":"NCBI","i":"ERR5061320"}}
{"p":"B.1.177.54","w":{"d":10,"y":2020,"m":11},"l":{"c":"Ireland","l":"Louth"},"o":{"r":"NCBI","i":"ERR5029416"}}
{"p":"B.1.36.39","w":{"d":9,"y":2020,"m":11},"l":{"r":"England","c":"United Kingdom"},"o":{"r":"NCBI","i":"ERR5060504"}}
{"p":"B.1.177","w":{"d":15,"y":2020,"m":11},"l":{"r":"England","c":"United Kingdom"},"o":{"r":"NCBI","i":"ERR4906681"}}
{"p":"B.1.177.54","w":{"d":9,"y":2020,"m":11},"l":{"c":"Ireland","l":"Louth"},"o":{"r":"NCBI","i":"ERR5029424"}}
{"p":"XC","w":{"d":12,"y":2020,"m":11},"l":{"r":"England","c":"United Kingdom"},"o":{"r":"NCBI","i":"ERR5057241"}}
{"p":"B.1.160.7","w":{"d":1,"y":2020,"m":11},"l":{"r":"Wales","c":"United Kingdom"},"o":{"r":"NCBI","i":"ERR4838985"}}
{"p":"B.1.177.54","w":{"d":9,"y":2020,"m":11},"l":{"c":"Ireland","l":"Louth"},"o":{"r":"NCBI","i":"ERR5029394"}}
{"p":"B.1","w":{"d":21,"y":2020,"m":11},"l":{"r":"England","c":"United Kingdom"},"o":{"r":"NCBI","i":"ERR4890999"}}
{"p":"B.1.177","w":{"d":7,"y":2020,"m":11},"l":{"r":"England","c":"United Kingdom"},"o":{"r":"NCBI","i":"ERR4866421"}}
{"p":"B.1.177","w":{"d":7,"y":2020,"m":11},"l":{"r":"England","c":"United Kingdom"},"o":{"r":"NCBI","i":"ERR4866429"}}
{"p":"B.1.177","w":{"d":6,"y":2020,"m":11},"l":{"r":"England","c":"United Kingdom"},"o":{"r":"NCBI","i":"ERR4862425"}}
{"p":"B.1.177","w":{"d":8,"y":2020,"m":11},"l":{"r":"England","c":"United Kingdom"},"o":{"r":"NCBI","i":"ERR4875068"}}
{"p":"B.1.177","w":{"d":15,"y":2020,"m":11},"l":{"r":"England","c":"United Kingdom"},"o":{"r":"NCBI","i":"ERR4906978"}}
{"p":"B.1.1.7","c":"Alpha","w":{"d":28,"y":2020,"m":11},"l":{"r":"England","c":"United Kingdom"},"o":{"r":"NCBI","i":"ERR4990534"}}
{"p":"B","w":{"d":21,"y":2020,"m":11},"l":{"r":"England","c":"United Kingdom"},"o":{"r":"NCBI","i":"ERR4989979"}}
{"p":"B.1.36","w":{"d":14,"y":2020,"m":11},"l":{"r":"England","c":"United Kingdom"},"o":{"r":"NCBI","i":"ERR5060911"}}
{"p":"B.1.177.7","w":{"d":1,"y":2020,"m":11},"l":{"r":"Wales","c":"United Kingdom"},"o":{"r":"NCBI","i":"ERR4837411"}}
{"p":"B.1.177.7","w":{"d":1,"y":2020,"m":11},"l":{"r":"Wales","c":"United Kingdom"},"o":{"r":"NCBI","i":"ERR4837765"}}
{"p":"AP.1","w":{"d":1,"y":2020,"m":11},"l":{"r":"Wales","c":"United Kingdom"},"o":{"r":"NCBI","i":"ERR4837686"}}
{"p":"B.1.1.7","c":"Alpha","w":{"d":8,"y":2020,"m":11},"l":{"r":"England","c":"United Kingdom"},"o":{"r":"NCBI","i":"ERR4867737"}}
{"p":"B.1.177","w":{"d":15,"y":2020,"m":11},"l":{"r":"England","c":"United Kingdom"},"o":{"r":"NCBI","i":"ERR4906672"}}
{"p":"B.1.177","w":{"d":1,"y":2020,"m":11},"l":{"r":"Wales","c":"United Kingdom"},"o":{"r":"NCBI","i":"ERR4839559"}}
{"p":"B.1","w":{"d":7,"y":2020,"m":11},"l":{"r":"England","c":"United Kingdom"},"o":{"r":"NCBI","i":"ERR4866454"}}
{"p":"B.1.177.4","w":{"d":21,"y":2020,"m":11},"l":{"r":"England","c":"United Kingdom"},"o":{"r":"NCBI","i":"ERR4988516"}}
{"p":"B.1.177","w":{"d":1,"y":2020,"m":11},"l":{"r":"Wales","c":"United Kingdom"},"o":{"r":"NCBI","i":"ERR4837766"}}
{"p":"B.1.177.16","w":{"d":8,"y":2020,"m":11},"l":{"r":"England","c":"United Kingdom"},"o":{"r":"NCBI","i":"ERR5060479"}}
{"p":"B.1.1.7","c":"Alpha","w":{"d":21,"y":2020,"m":11},"l":{"r":"England","c":"United Kingdom"},"o":{"r":"NCBI","i":"ERR5061680"}}
{"p":"B.1.160","w":{"d":7,"y":2020,"m":11},"l":{"r":"England","c":"United Kingdom"},"o":{"r":"NCBI","i":"ERR4866422"}}
{"p":"B.1.177.54","w":{"d":11,"y":2020,"m":11},"l":{"c":"Ireland","l":"Louth"},"o":{"r":"NCBI","i":"ERR5029419"}}
{"p":"B.1","w":{"d":28,"y":2020,"m":11},"l":{"r":"England","c":"United Kingdom"},"o":{"r":"NCBI","i":"ERR4990522"}}
{"p":"B.1.177","w":{"d":21,"y":2020,"m":11},"l":{"r":"England","c":"United Kingdom"},"o":{"r":"NCBI","i":"ERR4989654"}}
{"p":"B.1.460","w":{"d":22,"y":2020,"m":11},"l":{"r":"England","c":"United Kingdom"},"o":{"r":"NCBI","i":"ERR4988514"}}
{"p":"B.1.177.6","w":{"d":1,"y":2020,"m":11},"l":{"r":"Wales","c":"United Kingdom"},"o":{"r":"NCBI","i":"ERR4838611"}}
{"p":"B.1","w":{"d":15,"y":2020,"m":11},"l":{"r":"England","c":"United Kingdom"},"o":{"r":"NCBI","i":"ERR4906977"}}
{"p":"B.1.1.7","c":"Alpha","w":{"d":8,"y":2020,"m":11},"l":{"r":"England","c":"United Kingdom"},"o":{"r":"NCBI","i":"ERR4867835"}}
{"p":"B.1","w":{"d":6,"y":2020,"m":11},"l":{"r":"England","c":"United Kingdom"},"o":{"r":"NCBI","i":"ERR4862376"}}
{"p":"B.1.177.57","w":{"d":21,"y":2020,"m":11},"l":{"r":"England","c":"United Kingdom"},"o":{"r":"NCBI","i":"ERR4891422"}}
{"p":"B.1.177","w":{"d":1,"y":2020,"m":11},"l":{"r":"Wales","c":"United Kingdom"},"o":{"r":"NCBI","i":"ERR4838580"}}
{"p":"B.1.1.7","c":"Alpha","w":{"d":22,"y":2020,"m":11},"l":{"r":"England","c":"United Kingdom"},"o":{"r":"NCBI","i":"ERR5061432"}}
{"p":"B.1.177.69","w":{"d":9,"y":2020,"m":11},"l":{"r":"England","c":"United Kingdom"},"o":{"r":"NCBI","i":"ERR5057345"}}
{"p":"B.1.177.56","w":{"d":10,"y":2020,"m":11},"l":{"c":"Ireland","l":"Louth"},"o":{"r":"NCBI","i":"ERR5029406"}}
{"p":"B.1.1.7","c":"Alpha","w":{"d":21,"y":2020,"m":11},"l":{"r":"England","c":"United Kingdom"},"o":{"r":"NCBI","i":"ERR4893046"}}
{"p":"B.1.177","w":{"d":28,"y":2020,"m":11},"l":{"r":"Wales","c":"United Kingdom"},"o":{"r":"NCBI","i":"ERR5061514"}}
{"p":"B.1.177.4","w":{"d":21,"y":2020,"m":11},"l":{"r":"England","c":"United Kingdom"},"o":{"r":"NCBI","i":"ERR5060881"}}
{"p":"B.1.1.7","c":"Alpha","w":{"d":22,"y":2020,"m":11},"l":{"r":"England","c":"United Kingdom"},"o":{"r":"NCBI","i":"ERR4988515"}}
{"p":"B.1.177.7","w":{"d":1,"y":2020,"m":11},"l":{"r":"Wales","c":"United Kingdom"},"o":{"r":"NCBI","i":"ERR4839785"}}
{"p":"B.1.177.54","w":{"d":9,"y":2020,"m":11},"l":{"c":"Ireland","l":"Louth"},"o":{"r":"NCBI","i":"ERR5029411"}}
{"p":"B.1.177","w":{"d":7,"y":2020,"m":11},"l":{"r":"England","c":"United Kingdom"},"o":{"r":"NCBI","i":"ERR4866451"}}
{"p":"B.1.1.307","w":{"d":12,"y":2020,"m":11},"l":{"r":"England","c":"United Kingdom"},"o":{"r":"NCBI","i":"ERR5057251"}}
{"p":"B.1","w":{"d":21,"y":2020,"m":11},"l":{"r":"England","c":"United Kingdom"},"o":{"r":"NCBI","i":"ERR4988518"}}
{"p":"B.1.2","w":{"d":6,"y":2020,"m":11},"l":{"r":"England","c":"United Kingdom"},"o":{"r":"NCBI","i":"ERR4838510"}}
{"p":"B","w":{"d":21,"y":2020,"m":11},"l":{"r":"England","c":"United Kingdom"},"o":{"r":"NCBI","i":"ERR4989984"}}
{"p":"B.1.177","w":{"d":6,"y":2020,"m":11},"l":{"r":"England","c":"United Kingdom"},"o":{"r":"NCBI","i":"ERR5062100"}}
{"p":"B.1.177.7","w":{"d":1,"y":2020,"m":11},"l":{"r":"Wales","c":"United Kingdom"},"o":{"r":"NCBI","i":"ERR4838678"}}
{"p":"B.1.177.54","w":{"d":10,"y":2020,"m":11},"l":{"c":"Ireland","l":"Louth"},"o":{"r":"NCBI","i":"ERR5029405"}}
{"p":"B.1.177","w":{"d":21,"y":2020,"m":11},"l":{"r":"England","c":"United Kingdom"},"o":{"r":"NCBI","i":"ERR4989802"}}
{"p":"B.1.177.54","w":{"d":9,"y":2020,"m":11},"l":{"c":"Ireland","l":"Louth"},"o":{"r":"NCBI","i":"ERR5029407"}}
{"p":"B.1.1","w":{"d":1,"y":2020,"m":11},"l":{"r":"England","c":"United Kingdom"},"o":{"r":"NCBI","i":"ERR5061981"}}
{"p":"B.1.1.7","c":"Alpha","w":{"d":21,"y":2020,"m":11},"l":{"r":"England","c":"United Kingdom"},"o":{"r":"NCBI","i":"ERR4891718"}}
{"p":"B.1.1","w":{"d":22,"y":2020,"m":11},"l":{"r":"England","c":"United Kingdom"},"o":{"r":"NCBI","i":"ERR4988521"}}
{"p":"B.1.177.54","w":{"d":9,"y":2020,"m":11},"l":{"c":"Ireland","l":"Louth"},"o":{"r":"NCBI","i":"ERR5029392"}}
{"p":"B.1.177.15","w":{"d":1,"y":2020,"m":11},"l":{"r":"Wales","c":"United Kingdom"},"o":{"r":"NCBI","i":"ERR4837668"}}
{"p":"AD.2","w":{"d":15,"y":2020,"m":11},"l":{"r":"England","c":"United Kingdom"},"o":{"r":"NCBI","i":"ERR4906974"}}
{"p":"B.1.177","w":{"d":9,"y":2020,"m":11},"l":{"r":"England","c":"United Kingdom"},"o":{"r":"NCBI","i":"ERR5061716"}}
{"p":"B.1.1.7","c":"Alpha","w":{"d":1,"y":2020,"m":11},"l":{"r":"England","c":"United Kingdom"},"o":{"r":"NCBI","i":"ERR5061361"}}
{"p":"W.4","w":{"d":1,"y":2020,"m":11},"l":{"r":"England","c":"United Kingdom"},"o":{"r":"NCBI","i":"ERR5061708"}}
{"p":"B.1.177","w":{"d":6,"y":2020,"m":11},"l":{"r":"England","c":"United Kingdom"},"o":{"r":"NCBI","i":"ERR4839683"}}
{"p":"B.1.177.7","w":{"d":1,"y":2020,"m":11},"l":{"r":"Wales","c":"United Kingdom"},"o":{"r":"NCBI","i":"ERR4837472"}}
{"p":"B.1.177","w":{"d":22,"y":2020,"m":11},"l":{"r":"Wales","c":"United Kingdom"},"o":{"r":"NCBI","i":"ERR5049885"}}
{"p":"B.1.177.6","w":{"d":1,"y":2020,"m":11},"l":{"r":"Wales","c":"United Kingdom"},"o":{"r":"NCBI","i":"ERR4838633"}}
{"p":"B.1.177","w":{"d":21,"y":2020,"m":11},"l":{"r":"England","c":"United Kingdom"},"o":{"r":"NCBI","i":"ERR4989653"}}
{"p":"B.1.177.15","w":{"d":26,"y":2020,"m":11},"l":{"r":"Wales","c":"United Kingdom"},"o":{"r":"NCBI","i":"ERR5060772"}}
{"p":"B.1.177.8","w":{"d":26,"y":2020,"m":11},"l":{"r":"Wales","c":"United Kingdom"},"o":{"r":"NCBI","i":"ERR5061810"}}
{"p":"B.1.177","w":{"d":5,"y":2020,"m":11},"l":{"r":"Wales","c":"United Kingdom"},"o":{"r":"NCBI","i":"ERR5060557"}}
{"p":"B.1.177","w":{"d":6,"y":2020,"m":11},"l":{"r":"England","c":"United Kingdom"},"o":{"r":"NCBI","i":"ERR4838837"}}
{"p":"XC","w":{"d":22,"y":2020,"m":11},"l":{"r":"England","c":"United Kingdom"},"o":{"r":"NCBI","i":"ERR4988531"}}
{"p":"B.1.1.7","c":"Alpha","w":{"d":28,"y":2020,"m":11},"l":{"r":"England","c":"United Kingdom"},"o":{"r":"NCBI","i":"ERR4990532"}}
{"p":"B.1.177","w":{"d":22,"y":2020,"m":11},"l":{"r":"England","c":"United Kingdom"},"o":{"r":"NCBI","i":"ERR5061056"}}
{"p":"B.1.177","w":{"d":7,"y":2020,"m":11},"l":{"r":"England","c":"United Kingdom"},"o":{"r":"NCBI","i":"ERR4866455"}}
{"p":"B.1.177","w":{"d":15,"y":2020,"m":11},"l":{"r":"England","c":"United Kingdom"},"o":{"r":"NCBI","i":"ERR4906683"}}
{"p":"B.1","w":{"d":8,"y":2020,"m":11},"l":{"r":"England","c":"United Kingdom"},"o":{"r":"NCBI","i":"ERR4875063"}}
{"p":"B.1","w":{"d":12,"y":2020,"m":11},"l":{"r":"England","c":"United Kingdom"},"o":{"r":"NCBI","i":"ERR5057242"}}
{"p":"B.1","w":{"d":15,"y":2020,"m":11},"l":{"r":"England","c":"United Kingdom"},"o":{"r":"NCBI","i":"ERR4906650"}}
{"p":"B.1.177.15","w":{"d":26,"y":2020,"m":11},"l":{"r":"Wales","c":"United Kingdom"},"o":{"r":"NCBI","i":"ERR5060981"}}
{"p":"B.1.177.57","w":{"d":22,"y":2020,"m":11},"l":{"r":"England","c":"United Kingdom"},"o":{"r":"NCBI","i":"ERR4892611"}}
{"p":"B.1.177","w":{"d":7,"y":2020,"m":11},"l":{"r":"England","c":"United Kingdom"},"o":{"r":"NCBI","i":"ERR4866450"}}
{"p":"B.1.177.7","w":{"d":21,"y":2020,"m":11},"l":{"r":"Wales","c":"United Kingdom"},"o":{"r":"NCBI","i":"ERR5061952"}}
{"p":"B.1.177","w":{"d":21,"y":2020,"m":11},"l":{"r":"England","c":"United Kingdom"},"o":{"r":"NCBI","i":"ERR4990000"}}
{"p":"B.1.177.54","w":{"d":9,"y":2020,"m":11},"l":{"c":"Ireland","l":"Louth"},"o":{"r":"NCBI","i":"ERR5029413"}}
{"p":"B.1.177.55","w":{"d":8,"y":2020,"m":11},"l":{"c":"Ireland","l":"Dublin"},"o":{"r":"NCBI","i":"ERR5029423"}}
{"p":"B.1.177.55","w":{"d":8,"y":2020,"m":11},"l":{"c":"Ireland","l":"Dublin"},"o":{"r":"NCBI","i":"ERR5029390"}}
{"p":"B.1","w":{"d":6,"y":2020,"m":11},"l":{"r":"England","c":"United Kingdom"},"o":{"r":"NCBI","i":"ERR4838871"}}
{"p":"B.1.177.15","w":{"d":22,"y":2020,"m":11},"l":{"r":"Wales","c":"United Kingdom"},"o":{"r":"NCBI","i":"ERR5061900"}}
{"p":"B.1.1","w":{"d":7,"y":2020,"m":11},"l":{"r":"England","c":"United Kingdom"},"o":{"r":"NCBI","i":"ERR4866447"}}
{"p":"B.1.1.7","c":"Alpha","w":{"d":12,"y":2020,"m":11},"l":{"r":"England","c":"United Kingdom"},"o":{"r":"NCBI","i":"ERR5057246"}}
{"p":"AP.1","w":{"d":21,"y":2020,"m":11},"l":{"r":"Wales","c":"United Kingdom"},"o":{"r":"NCBI","i":"ERR5060769"}}
{"p":"W.4","w":{"d":21,"y":2020,"m":11},"l":{"r":"England","c":"United Kingdom"},"o":{"r":"NCBI","i":"ERR4989985"}}
{"p":"B.1.1.37","w":{"d":9,"y":2020,"m":11},"l":{"r":"Wales","c":"United Kingdom"},"o":{"r":"NCBI","i":"ERR5061074"}}
{"p":"B.1.177.55","w":{"d":5,"y":2020,"m":11},"l":{"c":"Ireland","l":"Dublin"},"o":{"r":"NCBI","i":"ERR5029404"}}
{"p":"B.1.177.56","w":{"d":22,"y":2020,"m":11},"l":{"r":"Wales","c":"United Kingdom"},"o":{"r":"NCBI","i":"ERR5049879"}}
{"p":"B.1.177.7","w":{"d":15,"y":2020,"m":11},"l":{"r":"Wales","c":"United Kingdom"},"o":{"r":"NCBI","i":"ERR5061087"}}
{"p":"B","w":{"d":21,"y":2020,"m":11},"l":{"r":"England","c":"United Kingdom"},"o":{"r":"NCBI","i":"ERR4990001"}}
{"p":"B.1.177.57","w":{"d":12,"y":2020,"m":11},"l":{"r":"England","c":"United Kingdom"},"o":{"r":"NCBI","i":"ERR5057249"}}
{"p":"B.1.1.7","c":"Alpha","w":{"d":22,"y":2020,"m":11},"l":{"r":"England","c":"United Kingdom"},"o":{"r":"NCBI","i":"ERR4988519"}}
{"p":"B.1.177","w":{"d":1,"y":2020,"m":11},"l":{"r":"Wales","c":"United Kingdom"},"o":{"r":"NCBI","i":"ERR4839743"}}
{"p":"AP.1","w":{"d":1,"y":2020,"m":11},"l":{"r":"Wales","c":"United Kingdom"},"o":{"r":"NCBI","i":"ERR4839190"}}
{"p":"B.1.1.7","c":"Alpha","w":{"d":12,"y":2020,"m":11},"l":{"r":"England","c":"United Kingdom"},"o":{"r":"NCBI","i":"ERR5057250"}}
{"p":"B.1.1","w":{"d":8,"y":2020,"m":11},"l":{"r":"England","c":"United Kingdom"},"o":{"r":"NCBI","i":"ERR4875069"}}
{"p":"B.1.258.7","w":{"d":8,"y":2020,"m":11},"l":{"r":"Wales","c":"United Kingdom"},"o":{"r":"NCBI","i":"ERR5060559"}}
{"p":"B.1.177","w":{"d":22,"y":2020,"m":11},"l":{"r":"England","c":"United Kingdom"},"o":{"r":"NCBI","i":"ERR4988509"}}
{"p":"B.1","w":{"d":15,"y":2020,"m":11},"l":{"r":"England","c":"United Kingdom"},"o":{"r":"NCBI","i":"ERR4906652"}}
{"p":"B.1.177.7","w":{"d":22,"y":2020,"m":11},"l":{"r":"Wales","c":"United Kingdom"},"o":{"r":"NCBI","i":"ERR5060762"}}
{"p":"B.1.258.5","w":{"d":7,"y":2020,"m":11},"l":{"r":"England","c":"United Kingdom"},"o":{"r":"NCBI","i":"ERR4866457"}}
{"p":"B.1.1.25","w":{"d":8,"y":2020,"m":11},"l":{"r":"England","c":"United Kingdom"},"o":{"r":"NCBI","i":"ERR5061253"}}
{"p":"B.1.258.7","w":{"d":1,"y":2020,"m":11},"l":{"r":"Wales","c":"United Kingdom"},"o":{"r":"NCBI","i":"ERR4838767"}}
{"p":"B.1.1","w":{"d":21,"y":2020,"m":11},"l":{"r":"Wales","c":"United Kingdom"},"o":{"r":"NCBI","i":"ERR5061525"}}
{"p":"B.1.177","w":{"d":1,"y":2020,"m":11},"l":{"r":"England","c":"United Kingdom"},"o":{"r":"NCBI","i":"ERR5060650"}}
{"p":"B.1.177","w":{"d":8,"y":2020,"m":11},"l":{"r":"England","c":"United Kingdom"},"o":{"r":"NCBI","i":"ERR4875061"}}
{"p":"B.1.177","w":{"d":8,"y":2020,"m":11},"l":{"r":"England","c":"United Kingdom"},"o":{"r":"NCBI","i":"ERR4875073"}}
{"p":"B.1.177","w":{"d":1,"y":2020,"m":11},"l":{"r":"Wales","c":"United Kingdom"},"o":{"r":"NCBI","i":"ERR4837592"}}
{"p":"B.1.177","w":{"d":7,"y":2020,"m":11},"l":{"r":"England","c":"United Kingdom"},"o":{"r":"NCBI","i":"ERR4866458"}}
{"p":"B.1.177","w":{"d":21,"y":2020,"m":11},"l":{"r":"Wales","c":"United Kingdom"},"o":{"r":"NCBI","i":"ERR5061874"}}
{"p":"B.1.1.7","c":"Alpha","w":{"d":28,"y":2020,"m":11},"l":{"r":"England","c":"United Kingdom"},"o":{"r":"NCBI","i":"ERR4990523"}}
{"p":"B.1.460","w":{"d":22,"y":2020,"m":11},"l":{"r":"England","c":"United Kingdom"},"o":{"r":"NCBI","i":"ERR4988512"}}
{"p":"B.1.177.87","w":{"d":22,"y":2020,"m":11},"l":{"r":"England","c":"United Kingdom"},"o":{"r":"NCBI","i":"ERR4988526"}}
{"p":"B.1.177.69","w":{"d":5,"y":2020,"m":11},"l":{"r":"England","c":"United Kingdom"},"o":{"r":"NCBI","i":"ERR5062551"}}
{"p":"XC","w":{"d":28,"y":2020,"m":11},"l":{"r":"England","c":"United Kingdom"},"o":{"r":"NCBI","i":"ERR4990527"}}
{"p":"B.1.177","w":{"d":8,"y":2020,"m":11},"l":{"r":"England","c":"United Kingdom"},"o":{"r":"NCBI","i":"ERR5060896"}}
{"p":"B.1.177","w":{"d":8,"y":2020,"m":11},"l":{"r":"England","c":"United Kingdom"},"o":{"r":"NCBI","i":"ERR4875070"}}
{"p":"B.1.177.69","w":{"d":1,"y":2020,"m":11},"l":{"r":"England","c":"United Kingdom"},"o":{"r":"NCBI","i":"ERR5061234"}}
{"p":"AP.1","w":{"d":1,"y":2020,"m":11},"l":{"r":"Wales","c":"United Kingdom"},"o":{"r":"NCBI","i":"ERR4839063"}}
{"p":"B.1.1.7","c":"Alpha","w":{"d":22,"y":2020,"m":11},"l":{"r":"England","c":"United Kingdom"},"o":{"r":"NCBI","i":"ERR4988522"}}
{"p":"B","w":{"d":11,"y":2020,"m":11},"l":{"r":"England","c":"United Kingdom"},"o":{"r":"NCBI","i":"ERR5057312"}}
{"p":"B.1.177","w":{"d":14,"y":2020,"m":11},"l":{"r":"Scotland","c":"United Kingdom"},"o":{"r":"NCBI","i":"ERR5061640"}}
{"p":"B.1.177.56","w":{"d":9,"y":2020,"m":11},"l":{"c":"Ireland","l":"Louth"},"o":{"r":"NCBI","i":"ERR5029412"}}
{"p":"B.1.1","w":{"d":6,"y":2020,"m":11},"l":{"r":"England","c":"United Kingdom"},"o":{"r":"NCBI","i":"ERR4862422"}}
{"p":"B.1.177.54","w":{"d":9,"y":2020,"m":11},"l":{"c":"Ireland","l":"Louth"},"o":{"r":"NCBI","i":"ERR5029414"}}
{"p":"B.1.258","w":{"d":21,"y":2020,"m":11},"l":{"r":"England","c":"United Kingdom"},"o":{"r":"NCBI","i":"ERR4988773"}}
{"p":"B.1.177","w":{"d":1,"y":2020,"m":11},"l":{"r":"Wales","c":"United Kingdom"},"o":{"r":"NCBI","i":"ERR4837558"}}
{"p":"AP.1","w":{"d":26,"y":2020,"m":11},"l":{"r":"Wales","c":"United Kingdom"},"o":{"r":"NCBI","i":"ERR5061656"}}
{"p":"B.1.36.17","w":{"d":8,"y":2020,"m":11},"l":{"r":"England","c":"United Kingdom"},"o":{"r":"NCBI","i":"ERR4875059"}}
{"p":"B.1.177.55","w":{"d":4,"y":2020,"m":11},"l":{"c":"Ireland","l":"Dublin"},"o":{"r":"NCBI","i":"ERR5029389"}}
{"p":"B.1.177.55","w":{"d":5,"y":2020,"m":11},"l":{"c":"Ireland","l":"Dublin"},"o":{"r":"NCBI","i":"ERR5029400"}}
{"p":"B.1.1.7","c":"Alpha","w":{"d":28,"y":2020,"m":11},"l":{"r":"England","c":"United Kingdom"},"o":{"r":"NCBI","i":"ERR4990530"}}
{"p":"B.1.177.7","w":{"d":10,"y":2020,"m":11},"l":{"r":"Wales","c":"United Kingdom"},"o":{"r":"NCBI","i":"ERR5060554"}}
{"p":"B.1.177.54","w":{"d":9,"y":2020,"m":11},"l":{"c":"Ireland","l":"Louth"},"o":{"r":"NCBI","i":"ERR5029415"}}
{"p":"B.1.177","w":{"d":8,"y":2020,"m":11},"l":{"r":"England","c":"United Kingdom"},"o":{"r":"NCBI","i":"ERR4875058"}}
{"p":"B.1.177.65","w":{"d":1,"y":2020,"m":11},"l":{"r":"Wales","c":"United Kingdom"},"o":{"r":"NCBI","i":"ERR4837438"}}
{"p":"B.1.1","w":{"d":6,"y":2020,"m":11},"l":{"r":"England","c":"United Kingdom"},"o":{"r":"NCBI","i":"ERR5061803"}}
{"p":"AA.6","w":{"d":21,"y":2020,"m":11},"l":{"r":"Wales","c":"United Kingdom"},"o":{"r":"NCBI","i":"ERR5060965"}}
{"p":"B.1.177.16","w":{"d":14,"y":2020,"m":11},"l":{"r":"England","c":"United Kingdom"},"o":{"r":"NCBI","i":"ERR5061813"}}
{"p":"B.1.1.311","w":{"d":6,"y":2020,"m":11},"l":{"r":"England","c":"United Kingdom"},"o":{"r":"NCBI","i":"ERR4838186"}}
{"p":"B.1.177.55","w":{"d":3,"y":2020,"m":11},"l":{"c":"Ireland","l":"Dublin"},"o":{"r":"NCBI","i":"ERR5029399"}}
{"p":"B.1.177","w":{"d":1,"y":2020,"m":11},"l":{"r":"Wales","c":"United Kingdom"},"o":{"r":"NCBI","i":"ERR4839770"}}
{"p":"B.1.177.57","w":{"d":1,"y":2020,"m":11},"l":{"r":"England","c":"United Kingdom"},"o":{"r":"NCBI","i":"ERR5062002"}}
{"p":"B.1.177","w":{"d":22,"y":2020,"m":11},"l":{"r":"England","c":"United Kingdom"},"o":{"r":"NCBI","i":"ERR4988527"}}
{"p":"B.1.177","w":{"d":21,"y":2020,"m":11},"l":{"r":"England","c":"United Kingdom"},"o":{"r":"NCBI","i":"ERR4989798"}}
{"p":"B.1.177","w":{"d":26,"y":2020,"m":11},"l":{"r":"England","c":"United Kingdom"},"o":{"r":"NCBI","i":"ERR5062548"}}
{"p":"B.1.177.65","w":{"d":14,"y":2020,"m":11},"l":{"r":"Wales","c":"United Kingdom"},"o":{"r":"NCBI","i":"ERR5061644"}}
{"p":"W.4","w":{"d":15,"y":2020,"m":11},"l":{"r":"England","c":"United Kingdom"},"o":{"r":"NCBI","i":"ERR4906679"}}
{"p":"B.1.1.7","c":"Alpha","w":{"d":11,"y":2020,"m":11},"l":{"r":"England","c":"United Kingdom"},"o":{"r":"NCBI","i":"ERR5057308"}}
{"p":"B.1.1.7","c":"Alpha","w":{"d":28,"y":2020,"m":11},"l":{"r":"Wales","c":"United Kingdom"},"o":{"r":"NCBI","i":"ERR5061922"}}
{"p":"B.1","w":{"d":9,"y":2020,"m":11},"l":{"r":"England","c":"United Kingdom"},"o":{"r":"NCBI","i":"ERR5057304"}}
{"p":"AP.1","w":{"d":9,"y":2020,"m":11},"l":{"r":"Wales","c":"United Kingdom"},"o":{"r":"NCBI","i":"ERR5061798"}}
{"p":"B.1.523","w":{"d":22,"y":2020,"m":11},"l":{"r":"England","c":"United Kingdom"},"o":{"r":"NCBI","i":"ERR4988524"}}
{"p":"B.1.177","w":{"d":8,"y":2020,"m":11},"l":{"r":"England","c":"United Kingdom"},"o":{"r":"NCBI","i":"ERR4875064"}}
{"p":"B.1.258.4","w":{"d":14,"y":2020,"m":11},"l":{"r":"England","c":"United Kingdom"},"o":{"r":"NCBI","i":"ERR5060785"}}
{"p":"B.1.177","w":{"d":21,"y":2020,"m":11},"l":{"r":"England","c":"United Kingdom"},"o":{"r":"NCBI","i":"ERR4989800"}}
{"p":"B.1.1.311","w":{"d":9,"y":2020,"m":11},"l":{"r":"England","c":"United Kingdom"},"o":{"r":"NCBI","i":"ERR5061034"}}
{"p":"AP.1","w":{"d":1,"y":2020,"m":11},"l":{"r":"Wales","c":"United Kingdom"},"o":{"r":"NCBI","i":"ERR4837965"}}
{"p":"B.1.177.7","w":{"d":15,"y":2020,"m":11},"l":{"r":"Wales","c":"United Kingdom"},"o":{"r":"NCBI","i":"ERR5060899"}}
{"p":"B.1.177.7","w":{"d":26,"y":2020,"m":11},"l":{"r":"Wales","c":"United Kingdom"},"o":{"r":"NCBI","i":"ERR5061212"}}
{"p":"B.1.177","w":{"d":7,"y":2020,"m":11},"l":{"r":"England","c":"United Kingdom"},"o":{"r":"NCBI","i":"ERR4866420"}}
{"p":"B.1","w":{"d":8,"y":2020,"m":11},"l":{"r":"England","c":"United Kingdom"},"o":{"r":"NCBI","i":"ERR4875066"}}
{"p":"B.1.177.69","w":{"d":6,"y":2020,"m":11},"l":{"r":"England","c":"United Kingdom"},"o":{"r":"NCBI","i":"ERR4838786"}}
{"p":"B.1.177.3","w":{"d":3,"y":2020,"m":11},"l":{"r":"Wales","c":"United Kingdom"},"o":{"r":"NCBI","i":"ERR4838619"}}
{"p":"B.1.177.54","w":{"d":8,"y":2020,"m":11},"l":{"r":"England","c":"United Kingdom"},"o":{"r":"NCBI","i":"ERR4868150"}}
{"p":"B.1.1","w":{"d":7,"y":2020,"m":11},"l":{"r":"England","c":"United Kingdom"},"o":{"r":"NCBI","i":"ERR4866448"}}
{"p":"B.1.177","w":{"d":8,"y":2020,"m":11},"l":{"r":"England","c":"United Kingdom"},"o":{"r":"NCBI","i":"ERR5062578"}}
{"p":"B.1.177.54","w":{"d":9,"y":2020,"m":11},"l":{"c":"Ireland","l":"Louth"},"o":{"r":"NCBI","i":"ERR5029425"}}
{"p":"B.1.177.55","w":{"d":5,"y":2020,"m":11},"l":{"c":"Ireland","l":"Dublin"},"o":{"r":"NCBI","i":"ERR5029409"}}
{"p":"B.1.177.54","w":{"d":10,"y":2020,"m":11},"l":{"c":"Ireland","l":"Louth"},"o":{"r":"NCBI","i":"ERR5029403"}}
{"p":"B.1.177","w":{"d":6,"y":2020,"m":11},"l":{"r":"England","c":"United Kingdom"},"o":{"r":"NCBI","i":"ERR4839216"}}
{"p":"B.1.177","w":{"d":7,"y":2020,"m":11},"l":{"r":"England","c":"United Kingdom"},"o":{"r":"NCBI","i":"ERR4866438"}}
{"p":"B.1.177.4","w":{"d":3,"y":2020,"m":11},"l":{"r":"England","c":"United Kingdom"},"o":{"r":"NCBI","i":"ERR5062338"}}
{"p":"B.1.177","w":{"d":3,"y":2020,"m":11},"l":{"r":"England","c":"United Kingdom"},"o":{"r":"NCBI","i":"ERR5061280"}}
{"p":"B.1.177.57","w":{"d":8,"y":2020,"m":11},"l":{"r":"England","c":"United Kingdom"},"o":{"r":"NCBI","i":"ERR4867053"}}
{"p":"B.1.177","w":{"d":21,"y":2020,"m":11},"l":{"r":"England","c":"United Kingdom"},"o":{"r":"NCBI","i":"ERR5061352"}}
{"p":"B.1.36.17","w":{"d":3,"y":2020,"m":11},"l":{"r":"England","c":"United Kingdom"},"o":{"r":"NCBI","i":"ERR5061784"}}
{"p":"B.1.177","w":{"d":15,"y":2020,"m":11},"l":{"r":"England","c":"United Kingdom"},"o":{"r":"NCBI","i":"ERR4906670"}}
{"p":"B.1.177.56","w":{"d":15,"y":2020,"m":11},"l":{"r":"England","c":"United Kingdom"},"o":{"r":"NCBI","i":"ERR4906676"}}
{"p":"B.1.177.57","w":{"d":21,"y":2020,"m":11},"l":{"r":"England","c":"United Kingdom"},"o":{"r":"NCBI","i":"ERR4891865"}}
{"p":"B.1.1.315","w":{"d":7,"y":2020,"m":11},"l":{"r":"England","c":"United Kingdom"},"o":{"r":"NCBI","i":"ERR4866432"}}
{"p":"B.1.177.82","w":{"d":6,"y":2020,"m":11},"l":{"r":"England","c":"United Kingdom"},"o":{"r":"NCBI","i":"ERR4838906"}}
{"p":"B.1.177","w":{"d":21,"y":2020,"m":11},"l":{"r":"England","c":"United Kingdom"},"o":{"r":"NCBI","i":"ERR4989981"}}
{"p":"B.1.177.6","w":{"d":6,"y":2020,"m":11},"l":{"r":"England","c":"United Kingdom"},"o":{"r":"NCBI","i":"ERR4839664"}}
{"p":"AP.1","w":{"d":1,"y":2020,"m":11},"l":{"r":"Wales","c":"United Kingdom"},"o":{"r":"NCBI","i":"ERR4838583"}}
{"p":"B.1.177","w":{"d":21,"y":2020,"m":11},"l":{"r":"England","c":"United Kingdom"},"o":{"r":"NCBI","i":"ERR4989776"}}
{"p":"XC","w":{"d":12,"y":2020,"m":11},"l":{"r":"England","c":"United Kingdom"},"o":{"r":"NCBI","i":"ERR5057238"}}
{"p":"B.1.408","w":{"d":7,"y":2020,"m":11},"l":{"r":"England","c":"United Kingdom"},"o":{"r":"NCBI","i":"ERR4866453"}}
{"p":"B.1.177","w":{"d":6,"y":2020,"m":11},"l":{"r":"England","c":"United Kingdom"},"o":{"r":"NCBI","i":"ERR4839203"}}
{"p":"B.1.177.7","w":{"d":1,"y":2020,"m":11},"l":{"r":"Wales","c":"United Kingdom"},"o":{"r":"NCBI","i":"ERR4839005"}}
{"p":"B.1","w":{"d":8,"y":2020,"m":11},"l":{"r":"England","c":"United Kingdom"},"o":{"r":"NCBI","i":"ERR4875071"}}
{"p":"B.1.177.57","w":{"d":8,"y":2020,"m":11},"l":{"r":"England","c":"United Kingdom"},"o":{"r":"NCBI","i":"ERR4868237"}}
{"p":"B.1.177","w":{"d":7,"y":2020,"m":11},"l":{"r":"England","c":"United Kingdom"},"o":{"r":"NCBI","i":"ERR4866445"}}
{"p":"B.1.177.18","w":{"d":1,"y":2020,"m":11},"l":{"r":"England","c":"United Kingdom"},"o":{"r":"NCBI","i":"ERR5060736"}}
{"p":"B.1","w":{"d":7,"y":2020,"m":11},"l":{"r":"England","c":"United Kingdom"},"o":{"r":"NCBI","i":"ERR4866449"}}
{"p":"B.1.177.57","w":{"d":6,"y":2020,"m":11},"l":{"r":"England","c":"United Kingdom"},"o":{"r":"NCBI","i":"ERR4838617"}}
{"p":"B.1.177.7","w":{"d":1,"y":2020,"m":11},"l":{"r":"Wales","c":"United Kingdom"},"o":{"r":"NCBI","i":"ERR4837937"}}
{"p":"B.1.177","w":{"d":21,"y":2020,"m":11},"l":{"r":"England","c":"United Kingdom"},"o":{"r":"NCBI","i":"ERR4989995"}}
{"p":"B.1.177","w":{"d":7,"y":2020,"m":11},"l":{"r":"England","c":"United Kingdom"},"o":{"r":"NCBI","i":"ERR4866423"}}
{"p":"B.1.177.18","w":{"d":21,"y":2020,"m":11},"l":{"r":"England","c":"United Kingdom"},"o":{"r":"NCBI","i":"ERR4988735"}}
{"p":"B.1.177.87","w":{"d":21,"y":2020,"m":11},"l":{"r":"England","c":"United Kingdom"},"o":{"r":"NCBI","i":"ERR5061069"}}
{"p":"B.1.177.15","w":{"d":1,"y":2020,"m":11},"l":{"r":"Wales","c":"United Kingdom"},"o":{"r":"NCBI","i":"ERR4838995"}}
{"p":"B.1.177","w":{"d":6,"y":2020,"m":11},"l":{"r":"England","c":"United Kingdom"},"o":{"r":"NCBI","i":"ERR4862178"}}
{"p":"B.1.177.54","w":{"d":10,"y":2020,"m":11},"l":{"c":"Ireland","l":"Louth"},"o":{"r":"NCBI","i":"ERR5029401"}}
{"p":"AA.1","w":{"d":22,"y":2020,"m":11},"l":{"r":"Wales","c":"United Kingdom"},"o":{"r":"NCBI","i":"ERR5049877"}}
{"p":"B.1.36","w":{"d":8,"y":2020,"m":11},"l":{"r":"England","c":"United Kingdom"},"o":{"r":"NCBI","i":"ERR4875067"}}
{"p":"B.1.177","w":{"d":7,"y":2020,"m":11},"l":{"r":"England","c":"United Kingdom"},"o":{"r":"NCBI","i":"ERR4866452"}}
{"p":"B.1.177.65","w":{"d":7,"y":2020,"m":11},"l":{"r":"Wales","c":"United Kingdom"},"o":{"r":"NCBI","i":"ERR5062329"}}
{"p":"AP.1","w":{"d":26,"y":2020,"m":11},"l":{"r":"Wales","c":"United Kingdom"},"o":{"r":"NCBI","i":"ERR5062087"}}
{"p":"AP.1","w":{"d":1,"y":2020,"m":11},"l":{"r":"Wales","c":"United Kingdom"},"o":{"r":"NCBI","i":"ERR4837985"}}
{"p":"B.1","w":{"d":22,"y":2020,"m":11},"l":{"r":"England","c":"United Kingdom"},"o":{"r":"NCBI","i":"ERR4988533"}}
{"p":"B.1","w":{"d":12,"y":2020,"m":11},"l":{"r":"England","c":"United Kingdom"},"o":{"r":"NCBI","i":"ERR5057253"}}
{"p":"B.1.177","w":{"d":12,"y":2020,"m":11},"l":{"r":"England","c":"United Kingdom"},"o":{"r":"NCBI","i":"ERR5057252"}}
{"p":"B.1.177.57","w":{"d":6,"y":2020,"m":11},"l":{"r":"England","c":"United Kingdom"},"o":{"r":"NCBI","i":"ERR4837425"}}
{"p":"B.1.1.7","c":"Alpha","w":{"d":22,"y":2020,"m":11},"l":{"r":"England","c":"United Kingdom"},"o":{"r":"NCBI","i":"ERR4988523"}}
{"p":"B.1","w":{"d":21,"y":2020,"m":11},"l":{"r":"England","c":"United Kingdom"},"o":{"r":"NCBI","i":"ERR4989778"}}
{"p":"B.1.177","w":{"d":28,"y":2020,"m":11},"l":{"r":"England","c":"United Kingdom"},"o":{"r":"NCBI","i":"ERR4990529"}}
{"p":"B.1.177","w":{"d":7,"y":2020,"m":11},"l":{"r":"England","c":"United Kingdom"},"o":{"r":"NCBI","i":"ERR4866440"}}
{"p":"AP.1","w":{"d":1,"y":2020,"m":11},"l":{"r":"Wales","c":"United Kingdom"},"o":{"r":"NCBI","i":"ERR4838036"}}
{"p":"B.1.177.56","w":{"d":6,"y":2020,"m":11},"l":{"r":"England","c":"United Kingdom"},"o":{"r":"NCBI","i":"ERR4837956"}}
{"p":"B.1.177","w":{"d":21,"y":2020,"m":11},"l":{"r":"England","c":"United Kingdom"},"o":{"r":"NCBI","i":"ERR5061083"}}
{"p":"B.1.177","w":{"d":21,"y":2020,"m":11},"l":{"r":"England","c":"United Kingdom"},"o":{"r":"NCBI","i":"ERR4988530"}}
{"p":"B","w":{"d":8,"y":2020,"m":11},"l":{"r":"England","c":"United Kingdom"},"o":{"r":"NCBI","i":"ERR4875060"}}
{"p":"B.1.177.55","w":{"d":5,"y":2020,"m":11},"l":{"c":"Ireland","l":"Dublin"},"o":{"r":"NCBI","i":"ERR5029395"}}
{"p":"B.1.1.7","c":"Alpha","w":{"d":1,"y":2020,"m":11},"l":{"r":"England","c":"United Kingdom"},"o":{"r":"NCBI","i":"ERR5060827"}}
{"p":"B.1.177","w":{"d":21,"y":2020,"m":11},"l":{"r":"England","c":"United Kingdom"},"o":{"r":"NCBI","i":"ERR4989998"}}
{"p":"B.1.177","w":{"d":6,"y":2020,"m":11},"l":{"r":"England","c":"United Kingdom"},"o":{"r":"NCBI","i":"ERR4861136"}}
{"p":"B.1.1","w":{"d":22,"y":2020,"m":11},"l":{"r":"England","c":"United Kingdom"},"o":{"r":"NCBI","i":"ERR4988535"}}
{"p":"B.1.177","w":{"d":15,"y":2020,"m":11},"l":{"r":"England","c":"United Kingdom"},"o":{"r":"NCBI","i":"ERR4906980"}}
{"p":"B.1.177.4","w":{"d":7,"y":2020,"m":11},"l":{"r":"England","c":"United Kingdom"},"o":{"r":"NCBI","i":"ERR4866419"}}
{"p":"B","w":{"d":22,"y":2020,"m":11},"l":{"r":"England","c":"United Kingdom"},"o":{"r":"NCBI","i":"ERR4988529"}}
{"p":"B.1","w":{"d":15,"y":2020,"m":11},"l":{"r":"England","c":"United Kingdom"},"o":{"r":"NCBI","i":"ERR4906653"}}
{"p":"B.1.177.7","w":{"d":1,"y":2020,"m":11},"l":{"r":"Wales","c":"United Kingdom"},"o":{"r":"NCBI","i":"ERR4837885"}}
{"p":"B.1.177.54","w":{"d":3,"y":2020,"m":11},"l":{"c":"Ireland","l":"Louth"},"o":{"r":"NCBI","i":"ERR5029402"}}
{"p":"B.1.177.57","w":{"d":6,"y":2020,"m":11},"l":{"r":"England","c":"United Kingdom"},"o":{"r":"NCBI","i":"ERR4839725"}}
{"p":"B.1.36.17","w":{"d":22,"y":2020,"m":11},"l":{"r":"England","c":"United Kingdom"},"o":{"r":"NCBI","i":"ERR4988517"}}
{"p":"B.1.177.54","w":{"d":10,"y":2020,"m":11},"l":{"c":"Ireland","l":"Louth"},"o":{"r":"NCBI","i":"ERR5029410"}}
{"p":"B.1.177.54","w":{"d":11,"y":2020,"m":11},"l":{"c":"Ireland","l":"Louth"},"o":{"r":"NCBI","i":"ERR5029421"}}
{"p":"B.1.1.7","c":"Alpha","w":{"d":22,"y":2020,"m":11},"l":{"r":"England","c":"United Kingdom"},"o":{"r":"NCBI","i":"ERR5062495"}}
{"p":"B.1.177.65","w":{"d":6,"y":2020,"m":11},"l":{"r":"Wales","c":"United Kingdom"},"o":{"r":"NCBI","i":"ERR5061272"}}
{"p":"B.1.177","w":{"d":15,"y":2020,"m":11},"l":{"r":"England","c":"United Kingdom"},"o":{"r":"NCBI","i":"ERR4906677"}}
{"p":"AP.1","w":{"d":1,"y":2020,"m":11},"l":{"r":"Wales","c":"United Kingdom"},"o":{"r":"NCBI","i":"ERR4838975"}}
{"p":"B.1.177.54","w":{"d":10,"y":2020,"m":11},"l":{"c":"Ireland","l":"Louth"},"o":{"r":"NCBI","i":"ERR5029426"}}
{"p":"B.1","w":{"d":21,"y":2020,"m":11},"l":{"r":"England","c":"United Kingdom"},"o":{"r":"NCBI","i":"ERR4989782"}}
{"p":"B.1.177","w":{"d":9,"y":2020,"m":11},"l":{"r":"Wales","c":"United Kingdom"},"o":{"r":"NCBI","i":"ERR5061728"}}
{"p":"B.1.177.7","w":{"d":1,"y":2020,"m":11},"l":{"r":"Wales","c":"United Kingdom"},"o":{"r":"NCBI","i":"ERR4839505"}}
{"p":"B.1.177.7","w":{"d":1,"y":2020,"m":11},"l":{"r":"Wales","c":"United Kingdom"},"o":{"r":"NCBI","i":"ERR5061647"}}
{"p":"B.1.177","w":{"d":9,"y":2020,"m":11},"l":{"r":"England","c":"United Kingdom"},"o":{"r":"NCBI","i":"ERR5057292"}}
{"p":"B.1.1.7","c":"Alpha","w":{"d":22,"y":2020,"m":11},"l":{"r":"England","c":"United Kingdom"},"o":{"r":"NCBI","i":"ERR4988534"}}
{"p":"B.1.1","w":{"d":7,"y":2020,"m":11},"l":{"r":"England","c":"United Kingdom"},"o":{"r":"NCBI","i":"ERR4866434"}}
{"p":"B.1.177","w":{"d":28,"y":2020,"m":11},"l":{"r":"England","c":"United Kingdom"},"o":{"r":"NCBI","i":"ERR5062571"}}
{"p":"B.1.177","w":{"d":7,"y":2020,"m":11},"l":{"r":"England","c":"United Kingdom"},"o":{"r":"NCBI","i":"ERR4866427"}}
{"p":"B.1.177.87","w":{"d":15,"y":2020,"m":11},"l":{"r":"England","c":"United Kingdom"},"o":{"r":"NCBI","i":"ERR5062570"}}
{"p":"B.1","w":{"d":6,"y":2020,"m":11},"l":{"r":"England","c":"United Kingdom"},"o":{"r":"NCBI","i":"ERR4837839"}}
{"p":"B.1.177","w":{"d":21,"y":2020,"m":11},"l":{"r":"England","c":"United Kingdom"},"o":{"r":"NCBI","i":"ERR4989780"}}
{"p":"B.1.160","w":{"d":14,"y":2020,"m":11},"l":{"r":"Wales","c":"United Kingdom"},"o":{"r":"NCBI","i":"ERR5061259"}}
{"p":"B.1.177.54","w":{"d":9,"y":2020,"m":11},"l":{"c":"Ireland","l":"Louth"},"o":{"r":"NCBI","i":"ERR5029417"}}
{"p":"B.1.177.2","w":{"d":12,"y":2020,"m":11},"l":{"c":"Ireland","l":"Louth"},"o":{"r":"NCBI","i":"ERR5029398"}}
{"p":"B.1.1.7","c":"Alpha","w":{"d":28,"y":2020,"m":11},"l":{"r":"England","c":"United Kingdom"},"o":{"r":"NCBI","i":"ERR4990528"}}
{"p":"B.1","w":{"d":28,"y":2020,"m":11},"l":{"r":"England","c":"United Kingdom"},"o":{"r":"NCBI","i":"ERR4990533"}}
{"p":"B.1.1.7","c":"Alpha","w":{"d":22,"y":2020,"m":11},"l":{"r":"England","c":"United Kingdom"},"o":{"r":"NCBI","i":"ERR4988525"}}
{"p":"B.1.177.7","w":{"d":1,"y":2020,"m":11},"l":{"r":"Wales","c":"United Kingdom"},"o":{"r":"NCBI","i":"ERR4839498"}}
{"p":"B.1.177.55","w":{"d":7,"y":2020,"m":11},"l":{"c":"Ireland","l":"Dublin"},"o":{"r":"NCBI","i":"ERR5029418"}}
{"p":"B.1.1.311","w":{"d":3,"y":2020,"m":11},"l":{"r":"Wales","c":"United Kingdom"},"o":{"r":"NCBI","i":"ERR4838632"}}
{"p":"B.1.1.7","c":"Alpha","w":{"d":21,"y":2020,"m":11},"l":{"r":"England","c":"United Kingdom"},"o":{"r":"NCBI","i":"ERR5061448"}}
{"p":"B.1.177.15","w":{"d":1,"y":2020,"m":11},"l":{"r":"Wales","c":"United Kingdom"},"o":{"r":"NCBI","i":"ERR4837432"}}
{"p":"B.1.177","w":{"d":1,"y":2020,"m":11},"l":{"r":"Wales","c":"United Kingdom"},"o":{"r":"NCBI","i":"ERR4839722"}}
{"p":"B.1.177","w":{"d":21,"y":2020,"m":11},"l":{"r":"England","c":"United Kingdom"},"o":{"r":"NCBI","i":"ERR5060534"}}
{"p":"B.1.1.7","c":"Alpha","w":{"d":28,"y":2020,"m":11},"l":{"r":"England","c":"United Kingdom"},"o":{"r":"NCBI","i":"ERR4990525"}}
{"p":"B.1.177","w":{"d":1,"y":2020,"m":11},"l":{"r":"Wales","c":"United Kingdom"},"o":{"r":"NCBI","i":"ERR4838802"}}
{"p":"B.1.177.7","w":{"d":21,"y":2020,"m":11},"l":{"r":"Wales","c":"United Kingdom"},"o":{"r":"NCBI","i":"ERR5061126"}}
