{"p":"B.1.1.311","w":{"d":15,"y":2020,"m":9},"l":{"r":"England","c":"United Kingdom"},"o":{"r":"NCBI","i":"ERR4653203"}}
{"p":"B.1.177","w":{"d":6,"y":2020,"m":9},"l":{"r":"England","c":"United Kingdom"},"o":{"r":"NCBI","i":"ERR4652612"}}
{"p":"B.1.258.7","w":{"d":28,"y":2020,"m":9},"l":{"r":"Wales","c":"United Kingdom"},"o":{"r":"NCBI","i":"ERR4671338"}}
{"p":"B.1.1","w":{"d":1,"y":2020,"m":9},"l":{"r":"England","c":"United Kingdom"},"o":{"r":"NCBI","i":"ERR4615647"}}
{"p":"B.1.1","w":{"d":17,"y":2020,"m":9},"l":{"r":"England","c":"United Kingdom"},"o":{"r":"NCBI","i":"ERR4659509"}}
{"p":"B.1.177","w":{"d":17,"y":2020,"m":9},"l":{"r":"England","c":"United Kingdom"},"o":{"r":"NCBI","i":"ERR4659544"}}
{"p":"B.1.177","w":{"d":24,"y":2020,"m":9},"l":{"r":"Wales","c":"United Kingdom"},"o":{"r":"NCBI","i":"ERR4665214"}}
{"p":"AD.2","w":{"d":29,"y":2020,"m":9},"l":{"r":"England","c":"United Kingdom"},"o":{"r":"NCBI","i":"ERR4688916"}}
{"p":"AD.2","w":{"d":22,"y":2020,"m":9},"l":{"r":"England","c":"United Kingdom"},"o":{"r":"NCBI","i":"ERR4659722"}}
{"p":"B.1.177","w":{"d":14,"y":2020,"m":9},"l":{"r":"Scotland","c":"United Kingdom"},"o":{"r":"NCBI","i":"ERR4667868"}}
{"p":"B.1.177","w":{"d":23,"y":2020,"m":9},"l":{"r":"Wales","c":"United Kingdom"},"o":{"r":"NCBI","i":"ERR4664559"}}
{"p":"B.1.1.37","w":{"d":1,"y":2020,"m":9},"l":{"r":"England","c":"United Kingdom"},"o":{"r":"NCBI","i":"ERR4615630"}}
{"p":"B.1.177","w":{"d":19,"y":2020,"m":9},"l":{"r":"Wales","c":"United Kingdom"},"o":{"r":"NCBI","i":"ERR4659454"}}
{"p":"B.1.1.277","w":{"d":28,"y":2020,"m":9},"l":{"r":"England","c":"United Kingdom"},"o":{"r":"NCBI","i":"ERR4688872"}}
{"p":"B.1.1.37","w":{"d":13,"y":2020,"m":9},"l":{"r":"England","c":"United Kingdom"},"o":{"r":"NCBI","i":"ERR4653108"}}
{"p":"B.1.177.87","w":{"d":12,"y":2020,"m":9},"l":{"r":"England","c":"United Kingdom"},"o":{"r":"NCBI","i":"ERR4652678"}}
{"p":"B.1.177","w":{"d":7,"y":2020,"m":9},"l":{"r":"Scotland","c":"United Kingdom"},"o":{"r":"NCBI","i":"ERR4651063"}}
{"p":"B.1.1.307","w":{"d":26,"y":2020,"m":9},"l":{"r":"England","c":"United Kingdom"},"o":{"r":"NCBI","i":"ERR5060584"}}
{"p":"B.1.177","w":{"d":14,"y":2020,"m":9},"l":{"r":"Scotland","c":"United Kingdom"},"o":{"r":"NCBI","i":"ERR4667870"}}
{"p":"B","w":{"d":13,"y":2020,"m":9},"l":{"r":"England","c":"United Kingdom"},"o":{"r":"NCBI","i":"ERR4653128"}}
{"p":"B.1","w":{"d":6,"y":2020,"m":9},"l":{"r":"England","c":"United Kingdom"},"o":{"r":"NCBI","i":"ERR4651320"}}
{"p":"B.1.177.7","w":{"d":6,"y":2020,"m":9},"l":{"r":"Wales","c":"United Kingdom"},"o":{"r":"NCBI","i":"ERR4664448"}}
{"p":"B.1.177","w":{"d":11,"y":2020,"m":9},"l":{"r":"England","c":"United Kingdom"},"o":{"r":"NCBI","i":"ERR4652292"}}
{"p":"B.1.177","w":{"d":10,"y":2020,"m":9},"l":{"r":"Scotland","c":"United Kingdom"},"o":{"r":"NCBI","i":"ERR4651245"}}
{"p":"B.1.1.189","w":{"d":23,"y":2020,"m":9},"l":{"r":"England","c":"United Kingdom"},"o":{"r":"NCBI","i":"ERR5062278"}}
{"p":"B.1.258","w":{"d":30,"y":2020,"m":9},"l":{"r":"Wales","c":"United Kingdom"},"o":{"r":"NCBI","i":"ERR4693302"}}
{"p":"B.1.177.7","w":{"d":6,"y":2020,"m":9},"l":{"r":"Wales","c":"United Kingdom"},"o":{"r":"NCBI","i":"ERR4666713"}}
{"p":"B.1.177.7","w":{"d":6,"y":2020,"m":9},"l":{"r":"Wales","c":"United Kingdom"},"o":{"r":"NCBI","i":"ERR4665878"}}
{"p":"B.1.177","w":{"d":26,"y":2020,"m":9},"l":{"r":"Wales","c":"United Kingdom"},"o":{"r":"NCBI","i":"ERR4671661"}}
{"p":"B.1.1.37","w":{"d":23,"y":2020,"m":9},"l":{"r":"Wales","c":"United Kingdom"},"o":{"r":"NCBI","i":"ERR4665151"}}
{"p":"B.1.177","w":{"d":25,"y":2020,"m":9},"l":{"r":"Wales","c":"United Kingdom"},"o":{"r":"NCBI","i":"ERR4664998"}}
{"p":"B.1.1.198","w":{"d":13,"y":2020,"m":9},"l":{"r":"England","c":"United Kingdom"},"o":{"r":"NCBI","i":"ERR4665800"}}
{"p":"B.1.367","w":{"d":13,"y":2020,"m":9},"l":{"c":"United Kingdom"},"o":{"r":"NCBI","i":"ERR4693535"}}
{"p":"B.1.1.51","w":{"d":6,"y":2020,"m":9},"l":{"r":"England","c":"United Kingdom"},"o":{"r":"NCBI","i":"ERR4686812"}}
{"p":"B.1.177","w":{"d":15,"y":2020,"m":9},"l":{"r":"England","c":"United Kingdom"},"o":{"r":"NCBI","i":"ERR4653186"}}
{"p":"B.1.177.7","w":{"d":13,"y":2020,"m":9},"l":{"r":"Wales","c":"United Kingdom"},"o":{"r":"NCBI","i":"ERR4664276"}}
{"p":"B.1.1.307","w":{"d":24,"y":2020,"m":9},"l":{"r":"England","c":"United Kingdom"},"o":{"r":"NCBI","i":"ERR5060746"}}
{"p":"B.1.1.315","w":{"d":22,"y":2020,"m":9},"l":{"r":"England","c":"United Kingdom"},"o":{"r":"NCBI","i":"ERR4659730"}}
{"p":"B.1.177.56","w":{"d":23,"y":2020,"m":9},"l":{"r":"Wales","c":"United Kingdom"},"o":{"r":"NCBI","i":"ERR4664360"}}
{"p":"B.1.1.198","w":{"d":29,"y":2020,"m":9},"l":{"r":"England","c":"United Kingdom"},"o":{"r":"NCBI","i":"ERR4671400"}}
{"p":"B.1.1.269","w":{"d":7,"y":2020,"m":9},"l":{"r":"England","c":"United Kingdom"},"o":{"r":"NCBI","i":"ERR4651095"}}
{"p":"B.1.1.309","w":{"d":3,"y":2020,"m":9},"l":{"r":"England","c":"United Kingdom"},"o":{"r":"NCBI","i":"ERR5061091"}}
{"p":"B.1.1.315","w":{"d":5,"y":2020,"m":9},"l":{"r":"England","c":"United Kingdom"},"o":{"r":"NCBI","i":"ERR4651032"}}
{"p":"B.1.177","w":{"d":17,"y":2020,"m":9},"l":{"r":"England","c":"United Kingdom"},"o":{"r":"NCBI","i":"ERR4659546"}}
{"p":"B.1.177","w":{"d":14,"y":2020,"m":9},"l":{"r":"Scotland","c":"United Kingdom"},"o":{"r":"NCBI","i":"ERR4667884"}}
{"p":"B.1.177.7","w":{"d":5,"y":2020,"m":9},"l":{"r":"Wales","c":"United Kingdom"},"o":{"r":"NCBI","i":"ERR4604925"}}
{"p":"B.1.177.7","w":{"d":5,"y":2020,"m":9},"l":{"r":"Wales","c":"United Kingdom"},"o":{"r":"NCBI","i":"ERR4604882"}}
{"p":"B.1.1","w":{"d":4,"y":2020,"m":9},"l":{"r":"England","c":"United Kingdom"},"o":{"r":"NCBI","i":"ERR4652213"}}
{"p":"B.1.1.286","w":{"d":6,"y":2020,"m":9},"l":{"r":"England","c":"United Kingdom"},"o":{"r":"NCBI","i":"ERR4651068"}}
{"p":"B.1.1.161","w":{"d":17,"y":2020,"m":9},"l":{"r":"England","c":"United Kingdom"},"o":{"r":"NCBI","i":"ERR4659517"}}
{"p":"B.1.467","w":{"d":5,"y":2020,"m":9},"l":{"r":"England","c":"United Kingdom"},"o":{"r":"NCBI","i":"ERR4651159"}}
{"p":"B.1.177","w":{"d":29,"y":2020,"m":9},"l":{"r":"England","c":"United Kingdom"},"o":{"r":"NCBI","i":"ERR4688936"}}
{"p":"B.1.177","w":{"d":28,"y":2020,"m":9},"l":{"r":"England","c":"United Kingdom"},"o":{"r":"NCBI","i":"ERR4688877"}}
{"p":"B.1.177","w":{"d":26,"y":2020,"m":9},"l":{"r":"Wales","c":"United Kingdom"},"o":{"r":"NCBI","i":"ERR4671449"}}
{"p":"B.1.1","w":{"d":6,"y":2020,"m":9},"l":{"r":"England","c":"United Kingdom"},"o":{"r":"NCBI","i":"ERR4651329"}}
{"p":"B.1.1.37","w":{"d":29,"y":2020,"m":9},"l":{"r":"England","c":"United Kingdom"},"o":{"r":"NCBI","i":"ERR4688939"}}
{"p":"B.1.1","w":{"d":4,"y":2020,"m":9},"l":{"r":"England","c":"United Kingdom"},"o":{"r":"NCBI","i":"ERR4652215"}}
{"p":"B.1.177.10","w":{"d":29,"y":2020,"m":9},"l":{"r":"England","c":"United Kingdom"},"o":{"r":"NCBI","i":"ERR4688932"}}
{"p":"B.1.258.7","w":{"d":25,"y":2020,"m":9},"l":{"r":"Wales","c":"United Kingdom"},"o":{"r":"NCBI","i":"ERR4665695"}}
{"p":"B.1.177.7","w":{"d":28,"y":2020,"m":9},"l":{"r":"Wales","c":"United Kingdom"},"o":{"r":"NCBI","i":"ERR4671413"}}
{"p":"B.1.177","w":{"d":26,"y":2020,"m":9},"l":{"r":"Wales","c":"United Kingdom"},"o":{"r":"NCBI","i":"ERR4666852"}}
{"p":"B.1.177.84","w":{"d":18,"y":2020,"m":9},"l":{"r":"England","c":"United Kingdom"},"o":{"r":"NCBI","i":"ERR5061059"}}
{"p":"B.1.1.37","w":{"d":13,"y":2020,"m":9},"l":{"r":"Wales","c":"United Kingdom"},"o":{"r":"NCBI","i":"ERR4667452"}}
{"p":"B.1.1.51","w":{"d":15,"y":2020,"m":9},"l":{"r":"England","c":"United Kingdom"},"o":{"r":"NCBI","i":"ERR4653200"}}
{"p":"B.1.177.7","w":{"d":30,"y":2020,"m":9},"l":{"r":"Wales","c":"United Kingdom"},"o":{"r":"NCBI","i":"ERR4693009"}}
{"p":"B.1.389","w":{"d":22,"y":2020,"m":9},"l":{"r":"England","c":"United Kingdom"},"o":{"r":"NCBI","i":"ERR4659732"}}
{"p":"B.1.177.7","w":{"d":26,"y":2020,"m":9},"l":{"r":"Wales","c":"United Kingdom"},"o":{"r":"NCBI","i":"ERR4692800"}}
{"p":"B.1.1","w":{"d":20,"y":2020,"m":9},"l":{"r":"England","c":"United Kingdom"},"o":{"r":"NCBI","i":"ERR4659686"}}
{"p":"C.30","w":{"d":18,"y":2020,"m":9},"l":{"r":"England","c":"United Kingdom"},"o":{"r":"NCBI","i":"ERR5061587"}}
{"p":"B.1.1.315","w":{"d":27,"y":2020,"m":9},"l":{"r":"England","c":"United Kingdom"},"o":{"r":"NCBI","i":"ERR4687922"}}
{"p":"B.1","w":{"d":10,"y":2020,"m":9},"l":{"r":"Scotland","c":"United Kingdom"},"o":{"r":"NCBI","i":"ERR4651023"}}
{"p":"B.1.177","w":{"d":19,"y":2020,"m":9},"l":{"r":"England","c":"United Kingdom"},"o":{"r":"NCBI","i":"ERR4659430"}}
{"p":"B.1.36.16","w":{"d":24,"y":2020,"m":9},"l":{"r":"England","c":"United Kingdom"},"o":{"r":"NCBI","i":"ERR5062297"}}
{"p":"B.1","w":{"d":19,"y":2020,"m":9},"l":{"r":"England","c":"United Kingdom"},"o":{"r":"NCBI","i":"ERR4659420"}}
{"p":"B.1.160","w":{"d":29,"y":2020,"m":9},"l":{"r":"England","c":"United Kingdom"},"o":{"r":"NCBI","i":"ERR4688921"}}
{"p":"B.1.177","w":{"d":26,"y":2020,"m":9},"l":{"r":"Wales","c":"United Kingdom"},"o":{"r":"NCBI","i":"ERR4664330"}}
{"p":"B.1.1.255","w":{"d":14,"y":2020,"m":9},"l":{"r":"Scotland","c":"United Kingdom"},"o":{"r":"NCBI","i":"ERR4667869"}}
{"p":"B.1.177.56","w":{"d":28,"y":2020,"m":9},"l":{"c":"United Kingdom"},"o":{"r":"NCBI","i":"ERR5061600"}}
{"p":"B.1.1.315","w":{"d":13,"y":2020,"m":9},"l":{"r":"England","c":"United Kingdom"},"o":{"r":"NCBI","i":"ERR4653145"}}
{"p":"AD.2","w":{"d":4,"y":2020,"m":9},"l":{"r":"England","c":"United Kingdom"},"o":{"r":"NCBI","i":"ERR4664207"}}
{"p":"B.1.177","w":{"d":23,"y":2020,"m":9},"l":{"r":"Wales","c":"United Kingdom"},"o":{"r":"NCBI","i":"ERR4664754"}}
{"p":"B.1.177.17","w":{"d":18,"y":2020,"m":9},"l":{"r":"England","c":"United Kingdom"},"o":{"r":"NCBI","i":"ERR5061751"}}
{"p":"B.1.177","w":{"d":12,"y":2020,"m":9},"l":{"r":"Wales","c":"United Kingdom"},"o":{"r":"NCBI","i":"ERR4663421"}}
{"p":"B.1.177","w":{"d":5,"y":2020,"m":9},"l":{"r":"England","c":"United Kingdom"},"o":{"r":"NCBI","i":"ERR4651030"}}
{"p":"B.1.258.7","w":{"d":22,"y":2020,"m":9},"l":{"r":"Wales","c":"United Kingdom"},"o":{"r":"NCBI","i":"ERR4664543"}}
{"p":"B.1.258.7","w":{"d":27,"y":2020,"m":9},"l":{"r":"Wales","c":"United Kingdom"},"o":{"r":"NCBI","i":"ERR4671385"}}
{"p":"B.1.177.7","w":{"d":5,"y":2020,"m":9},"l":{"r":"Wales","c":"United Kingdom"},"o":{"r":"NCBI","i":"ERR4604905"}}
{"p":"B.1.177","w":{"d":25,"y":2020,"m":9},"l":{"r":"Wales","c":"United Kingdom"},"o":{"r":"NCBI","i":"ERR4664582"}}
{"p":"B.1.177","w":{"d":6,"y":2020,"m":9},"l":{"r":"England","c":"United Kingdom"},"o":{"r":"NCBI","i":"ERR4651093"}}
{"p":"B.1.177","w":{"d":14,"y":2020,"m":9},"l":{"r":"Scotland","c":"United Kingdom"},"o":{"r":"NCBI","i":"ERR4667874"}}
{"p":"B.1.177.7","w":{"d":13,"y":2020,"m":9},"l":{"r":"Wales","c":"United Kingdom"},"o":{"r":"NCBI","i":"ERR4664991"}}
{"p":"B.1.177.7","w":{"d":22,"y":2020,"m":9},"l":{"r":"Wales","c":"United Kingdom"},"o":{"r":"NCBI","i":"ERR4664458"}}
{"p":"B.1.177.7","w":{"d":13,"y":2020,"m":9},"l":{"r":"Wales","c":"United Kingdom"},"o":{"r":"NCBI","i":"ERR4664619"}}
{"p":"B.1.1.37","w":{"d":4,"y":2020,"m":9},"l":{"r":"England","c":"United Kingdom"},"o":{"r":"NCBI","i":"ERR4652258"}}
{"p":"B.1.1.307","w":{"d":20,"y":2020,"m":9},"l":{"r":"England","c":"United Kingdom"},"o":{"r":"NCBI","i":"ERR4659663"}}
{"p":"B.1.1","w":{"d":28,"y":2020,"m":9},"l":{"r":"England","c":"United Kingdom"},"o":{"r":"NCBI","i":"ERR4688881"}}
{"p":"B.1.1.315","w":{"d":13,"y":2020,"m":9},"l":{"r":"England","c":"United Kingdom"},"o":{"r":"NCBI","i":"ERR4653126"}}
{"p":"B.1.177","w":{"d":19,"y":2020,"m":9},"l":{"r":"England","c":"United Kingdom"},"o":{"r":"NCBI","i":"ERR4659367"}}
{"p":"B.1.177.7","w":{"d":23,"y":2020,"m":9},"l":{"r":"Wales","c":"United Kingdom"},"o":{"r":"NCBI","i":"ERR4664382"}}
{"p":"B.1.177","w":{"d":23,"y":2020,"m":9},"l":{"r":"Wales","c":"United Kingdom"},"o":{"r":"NCBI","i":"ERR4665564"}}
{"p":"B.1.1","w":{"d":19,"y":2020,"m":9},"l":{"r":"England","c":"United Kingdom"},"o":{"r":"NCBI","i":"ERR4659426"}}
{"p":"B.1.177","w":{"d":13,"y":2020,"m":9},"l":{"r":"Wales","c":"United Kingdom"},"o":{"r":"NCBI","i":"ERR4667101"}}
{"p":"B.1.1.37","w":{"d":2,"y":2020,"m":9},"l":{"r":"England","c":"United Kingdom"},"o":{"r":"NCBI","i":"ERR4646225"}}
{"p":"B.1.177.20","w":{"d":19,"y":2020,"m":9},"l":{"r":"England","c":"United Kingdom"},"o":{"r":"NCBI","i":"ERR4659361"}}
{"p":"B.1.177","w":{"d":27,"y":2020,"m":9},"l":{"r":"Wales","c":"United Kingdom"},"o":{"r":"NCBI","i":"ERR4671675"}}
{"p":"B.1.610","w":{"d":12,"y":2020,"m":9},"l":{"r":"England","c":"United Kingdom"},"o":{"r":"NCBI","i":"ERR4652676"}}
{"p":"B.1.177","w":{"d":27,"y":2020,"m":9},"l":{"r":"Wales","c":"United Kingdom"},"o":{"r":"NCBI","i":"ERR4671549"}}
{"p":"B.1.177","w":{"d":19,"y":2020,"m":9},"l":{"r":"Wales","c":"United Kingdom"},"o":{"r":"NCBI","i":"ERR4659456"}}
{"p":"B.1.1","w":{"d":15,"y":2020,"m":9},"l":{"r":"England","c":"United Kingdom"},"o":{"r":"NCBI","i":"ERR4653190"}}
{"p":"B.1.258","w":{"d":25,"y":2020,"m":9},"l":{"r":"Wales","c":"United Kingdom"},"o":{"r":"NCBI","i":"ERR4664687"}}
{"p":"B.1.177.56","w":{"d":13,"y":2020,"m":9},"l":{"r":"Wales","c":"United Kingdom"},"o":{"r":"NCBI","i":"ERR4666014"}}
{"p":"B.1.177.7","w":{"d":26,"y":2020,"m":9},"l":{"r":"Wales","c":"United Kingdom"},"o":{"r":"NCBI","i":"ERR4671100"}}
{"p":"B.1.160","w":{"d":12,"y":2020,"m":9},"l":{"r":"England","c":"United Kingdom"},"o":{"r":"NCBI","i":"ERR4759976"}}
{"p":"B.1.258.4","w":{"d":20,"y":2020,"m":9},"l":{"r":"England","c":"United Kingdom"},"o":{"r":"NCBI","i":"ERR4681774"}}
{"p":"B.1.36.17","w":{"d":20,"y":2020,"m":9},"l":{"r":"England","c":"United Kingdom"},"o":{"r":"NCBI","i":"ERR4681736"}}
{"p":"B.1.235","w":{"d":1,"y":2020,"m":9},"l":{"r":"England","c":"United Kingdom"},"o":{"r":"NCBI","i":"ERR4615651"}}
{"p":"B.1.177.56","w":{"d":27,"y":2020,"m":9},"l":{"r":"Wales","c":"United Kingdom"},"o":{"r":"NCBI","i":"ERR4671566"}}
{"p":"B.1.1","w":{"d":11,"y":2020,"m":9},"l":{"r":"England","c":"United Kingdom"},"o":{"r":"NCBI","i":"ERR4651667"}}
{"p":"B.1.177","w":{"d":9,"y":2020,"m":9},"l":{"r":"England","c":"United Kingdom"},"o":{"r":"NCBI","i":"ERR5062405"}}
{"p":"B.1.177.7","w":{"d":25,"y":2020,"m":9},"l":{"r":"Wales","c":"United Kingdom"},"o":{"r":"NCBI","i":"ERR4665493"}}
{"p":"B.1.177","w":{"d":30,"y":2020,"m":9},"l":{"r":"Wales","c":"United Kingdom"},"o":{"r":"NCBI","i":"ERR4692679"}}
{"p":"B.1.177.57","w":{"d":1,"y":2020,"m":9},"l":{"r":"England","c":"United Kingdom"},"o":{"r":"NCBI","i":"ERR4615636"}}
{"p":"B.1.177","w":{"d":6,"y":2020,"m":9},"l":{"r":"Wales","c":"United Kingdom"},"o":{"r":"NCBI","i":"ERR4665110"}}
{"p":"B.1.1.309","w":{"d":1,"y":2020,"m":9},"l":{"r":"England","c":"United Kingdom"},"o":{"r":"NCBI","i":"ERR4615629"}}
{"p":"B.1.36.12","w":{"d":7,"y":2020,"m":9},"l":{"r":"England","c":"United Kingdom"},"o":{"r":"NCBI","i":"ERR4651055"}}
{"p":"B.1.177.84","w":{"d":28,"y":2020,"m":9},"l":{"r":"England","c":"United Kingdom"},"o":{"r":"NCBI","i":"ERR4688887"}}
{"p":"B.1.177.56","w":{"d":18,"y":2020,"m":9},"l":{"r":"England","c":"United Kingdom"},"o":{"r":"NCBI","i":"ERR5061116"}}
{"p":"B.1.1.311","w":{"d":28,"y":2020,"m":9},"l":{"r":"England","c":"United Kingdom"},"o":{"r":"NCBI","i":"ERR4688879"}}
{"p":"B.1.1.307","w":{"d":10,"y":2020,"m":9},"l":{"r":"England","c":"United Kingdom"},"o":{"r":"NCBI","i":"ERR4651215"}}
{"p":"B.1.177.7","w":{"d":12,"y":2020,"m":9},"l":{"r":"Wales","c":"United Kingdom"},"o":{"r":"NCBI","i":"ERR4660041"}}
{"p":"B.1.258.7","w":{"d":23,"y":2020,"m":9},"l":{"r":"Wales","c":"United Kingdom"},"o":{"r":"NCBI","i":"ERR4664851"}}
{"p":"B.1.177","w":{"d":23,"y":2020,"m":9},"l":{"r":"Wales","c":"United Kingdom"},"o":{"r":"NCBI","i":"ERR4665006"}}
{"p":"B.1.177.31","w":{"d":22,"y":2020,"m":9},"l":{"r":"England","c":"United Kingdom"},"o":{"r":"NCBI","i":"ERR4659724"}}
{"p":"B.1.1.37","w":{"d":25,"y":2020,"m":9},"l":{"r":"Wales","c":"United Kingdom"},"o":{"r":"NCBI","i":"ERR4665968"}}
{"p":"B.1.177.7","w":{"d":13,"y":2020,"m":9},"l":{"r":"Wales","c":"United Kingdom"},"o":{"r":"NCBI","i":"ERR4665687"}}
{"p":"B.1.1.37","w":{"d":24,"y":2020,"m":9},"l":{"r":"Wales","c":"United Kingdom"},"o":{"r":"NCBI","i":"ERR4664482"}}
{"p":"B.1.177.7","w":{"d":30,"y":2020,"m":9},"l":{"r":"Wales","c":"United Kingdom"},"o":{"r":"NCBI","i":"ERR4692730"}}
{"p":"AA.1","w":{"d":25,"y":2020,"m":9},"l":{"r":"Wales","c":"United Kingdom"},"o":{"r":"NCBI","i":"ERR4664756"}}
{"p":"B.1.177","w":{"d":20,"y":2020,"m":9},"l":{"r":"Wales","c":"United Kingdom"},"o":{"r":"NCBI","i":"ERR4659658"}}
{"p":"B.1.1.307","w":{"d":10,"y":2020,"m":9},"l":{"r":"England","c":"United Kingdom"},"o":{"r":"NCBI","i":"ERR4651275"}}
{"p":"B.1.177","w":{"d":12,"y":2020,"m":9},"l":{"r":"England","c":"United Kingdom"},"o":{"r":"NCBI","i":"ERR4665664"}}
{"p":"B.1.1.305","w":{"d":7,"y":2020,"m":9},"l":{"r":"England","c":"United Kingdom"},"o":{"r":"NCBI","i":"ERR4651066"}}
{"p":"B.1.177","w":{"d":26,"y":2020,"m":9},"l":{"r":"Wales","c":"United Kingdom"},"o":{"r":"NCBI","i":"ERR4665481"}}
{"p":"B.1.177.56","w":{"d":24,"y":2020,"m":9},"l":{"r":"Wales","c":"United Kingdom"},"o":{"r":"NCBI","i":"ERR4665750"}}
{"p":"B.1.1.161","w":{"d":27,"y":2020,"m":9},"l":{"r":"England","c":"United Kingdom"},"o":{"r":"NCBI","i":"ERR4687906"}}
{"p":"B.1.1.198","w":{"d":24,"y":2020,"m":9},"l":{"r":"England","c":"United Kingdom"},"o":{"r":"NCBI","i":"ERR4664748"}}
{"p":"B.1.177","w":{"d":10,"y":2020,"m":9},"l":{"r":"Scotland","c":"United Kingdom"},"o":{"r":"NCBI","i":"ERR4651243"}}
{"p":"B.1.177.7","w":{"d":24,"y":2020,"m":9},"l":{"r":"Wales","c":"United Kingdom"},"o":{"r":"NCBI","i":"ERR4664329"}}
{"p":"B.1.1.307","w":{"d":29,"y":2020,"m":9},"l":{"r":"England","c":"United Kingdom"},"o":{"r":"NCBI","i":"ERR4688942"}}
{"p":"B.1.177","w":{"d":25,"y":2020,"m":9},"l":{"r":"Wales","c":"United Kingdom"},"o":{"r":"NCBI","i":"ERR4665091"}}
{"p":"B.1.177","w":{"d":11,"y":2020,"m":9},"l":{"r":"England","c":"United Kingdom"},"o":{"r":"NCBI","i":"ERR4652293"}}
{"p":"B.1.1.310","w":{"d":12,"y":2020,"m":9},"l":{"c":"United Kingdom"},"o":{"r":"NCBI","i":"ERR4693509"}}
{"p":"AD.2","w":{"d":29,"y":2020,"m":9},"l":{"r":"England","c":"United Kingdom"},"o":{"r":"NCBI","i":"ERR4688894"}}
{"p":"B.1.177","w":{"d":23,"y":2020,"m":9},"l":{"r":"Wales","c":"United Kingdom"},"o":{"r":"NCBI","i":"ERR4665136"}}
{"p":"B.1.177.7","w":{"d":23,"y":2020,"m":9},"l":{"r":"Wales","c":"United Kingdom"},"o":{"r":"NCBI","i":"ERR4665389"}}
{"p":"B.1.177.7","w":{"d":26,"y":2020,"m":9},"l":{"r":"Wales","c":"United Kingdom"},"o":{"r":"NCBI","i":"ERR4665271"}}
{"p":"B.1.177","w":{"d":7,"y":2020,"m":9},"l":{"r":"England","c":"United Kingdom"},"o":{"r":"NCBI","i":"ERR5061512"}}
{"p":"B.1.177.7","w":{"d":27,"y":2020,"m":9},"l":{"r":"Wales","c":"United Kingdom"},"o":{"r":"NCBI","i":"ERR4671736"}}
{"p":"B.1.177.7","w":{"d":23,"y":2020,"m":9},"l":{"r":"Wales","c":"United Kingdom"},"o":{"r":"NCBI","i":"ERR4665457"}}
{"p":"B.1.177.10","w":{"d":13,"y":2020,"m":9},"l":{"r":"England","c":"United Kingdom"},"o":{"r":"NCBI","i":"ERR4687275"}}
{"p":"AD.2","w":{"d":20,"y":2020,"m":9},"l":{"r":"England","c":"United Kingdom"},"o":{"r":"NCBI","i":"ERR4659738"}}
{"p":"B.1.1.277","w":{"d":11,"y":2020,"m":9},"l":{"r":"England","c":"United Kingdom"},"o":{"r":"NCBI","i":"ERR4652218"}}
{"p":"B.1.36.20","w":{"d":13,"y":2020,"m":9},"l":{"r":"Scotland","c":"United Kingdom"},"o":{"r":"NCBI","i":"ERR4667899"}}
{"p":"B.1.1.198","w":{"d":13,"y":2020,"m":9},"l":{"r":"England","c":"United Kingdom"},"o":{"r":"NCBI","i":"ERR4664675"}}
{"p":"B.1.177.54","w":{"d":19,"y":2020,"m":9},"l":{"r":"Wales","c":"United Kingdom"},"o":{"r":"NCBI","i":"ERR4659421"}}
{"p":"B.1.177.7","w":{"d":25,"y":2020,"m":9},"l":{"r":"Wales","c":"United Kingdom"},"o":{"r":"NCBI","i":"ERR4666835"}}
{"p":"B.1.1.37","w":{"d":26,"y":2020,"m":9},"l":{"r":"Wales","c":"United Kingdom"},"o":{"r":"NCBI","i":"ERR4671637"}}
{"p":"B.1.160","w":{"d":7,"y":2020,"m":9},"l":{"r":"England","c":"United Kingdom"},"o":{"r":"NCBI","i":"ERR4651026"}}
{"p":"B.1.177.7","w":{"d":6,"y":2020,"m":9},"l":{"r":"Wales","c":"United Kingdom"},"o":{"r":"NCBI","i":"ERR4667174"}}
{"p":"B.1.1.37","w":{"d":19,"y":2020,"m":9},"l":{"r":"England","c":"United Kingdom"},"o":{"r":"NCBI","i":"ERR4659453"}}
{"p":"B.1.1.37","w":{"d":27,"y":2020,"m":9},"l":{"r":"England","c":"United Kingdom"},"o":{"r":"NCBI","i":"ERR4687886"}}
{"p":"B.1.177","w":{"d":13,"y":2020,"m":9},"l":{"r":"Wales","c":"United Kingdom"},"o":{"r":"NCBI","i":"ERR4664479"}}
{"p":"B.1.221","w":{"d":13,"y":2020,"m":9},"l":{"r":"England","c":"United Kingdom"},"o":{"r":"NCBI","i":"ERR4687089"}}
{"p":"B.1.416.1","w":{"d":10,"y":2020,"m":9},"l":{"r":"Scotland","c":"United Kingdom"},"o":{"r":"NCBI","i":"ERR4651185"}}
{"p":"B.1.177","w":{"d":24,"y":2020,"m":9},"l":{"r":"England","c":"United Kingdom"},"o":{"r":"NCBI","i":"ERR5060989"}}
{"p":"B.1.1","w":{"d":2,"y":2020,"m":9},"l":{"r":"England","c":"United Kingdom"},"o":{"r":"NCBI","i":"ERR4646286"}}
{"p":"B.1.177","w":{"d":6,"y":2020,"m":9},"l":{"r":"England","c":"United Kingdom"},"o":{"r":"NCBI","i":"ERR4651188"}}
{"p":"B.1.177","w":{"d":30,"y":2020,"m":9},"l":{"r":"Wales","c":"United Kingdom"},"o":{"r":"NCBI","i":"ERR4693068"}}
{"p":"B.1.177.56","w":{"d":30,"y":2020,"m":9},"l":{"r":"Wales","c":"United Kingdom"},"o":{"r":"NCBI","i":"ERR4693004"}}
{"p":"AD.2","w":{"d":6,"y":2020,"m":9},"l":{"r":"Wales","c":"United Kingdom"},"o":{"r":"NCBI","i":"ERR4665064"}}
{"p":"B.1.177.7","w":{"d":6,"y":2020,"m":9},"l":{"r":"Wales","c":"United Kingdom"},"o":{"r":"NCBI","i":"ERR4667032"}}
{"p":"B.1.177","w":{"d":26,"y":2020,"m":9},"l":{"r":"Wales","c":"United Kingdom"},"o":{"r":"NCBI","i":"ERR4671183"}}
{"p":"B.1.1.311","w":{"d":29,"y":2020,"m":9},"l":{"r":"England","c":"United Kingdom"},"o":{"r":"NCBI","i":"ERR4688931"}}
{"p":"B.1.1","w":{"d":28,"y":2020,"m":9},"l":{"r":"England","c":"United Kingdom"},"o":{"r":"NCBI","i":"ERR4688878"}}
{"p":"B.1.177","w":{"d":20,"y":2020,"m":9},"l":{"r":"Wales","c":"United Kingdom"},"o":{"r":"NCBI","i":"ERR4659659"}}
{"p":"B.1.177","w":{"d":25,"y":2020,"m":9},"l":{"r":"Wales","c":"United Kingdom"},"o":{"r":"NCBI","i":"ERR4665156"}}
{"p":"B.1.177","w":{"d":24,"y":2020,"m":9},"l":{"r":"England","c":"United Kingdom"},"o":{"r":"NCBI","i":"ERR5061986"}}
{"p":"B.1.1.37","w":{"d":1,"y":2020,"m":9},"l":{"r":"England","c":"United Kingdom"},"o":{"r":"NCBI","i":"ERR5060680"}}
{"p":"B.1.1.301","w":{"d":28,"y":2020,"m":9},"l":{"r":"England","c":"United Kingdom"},"o":{"r":"NCBI","i":"ERR4688882"}}
{"p":"B.1.177.7","w":{"d":6,"y":2020,"m":9},"l":{"r":"Wales","c":"United Kingdom"},"o":{"r":"NCBI","i":"ERR4604924"}}
{"p":"B.1.177","w":{"d":28,"y":2020,"m":9},"l":{"r":"England","c":"United Kingdom"},"o":{"r":"NCBI","i":"ERR4688898"}}
{"p":"B.1.258.7","w":{"d":23,"y":2020,"m":9},"l":{"r":"Wales","c":"United Kingdom"},"o":{"r":"NCBI","i":"ERR4664258"}}
{"p":"B.1","w":{"d":20,"y":2020,"m":9},"l":{"r":"England","c":"United Kingdom"},"o":{"r":"NCBI","i":"ERR4659710"}}
{"p":"B.1.177","w":{"d":3,"y":2020,"m":9},"l":{"r":"Scotland","c":"United Kingdom"},"o":{"r":"NCBI","i":"ERR5061805"}}
{"p":"B.1.1.310","w":{"d":13,"y":2020,"m":9},"l":{"c":"United Kingdom"},"o":{"r":"NCBI","i":"ERR4694191"}}
{"p":"B.1.177.7","w":{"d":13,"y":2020,"m":9},"l":{"r":"Wales","c":"United Kingdom"},"o":{"r":"NCBI","i":"ERR4665363"}}
{"p":"B.1.177","w":{"d":13,"y":2020,"m":9},"l":{"r":"Scotland","c":"United Kingdom"},"o":{"r":"NCBI","i":"ERR4667909"}}
{"p":"B.1.177.56","w":{"d":23,"y":2020,"m":9},"l":{"r":"Wales","c":"United Kingdom"},"o":{"r":"NCBI","i":"ERR4664666"}}
{"p":"B.1.177","w":{"d":23,"y":2020,"m":9},"l":{"r":"Wales","c":"United Kingdom"},"o":{"r":"NCBI","i":"ERR4664272"}}
{"p":"B.1.36","w":{"d":5,"y":2020,"m":9},"l":{"r":"England","c":"United Kingdom"},"o":{"r":"NCBI","i":"ERR4651057"}}
{"p":"B.1.177","w":{"d":13,"y":2020,"m":9},"l":{"r":"Scotland","c":"United Kingdom"},"o":{"r":"NCBI","i":"ERR4667875"}}
{"p":"B.1.1.307","w":{"d":8,"y":2020,"m":9},"l":{"r":"England","c":"United Kingdom"},"o":{"r":"NCBI","i":"ERR4651051"}}
{"p":"B.1.177","w":{"d":26,"y":2020,"m":9},"l":{"r":"Wales","c":"United Kingdom"},"o":{"r":"NCBI","i":"ERR4664423"}}
{"p":"B.1.1","w":{"d":19,"y":2020,"m":9},"l":{"r":"England","c":"United Kingdom"},"o":{"r":"NCBI","i":"ERR4659358"}}
{"p":"B.1.1.37","w":{"d":6,"y":2020,"m":9},"l":{"r":"Wales","c":"United Kingdom"},"o":{"r":"NCBI","i":"ERR4664997"}}
{"p":"B.1.177","w":{"d":11,"y":2020,"m":9},"l":{"r":"England","c":"United Kingdom"},"o":{"r":"NCBI","i":"ERR4652289"}}
{"p":"B.1.177","w":{"d":29,"y":2020,"m":9},"l":{"r":"England","c":"United Kingdom"},"o":{"r":"NCBI","i":"ERR4688914"}}
{"p":"B.1.1.189","w":{"d":6,"y":2020,"m":9},"l":{"r":"England","c":"United Kingdom"},"o":{"r":"NCBI","i":"ERR4652256"}}
{"p":"B.1.258.3","w":{"d":6,"y":2020,"m":9},"l":{"r":"England","c":"United Kingdom"},"o":{"r":"NCBI","i":"ERR4651134"}}
{"p":"B.1.258","w":{"d":20,"y":2020,"m":9},"l":{"r":"England","c":"United Kingdom"},"o":{"r":"NCBI","i":"ERR4659667"}}
{"p":"B.1.177.56","w":{"d":23,"y":2020,"m":9},"l":{"r":"Wales","c":"United Kingdom"},"o":{"r":"NCBI","i":"ERR4664697"}}
{"p":"B.1.1.315","w":{"d":2,"y":2020,"m":9},"l":{"r":"England","c":"United Kingdom"},"o":{"r":"NCBI","i":"ERR4646223"}}
{"p":"B.1.1.161","w":{"d":15,"y":2020,"m":9},"l":{"r":"England","c":"United Kingdom"},"o":{"r":"NCBI","i":"ERR4653202"}}
{"p":"B.1.177","w":{"d":5,"y":2020,"m":9},"l":{"r":"England","c":"United Kingdom"},"o":{"r":"NCBI","i":"ERR4651101"}}
{"p":"B.1.1.253","w":{"d":1,"y":2020,"m":9},"l":{"r":"England","c":"United Kingdom"},"o":{"r":"NCBI","i":"ERR4615637"}}
{"p":"B.1.1.198","w":{"d":25,"y":2020,"m":9},"l":{"r":"England","c":"United Kingdom"},"o":{"r":"NCBI","i":"ERR4665909"}}
{"p":"B.1.177","w":{"d":12,"y":2020,"m":9},"l":{"r":"England","c":"United Kingdom"},"o":{"r":"NCBI","i":"ERR4763238"}}
{"p":"B.1.1","w":{"d":12,"y":2020,"m":9},"l":{"r":"England","c":"United Kingdom"},"o":{"r":"NCBI","i":"ERR4652668"}}
{"p":"B.1.177.7","w":{"d":6,"y":2020,"m":9},"l":{"r":"Wales","c":"United Kingdom"},"o":{"r":"NCBI","i":"ERR4665630"}}
{"p":"B.1.221.1","w":{"d":7,"y":2020,"m":9},"l":{"r":"England","c":"United Kingdom"},"o":{"r":"NCBI","i":"ERR4651059"}}
{"p":"B.1.177","w":{"d":12,"y":2020,"m":9},"l":{"r":"England","c":"United Kingdom"},"o":{"r":"NCBI","i":"ERR4652666"}}
{"p":"B.1.177.7","w":{"d":6,"y":2020,"m":9},"l":{"r":"Wales","c":"United Kingdom"},"o":{"r":"NCBI","i":"ERR4667400"}}
{"p":"B.1.177","w":{"d":20,"y":2020,"m":9},"l":{"r":"Wales","c":"United Kingdom"},"o":{"r":"NCBI","i":"ERR4659661"}}
{"p":"B.1.389","w":{"d":14,"y":2020,"m":9},"l":{"r":"England","c":"United Kingdom"},"o":{"r":"NCBI","i":"ERR4652736"}}
{"p":"B.1.177","w":{"d":29,"y":2020,"m":9},"l":{"r":"England","c":"United Kingdom"},"o":{"r":"NCBI","i":"ERR4688920"}}
{"p":"AD.2","w":{"d":24,"y":2020,"m":9},"l":{"r":"Wales","c":"United Kingdom"},"o":{"r":"NCBI","i":"ERR4665346"}}
{"p":"B.1.177.7","w":{"d":12,"y":2020,"m":9},"l":{"r":"Wales","c":"United Kingdom"},"o":{"r":"NCBI","i":"ERR4665327"}}
{"p":"B.1.177.3","w":{"d":23,"y":2020,"m":9},"l":{"r":"Wales","c":"United Kingdom"},"o":{"r":"NCBI","i":"ERR4666839"}}
{"p":"B.1.1.307","w":{"d":10,"y":2020,"m":9},"l":{"r":"England","c":"United Kingdom"},"o":{"r":"NCBI","i":"ERR4651268"}}
{"p":"B.1.177.7","w":{"d":24,"y":2020,"m":9},"l":{"r":"Wales","c":"United Kingdom"},"o":{"r":"NCBI","i":"ERR4664285"}}
{"p":"B.1.177.7","w":{"d":24,"y":2020,"m":9},"l":{"r":"Wales","c":"United Kingdom"},"o":{"r":"NCBI","i":"ERR4665259"}}
{"p":"B.1.1.161","w":{"d":12,"y":2020,"m":9},"l":{"r":"Scotland","c":"United Kingdom"},"o":{"r":"NCBI","i":"ERR4667816"}}
{"p":"B.1.1.311","w":{"d":26,"y":2020,"m":9},"l":{"r":"Wales","c":"United Kingdom"},"o":{"r":"NCBI","i":"ERR4667129"}}
{"p":"B.1.177","w":{"d":7,"y":2020,"m":9},"l":{"r":"England","c":"United Kingdom"},"o":{"r":"NCBI","i":"ERR5060569"}}
{"p":"B.1.1.37","w":{"d":25,"y":2020,"m":9},"l":{"r":"Wales","c":"United Kingdom"},"o":{"r":"NCBI","i":"ERR4664339"}}
{"p":"B.1","w":{"d":13,"y":2020,"m":9},"l":{"r":"Scotland","c":"United Kingdom"},"o":{"r":"NCBI","i":"ERR4667872"}}
{"p":"B.1.1","w":{"d":6,"y":2020,"m":9},"l":{"r":"England","c":"United Kingdom"},"o":{"r":"NCBI","i":"ERR4651091"}}
{"p":"B.1.177","w":{"d":6,"y":2020,"m":9},"l":{"r":"Wales","c":"United Kingdom"},"o":{"r":"NCBI","i":"ERR4665310"}}
{"p":"B.1.1.198","w":{"d":11,"y":2020,"m":9},"l":{"r":"England","c":"United Kingdom"},"o":{"r":"NCBI","i":"ERR4652192"}}
{"p":"B.1.1.198","w":{"d":26,"y":2020,"m":9},"l":{"r":"England","c":"United Kingdom"},"o":{"r":"NCBI","i":"ERR4665148"}}
{"p":"B.1.1","w":{"d":2,"y":2020,"m":9},"l":{"r":"England","c":"United Kingdom"},"o":{"r":"NCBI","i":"ERR4646287"}}
{"p":"B.1.177","w":{"d":12,"y":2020,"m":9},"l":{"r":"Wales","c":"United Kingdom"},"o":{"r":"NCBI","i":"ERR4664440"}}
{"p":"B.1.177","w":{"d":11,"y":2020,"m":9},"l":{"r":"England","c":"United Kingdom"},"o":{"r":"NCBI","i":"ERR4651739"}}
{"p":"B.1.258.7","w":{"d":19,"y":2020,"m":9},"l":{"r":"Wales","c":"United Kingdom"},"o":{"r":"NCBI","i":"ERR4659452"}}
{"p":"B.1.177","w":{"d":3,"y":2020,"m":9},"l":{"r":"Scotland","c":"United Kingdom"},"o":{"r":"NCBI","i":"ERR5060365"}}
{"p":"B","w":{"d":1,"y":2020,"m":9},"l":{"r":"England","c":"United Kingdom"},"o":{"r":"NCBI","i":"ERR4615631"}}
{"p":"B.1.1.315","w":{"d":20,"y":2020,"m":9},"l":{"r":"England","c":"United Kingdom"},"o":{"r":"NCBI","i":"ERR4659684"}}
{"p":"B.1.1.37","w":{"d":7,"y":2020,"m":9},"l":{"r":"England","c":"United Kingdom"},"o":{"r":"NCBI","i":"ERR5060537"}}
{"p":"B.1.1","w":{"d":23,"y":2020,"m":9},"l":{"c":"United Kingdom"},"o":{"r":"NCBI","i":"ERR5061179"}}
{"p":"B.1.1.307","w":{"d":20,"y":2020,"m":9},"l":{"r":"England","c":"United Kingdom"},"o":{"r":"NCBI","i":"ERR4659712"}}
{"p":"B.1.1.51","w":{"d":12,"y":2020,"m":9},"l":{"r":"England","c":"United Kingdom"},"o":{"r":"NCBI","i":"ERR4652685"}}
{"p":"B.1.367","w":{"d":12,"y":2020,"m":9},"l":{"c":"United Kingdom"},"o":{"r":"NCBI","i":"ERR4693835"}}
{"p":"B.1.367","w":{"d":6,"y":2020,"m":9},"l":{"r":"England","c":"United Kingdom"},"o":{"r":"NCBI","i":"ERR4651072"}}
{"p":"B.1","w":{"d":4,"y":2020,"m":9},"l":{"r":"England","c":"United Kingdom"},"o":{"r":"NCBI","i":"ERR4652243"}}
{"p":"B.1.177.7","w":{"d":25,"y":2020,"m":9},"l":{"r":"Wales","c":"United Kingdom"},"o":{"r":"NCBI","i":"ERR4664524"}}
{"p":"B.1.177","w":{"d":27,"y":2020,"m":9},"l":{"r":"Wales","c":"United Kingdom"},"o":{"r":"NCBI","i":"ERR4665086"}}
{"p":"B.1.1.279","w":{"d":5,"y":2020,"m":9},"l":{"r":"England","c":"United Kingdom"},"o":{"r":"NCBI","i":"ERR4651123"}}
{"p":"B.1.258.3","w":{"d":24,"y":2020,"m":9},"l":{"r":"England","c":"United Kingdom"},"o":{"r":"NCBI","i":"ERR5061453"}}
{"p":"B.1.177","w":{"d":17,"y":2020,"m":9},"l":{"r":"England","c":"United Kingdom"},"o":{"r":"NCBI","i":"ERR4659527"}}
{"p":"B.1.177","w":{"d":27,"y":2020,"m":9},"l":{"r":"Wales","c":"United Kingdom"},"o":{"r":"NCBI","i":"ERR4666948"}}
{"p":"B.1.177","w":{"d":14,"y":2020,"m":9},"l":{"r":"Scotland","c":"United Kingdom"},"o":{"r":"NCBI","i":"ERR4667885"}}
{"p":"B.1.1","w":{"d":19,"y":2020,"m":9},"l":{"r":"England","c":"United Kingdom"},"o":{"r":"NCBI","i":"ERR4659428"}}
{"p":"B.1","w":{"d":12,"y":2020,"m":9},"l":{"r":"England","c":"United Kingdom"},"o":{"r":"NCBI","i":"ERR4763243"}}
{"p":"B.1.177.15","w":{"d":24,"y":2020,"m":9},"l":{"r":"Wales","c":"United Kingdom"},"o":{"r":"NCBI","i":"ERR4665492"}}
{"p":"B.1.177.33","w":{"d":20,"y":2020,"m":9},"l":{"r":"England","c":"United Kingdom"},"o":{"r":"NCBI","i":"ERR4681785"}}
{"p":"B.1.177","w":{"d":19,"y":2020,"m":9},"l":{"r":"England","c":"United Kingdom"},"o":{"r":"NCBI","i":"ERR4659355"}}
{"p":"B.1.177.7","w":{"d":12,"y":2020,"m":9},"l":{"r":"Wales","c":"United Kingdom"},"o":{"r":"NCBI","i":"ERR4666937"}}
{"p":"B.1.177","w":{"d":13,"y":2020,"m":9},"l":{"r":"Wales","c":"United Kingdom"},"o":{"r":"NCBI","i":"ERR4664251"}}
{"p":"B.1","w":{"d":11,"y":2020,"m":9},"l":{"r":"England","c":"United Kingdom"},"o":{"r":"NCBI","i":"ERR4652262"}}
{"p":"B.1.177","w":{"d":22,"y":2020,"m":9},"l":{"r":"Wales","c":"United Kingdom"},"o":{"r":"NCBI","i":"ERR4664390"}}
{"p":"B.1.177.7","w":{"d":6,"y":2020,"m":9},"l":{"r":"Wales","c":"United Kingdom"},"o":{"r":"NCBI","i":"ERR4604878"}}
{"p":"B.1.177","w":{"d":13,"y":2020,"m":9},"l":{"r":"Wales","c":"United Kingdom"},"o":{"r":"NCBI","i":"ERR4665928"}}
{"p":"B.1.177.15","w":{"d":26,"y":2020,"m":9},"l":{"r":"Wales","c":"United Kingdom"},"o":{"r":"NCBI","i":"ERR4665723"}}
{"p":"B.1.177.7","w":{"d":13,"y":2020,"m":9},"l":{"r":"Wales","c":"United Kingdom"},"o":{"r":"NCBI","i":"ERR4664190"}}
{"p":"B.1.177.7","w":{"d":23,"y":2020,"m":9},"l":{"r":"Wales","c":"United Kingdom"},"o":{"r":"NCBI","i":"ERR4665485"}}
{"p":"B.1.177.15","w":{"d":25,"y":2020,"m":9},"l":{"r":"Wales","c":"United Kingdom"},"o":{"r":"NCBI","i":"ERR4665554"}}
{"p":"B.1.177.7","w":{"d":5,"y":2020,"m":9},"l":{"r":"Wales","c":"United Kingdom"},"o":{"r":"NCBI","i":"ERR4604891"}}
{"p":"B.1.177.17","w":{"d":18,"y":2020,"m":9},"l":{"r":"England","c":"United Kingdom"},"o":{"r":"NCBI","i":"ERR5061939"}}
{"p":"B.1.610","w":{"d":5,"y":2020,"m":9},"l":{"r":"England","c":"United Kingdom"},"o":{"r":"NCBI","i":"ERR4651024"}}
{"p":"B.1.177","w":{"d":7,"y":2020,"m":9},"l":{"r":"England","c":"United Kingdom"},"o":{"r":"NCBI","i":"ERR4651105"}}
{"p":"B.1.258.7","w":{"d":23,"y":2020,"m":9},"l":{"r":"Wales","c":"United Kingdom"},"o":{"r":"NCBI","i":"ERR4665550"}}
{"p":"B.1.177.7","w":{"d":25,"y":2020,"m":9},"l":{"r":"Wales","c":"United Kingdom"},"o":{"r":"NCBI","i":"ERR4664826"}}
{"p":"B.1.177","w":{"d":5,"y":2020,"m":9},"l":{"r":"England","c":"United Kingdom"},"o":{"r":"NCBI","i":"ERR4651177"}}
{"p":"B.1.1.315","w":{"d":10,"y":2020,"m":9},"l":{"r":"Scotland","c":"United Kingdom"},"o":{"r":"NCBI","i":"ERR4651270"}}
{"p":"B.1.1","w":{"d":13,"y":2020,"m":9},"l":{"c":"United Kingdom"},"o":{"r":"NCBI","i":"ERR4693829"}}
{"p":"B.1.177","w":{"d":30,"y":2020,"m":9},"l":{"r":"Wales","c":"United Kingdom"},"o":{"r":"NCBI","i":"ERR4692824"}}
{"p":"B.1.1.307","w":{"d":30,"y":2020,"m":9},"l":{"r":"England","c":"United Kingdom"},"o":{"r":"NCBI","i":"ERR4693222"}}
{"p":"B.1.1","w":{"d":6,"y":2020,"m":9},"l":{"r":"England","c":"United Kingdom"},"o":{"r":"NCBI","i":"ERR4686938"}}
{"p":"B.1.177.3","w":{"d":27,"y":2020,"m":9},"l":{"r":"Wales","c":"United Kingdom"},"o":{"r":"NCBI","i":"ERR4671507"}}
{"p":"B.1.177","w":{"d":19,"y":2020,"m":9},"l":{"r":"Wales","c":"United Kingdom"},"o":{"r":"NCBI","i":"ERR4659368"}}
{"p":"B.1.177.15","w":{"d":24,"y":2020,"m":9},"l":{"r":"Wales","c":"United Kingdom"},"o":{"r":"NCBI","i":"ERR4664396"}}
{"p":"B.1.258.7","w":{"d":12,"y":2020,"m":9},"l":{"r":"Wales","c":"United Kingdom"},"o":{"r":"NCBI","i":"ERR4667293"}}
{"p":"B.1.1.305","w":{"d":7,"y":2020,"m":9},"l":{"r":"England","c":"United Kingdom"},"o":{"r":"NCBI","i":"ERR4651064"}}
{"p":"B.1.177.56","w":{"d":30,"y":2020,"m":9},"l":{"r":"Wales","c":"United Kingdom"},"o":{"r":"NCBI","i":"ERR4692930"}}
{"p":"B.1.177","w":{"d":13,"y":2020,"m":9},"l":{"r":"Wales","c":"United Kingdom"},"o":{"r":"NCBI","i":"ERR4665072"}}
{"p":"B.1.177","w":{"d":28,"y":2020,"m":9},"l":{"r":"Wales","c":"United Kingdom"},"o":{"r":"NCBI","i":"ERR4671794"}}
{"p":"B.1.1.315","w":{"d":19,"y":2020,"m":9},"l":{"r":"England","c":"United Kingdom"},"o":{"r":"NCBI","i":"ERR4659464"}}
{"p":"B.1.177","w":{"d":17,"y":2020,"m":9},"l":{"r":"England","c":"United Kingdom"},"o":{"r":"NCBI","i":"ERR4659513"}}
{"p":"B.1.177.3","w":{"d":24,"y":2020,"m":9},"l":{"r":"Wales","c":"United Kingdom"},"o":{"r":"NCBI","i":"ERR4664409"}}
{"p":"B.1.177","w":{"d":26,"y":2020,"m":9},"l":{"r":"Wales","c":"United Kingdom"},"o":{"r":"NCBI","i":"ERR4664494"}}
{"p":"B.1.177.7","w":{"d":30,"y":2020,"m":9},"l":{"r":"Wales","c":"United Kingdom"},"o":{"r":"NCBI","i":"ERR4692622"}}
{"p":"B.1.1","w":{"d":11,"y":2020,"m":9},"l":{"r":"England","c":"United Kingdom"},"o":{"r":"NCBI","i":"ERR4652216"}}
{"p":"B.1.177","w":{"d":15,"y":2020,"m":9},"l":{"r":"England","c":"United Kingdom"},"o":{"r":"NCBI","i":"ERR4653217"}}
{"p":"B","w":{"d":19,"y":2020,"m":9},"l":{"r":"England","c":"United Kingdom"},"o":{"r":"NCBI","i":"ERR4659424"}}
{"p":"B.1.1.37","w":{"d":29,"y":2020,"m":9},"l":{"r":"England","c":"United Kingdom"},"o":{"r":"NCBI","i":"ERR4688938"}}
{"p":"B.1.177.7","w":{"d":13,"y":2020,"m":9},"l":{"r":"Wales","c":"United Kingdom"},"o":{"r":"NCBI","i":"ERR4664395"}}
{"p":"B.1.177","w":{"d":26,"y":2020,"m":9},"l":{"r":"Wales","c":"United Kingdom"},"o":{"r":"NCBI","i":"ERR4666010"}}
{"p":"B.1.1","w":{"d":7,"y":2020,"m":9},"l":{"r":"England","c":"United Kingdom"},"o":{"r":"NCBI","i":"ERR4651061"}}
{"p":"B.1","w":{"d":10,"y":2020,"m":9},"l":{"r":"England","c":"United Kingdom"},"o":{"r":"NCBI","i":"ERR4651272"}}
{"p":"B.1.177.57","w":{"d":10,"y":2020,"m":9},"l":{"r":"Scotland","c":"United Kingdom"},"o":{"r":"NCBI","i":"ERR4651183"}}
{"p":"B.1.177","w":{"d":30,"y":2020,"m":9},"l":{"r":"Wales","c":"United Kingdom"},"o":{"r":"NCBI","i":"ERR4692792"}}
{"p":"AK.1","w":{"d":7,"y":2020,"m":9},"l":{"r":"England","c":"United Kingdom"},"o":{"r":"NCBI","i":"ERR5062126"}}
{"p":"B.1.177.7","w":{"d":14,"y":2020,"m":9},"l":{"r":"Wales","c":"United Kingdom"},"o":{"r":"NCBI","i":"ERR4660011"}}
{"p":"B.1.36.17","w":{"d":7,"y":2020,"m":9},"l":{"r":"England","c":"United Kingdom"},"o":{"r":"NCBI","i":"ERR4651090"}}
{"p":"B.1.1.315","w":{"d":4,"y":2020,"m":9},"l":{"r":"England","c":"United Kingdom"},"o":{"r":"NCBI","i":"ERR4652241"}}
{"p":"B.1.258.7","w":{"d":25,"y":2020,"m":9},"l":{"r":"Wales","c":"United Kingdom"},"o":{"r":"NCBI","i":"ERR4664834"}}
{"p":"B.1.177.56","w":{"d":23,"y":2020,"m":9},"l":{"r":"Wales","c":"United Kingdom"},"o":{"r":"NCBI","i":"ERR4665441"}}
{"p":"B.1.177","w":{"d":24,"y":2020,"m":9},"l":{"r":"England","c":"United Kingdom"},"o":{"r":"NCBI","i":"ERR5061917"}}
{"p":"B.1.160","w":{"d":2,"y":2020,"m":9},"l":{"r":"England","c":"United Kingdom"},"o":{"r":"NCBI","i":"ERR5061195"}}
{"p":"B.1.177","w":{"d":26,"y":2020,"m":9},"l":{"r":"Wales","c":"United Kingdom"},"o":{"r":"NCBI","i":"ERR4671662"}}
{"p":"B.1.1.315","w":{"d":20,"y":2020,"m":9},"l":{"r":"Wales","c":"United Kingdom"},"o":{"r":"NCBI","i":"ERR4659714"}}
{"p":"B.1.177.56","w":{"d":13,"y":2020,"m":9},"l":{"r":"Wales","c":"United Kingdom"},"o":{"r":"NCBI","i":"ERR4666841"}}
{"p":"B.1.258.3","w":{"d":30,"y":2020,"m":9},"l":{"r":"Wales","c":"United Kingdom"},"o":{"r":"NCBI","i":"ERR4692489"}}
{"p":"B.1.177","w":{"d":26,"y":2020,"m":9},"l":{"r":"Wales","c":"United Kingdom"},"o":{"r":"NCBI","i":"ERR4667270"}}
{"p":"B.1.258.6","w":{"d":20,"y":2020,"m":9},"l":{"r":"England","c":"United Kingdom"},"o":{"r":"NCBI","i":"ERR4681789"}}
{"p":"B.1.177","w":{"d":24,"y":2020,"m":9},"l":{"r":"Wales","c":"United Kingdom"},"o":{"r":"NCBI","i":"ERR4665477"}}
{"p":"B.1.177","w":{"d":23,"y":2020,"m":9},"l":{"r":"Wales","c":"United Kingdom"},"o":{"r":"NCBI","i":"ERR4664208"}}
{"p":"B.1.177.7","w":{"d":6,"y":2020,"m":9},"l":{"r":"Wales","c":"United Kingdom"},"o":{"r":"NCBI","i":"ERR4660025"}}
{"p":"B.1.177","w":{"d":28,"y":2020,"m":9},"l":{"r":"England","c":"United Kingdom"},"o":{"r":"NCBI","i":"ERR4688884"}}
{"p":"B.1.177","w":{"d":23,"y":2020,"m":9},"l":{"r":"Wales","c":"United Kingdom"},"o":{"r":"NCBI","i":"ERR4666897"}}
{"p":"B.1.1.37","w":{"d":24,"y":2020,"m":9},"l":{"r":"Wales","c":"United Kingdom"},"o":{"r":"NCBI","i":"ERR4664414"}}
{"p":"B.1.177.7","w":{"d":22,"y":2020,"m":9},"l":{"r":"Wales","c":"United Kingdom"},"o":{"r":"NCBI","i":"ERR4664602"}}
{"p":"B.1.177.7","w":{"d":25,"y":2020,"m":9},"l":{"r":"Wales","c":"United Kingdom"},"o":{"r":"NCBI","i":"ERR4664212"}}
{"p":"B.1.177.15","w":{"d":25,"y":2020,"m":9},"l":{"r":"Wales","c":"United Kingdom"},"o":{"r":"NCBI","i":"ERR4665362"}}
{"p":"B.1.1.37","w":{"d":29,"y":2020,"m":9},"l":{"r":"England","c":"United Kingdom"},"o":{"r":"NCBI","i":"ERR4688930"}}
{"p":"B.1.177","w":{"d":4,"y":2020,"m":9},"l":{"r":"Scotland","c":"United Kingdom"},"o":{"r":"NCBI","i":"ERR4660048"}}
{"p":"B.1.177.7","w":{"d":22,"y":2020,"m":9},"l":{"r":"Wales","c":"United Kingdom"},"o":{"r":"NCBI","i":"ERR4664546"}}
{"p":"B.1.177","w":{"d":19,"y":2020,"m":9},"l":{"r":"England","c":"United Kingdom"},"o":{"r":"NCBI","i":"ERR4659422"}}
{"p":"B.1.177","w":{"d":30,"y":2020,"m":9},"l":{"r":"Wales","c":"United Kingdom"},"o":{"r":"NCBI","i":"ERR4692906"}}
{"p":"B.1.1","w":{"d":14,"y":2020,"m":9},"l":{"r":"England","c":"United Kingdom"},"o":{"r":"NCBI","i":"ERR5060665"}}
{"p":"B.1.177.7","w":{"d":30,"y":2020,"m":9},"l":{"r":"Wales","c":"United Kingdom"},"o":{"r":"NCBI","i":"ERR4693146"}}
{"p":"B.1.177.15","w":{"d":13,"y":2020,"m":9},"l":{"r":"Wales","c":"United Kingdom"},"o":{"r":"NCBI","i":"ERR4664576"}}
{"p":"B.1.177.7","w":{"d":23,"y":2020,"m":9},"l":{"r":"Wales","c":"United Kingdom"},"o":{"r":"NCBI","i":"ERR4665423"}}
{"p":"B.1","w":{"d":2,"y":2020,"m":9},"l":{"r":"England","c":"United Kingdom"},"o":{"r":"NCBI","i":"ERR4646271"}}
{"p":"B.1.177.15","w":{"d":25,"y":2020,"m":9},"l":{"r":"Wales","c":"United Kingdom"},"o":{"r":"NCBI","i":"ERR4664283"}}
{"p":"B.1.177","w":{"d":13,"y":2020,"m":9},"l":{"r":"England","c":"United Kingdom"},"o":{"r":"NCBI","i":"ERR4652902"}}
{"p":"B.1.1.279","w":{"d":26,"y":2020,"m":9},"l":{"r":"England","c":"United Kingdom"},"o":{"r":"NCBI","i":"ERR5061486"}}
{"p":"B.1","w":{"d":10,"y":2020,"m":9},"l":{"r":"Scotland","c":"United Kingdom"},"o":{"r":"NCBI","i":"ERR4651274"}}
{"p":"B.1.408","w":{"d":11,"y":2020,"m":9},"l":{"r":"England","c":"United Kingdom"},"o":{"r":"NCBI","i":"ERR4651809"}}
{"p":"B.1.1","w":{"d":1,"y":2020,"m":9},"l":{"r":"England","c":"United Kingdom"},"o":{"r":"NCBI","i":"ERR4615648"}}
{"p":"B.1.160","w":{"d":22,"y":2020,"m":9},"l":{"r":"England","c":"United Kingdom"},"o":{"r":"NCBI","i":"ERR4659726"}}
{"p":"B.1.1.37","w":{"d":29,"y":2020,"m":9},"l":{"r":"England","c":"United Kingdom"},"o":{"r":"NCBI","i":"ERR4688935"}}
{"p":"B.1.1.307","w":{"d":24,"y":2020,"m":9},"l":{"r":"England","c":"United Kingdom"},"o":{"r":"NCBI","i":"ERR5062050"}}
{"p":"B.1.177","w":{"d":12,"y":2020,"m":9},"l":{"r":"England","c":"United Kingdom"},"o":{"r":"NCBI","i":"ERR4763241"}}
{"p":"B.1.258.3","w":{"d":5,"y":2020,"m":9},"l":{"r":"England","c":"United Kingdom"},"o":{"r":"NCBI","i":"ERR4651136"}}
{"p":"B.1.1.198","w":{"d":13,"y":2020,"m":9},"l":{"r":"England","c":"United Kingdom"},"o":{"r":"NCBI","i":"ERR4665899"}}
{"p":"B.1.1.307","w":{"d":18,"y":2020,"m":9},"l":{"r":"England","c":"United Kingdom"},"o":{"r":"NCBI","i":"ERR5060838"}}
{"p":"B.1.177","w":{"d":24,"y":2020,"m":9},"l":{"r":"England","c":"United Kingdom"},"o":{"r":"NCBI","i":"ERR5061767"}}
{"p":"B.1.177.7","w":{"d":23,"y":2020,"m":9},"l":{"r":"Wales","c":"United Kingdom"},"o":{"r":"NCBI","i":"ERR4664788"}}
{"p":"B.1.177","w":{"d":10,"y":2020,"m":9},"l":{"r":"Scotland","c":"United Kingdom"},"o":{"r":"NCBI","i":"ERR4651031"}}
{"p":"B.1.177.7","w":{"d":20,"y":2020,"m":9},"l":{"r":"Wales","c":"United Kingdom"},"o":{"r":"NCBI","i":"ERR4659708"}}
{"p":"B.1.177","w":{"d":12,"y":2020,"m":9},"l":{"r":"England","c":"United Kingdom"},"o":{"r":"NCBI","i":"ERR4652866"}}
{"p":"B.1.177.7","w":{"d":6,"y":2020,"m":9},"l":{"r":"Wales","c":"United Kingdom"},"o":{"r":"NCBI","i":"ERR4604926"}}
{"p":"B.1","w":{"d":22,"y":2020,"m":9},"l":{"r":"England","c":"United Kingdom"},"o":{"r":"NCBI","i":"ERR4659728"}}
{"p":"B.1.1","w":{"d":7,"y":2020,"m":9},"l":{"r":"England","c":"United Kingdom"},"o":{"r":"NCBI","i":"ERR4651104"}}
{"p":"B.1.1.310","w":{"d":13,"y":2020,"m":9},"l":{"c":"United Kingdom"},"o":{"r":"NCBI","i":"ERR4693668"}}
{"p":"B.1.177","w":{"d":30,"y":2020,"m":9},"l":{"r":"Wales","c":"United Kingdom"},"o":{"r":"NCBI","i":"ERR4692904"}}
{"p":"B.1","w":{"d":11,"y":2020,"m":9},"l":{"r":"England","c":"United Kingdom"},"o":{"r":"NCBI","i":"ERR4652279"}}
{"p":"B.1.177","w":{"d":28,"y":2020,"m":9},"l":{"r":"England","c":"United Kingdom"},"o":{"r":"NCBI","i":"ERR4688874"}}
{"p":"B.1.177","w":{"d":14,"y":2020,"m":9},"l":{"r":"Scotland","c":"United Kingdom"},"o":{"r":"NCBI","i":"ERR4667886"}}
{"p":"B.1.1.198","w":{"d":25,"y":2020,"m":9},"l":{"r":"England","c":"United Kingdom"},"o":{"r":"NCBI","i":"ERR4664646"}}
{"p":"B.1.1","w":{"d":27,"y":2020,"m":9},"l":{"r":"England","c":"United Kingdom"},"o":{"r":"NCBI","i":"ERR4687907"}}
{"p":"B.1.1.37","w":{"d":29,"y":2020,"m":9},"l":{"r":"England","c":"United Kingdom"},"o":{"r":"NCBI","i":"ERR4688922"}}
{"p":"B.1.1.301","w":{"d":9,"y":2020,"m":9},"l":{"r":"England","c":"United Kingdom"},"o":{"r":"NCBI","i":"ERR5061107"}}
{"p":"B.1.177.56","w":{"d":22,"y":2020,"m":9},"l":{"r":"Wales","c":"United Kingdom"},"o":{"r":"NCBI","i":"ERR4664260"}}
{"p":"B.1.177.56","w":{"d":29,"y":2020,"m":9},"l":{"r":"England","c":"United Kingdom"},"o":{"r":"NCBI","i":"ERR4688895"}}
{"p":"B.1.177","w":{"d":30,"y":2020,"m":9},"l":{"r":"Wales","c":"United Kingdom"},"o":{"r":"NCBI","i":"ERR4692639"}}
{"p":"B.1.258.7","w":{"d":24,"y":2020,"m":9},"l":{"r":"Wales","c":"United Kingdom"},"o":{"r":"NCBI","i":"ERR4664910"}}
{"p":"B.1.177","w":{"d":14,"y":2020,"m":9},"l":{"r":"Scotland","c":"United Kingdom"},"o":{"r":"NCBI","i":"ERR4667855"}}
{"p":"B.1.177","w":{"d":26,"y":2020,"m":9},"l":{"r":"Wales","c":"United Kingdom"},"o":{"r":"NCBI","i":"ERR4664726"}}
{"p":"B.1.177","w":{"d":22,"y":2020,"m":9},"l":{"r":"Wales","c":"United Kingdom"},"o":{"r":"NCBI","i":"ERR4664403"}}
{"p":"B.1","w":{"d":13,"y":2020,"m":9},"l":{"r":"England","c":"United Kingdom"},"o":{"r":"NCBI","i":"ERR4653147"}}
{"p":"B.1.177","w":{"d":19,"y":2020,"m":9},"l":{"r":"Wales","c":"United Kingdom"},"o":{"r":"NCBI","i":"ERR4659455"}}
{"p":"B.1.1.37","w":{"d":12,"y":2020,"m":9},"l":{"r":"England","c":"United Kingdom"},"o":{"r":"NCBI","i":"ERR4652848"}}
{"p":"B.1.36.17","w":{"d":19,"y":2020,"m":9},"l":{"r":"England","c":"United Kingdom"},"o":{"r":"NCBI","i":"ERR4659458"}}
{"p":"B.1.1","w":{"d":30,"y":2020,"m":9},"l":{"r":"Wales","c":"United Kingdom"},"o":{"r":"NCBI","i":"ERR4692995"}}
{"p":"B.1.177.7","w":{"d":5,"y":2020,"m":9},"l":{"r":"Wales","c":"United Kingdom"},"o":{"r":"NCBI","i":"ERR4604903"}}
{"p":"B.1.1.315","w":{"d":20,"y":2020,"m":9},"l":{"r":"Wales","c":"United Kingdom"},"o":{"r":"NCBI","i":"ERR4681748"}}
{"p":"B.1.177","w":{"d":11,"y":2020,"m":9},"l":{"r":"Wales","c":"United Kingdom"},"o":{"r":"NCBI","i":"ERR4652195"}}
{"p":"B.1.177","w":{"d":13,"y":2020,"m":9},"l":{"r":"Wales","c":"United Kingdom"},"o":{"r":"NCBI","i":"ERR4667142"}}
{"p":"B.1.1.37","w":{"d":14,"y":2020,"m":9},"l":{"r":"Scotland","c":"United Kingdom"},"o":{"r":"NCBI","i":"ERR4667871"}}
{"p":"AK.1","w":{"d":20,"y":2020,"m":9},"l":{"r":"England","c":"United Kingdom"},"o":{"r":"NCBI","i":"ERR4659665"}}
{"p":"AD.2","w":{"d":6,"y":2020,"m":9},"l":{"r":"Wales","c":"United Kingdom"},"o":{"r":"NCBI","i":"ERR4665205"}}
{"p":"AD.2","w":{"d":13,"y":2020,"m":9},"l":{"r":"England","c":"United Kingdom"},"o":{"r":"NCBI","i":"ERR4653125"}}
{"p":"B.1.177.7","w":{"d":26,"y":2020,"m":9},"l":{"r":"Wales","c":"United Kingdom"},"o":{"r":"NCBI","i":"ERR4665729"}}
{"p":"B.1.177.7","w":{"d":12,"y":2020,"m":9},"l":{"r":"Wales","c":"United Kingdom"},"o":{"r":"NCBI","i":"ERR4667115"}}
{"p":"B.1.258.7","w":{"d":28,"y":2020,"m":9},"l":{"r":"Wales","c":"United Kingdom"},"o":{"r":"NCBI","i":"ERR4671272"}}
{"p":"B.1.1.37","w":{"d":27,"y":2020,"m":9},"l":{"r":"England","c":"United Kingdom"},"o":{"r":"NCBI","i":"ERR5061888"}}
{"p":"AD.2","w":{"d":11,"y":2020,"m":9},"l":{"r":"England","c":"United Kingdom"},"o":{"r":"NCBI","i":"ERR4652374"}}
{"p":"B.1.177","w":{"d":27,"y":2020,"m":9},"l":{"r":"Wales","c":"United Kingdom"},"o":{"r":"NCBI","i":"ERR4671469"}}
{"p":"B.1.36.17","w":{"d":13,"y":2020,"m":9},"l":{"r":"England","c":"United Kingdom"},"o":{"r":"NCBI","i":"ERR4687276"}}
{"p":"B.1.177.7","w":{"d":25,"y":2020,"m":9},"l":{"r":"Wales","c":"United Kingdom"},"o":{"r":"NCBI","i":"ERR4664700"}}
{"p":"B.1.177.20","w":{"d":19,"y":2020,"m":9},"l":{"r":"England","c":"United Kingdom"},"o":{"r":"NCBI","i":"ERR4659363"}}
{"p":"B.1.177","w":{"d":28,"y":2020,"m":9},"l":{"r":"England","c":"United Kingdom"},"o":{"r":"NCBI","i":"ERR4688903"}}
{"p":"B.1.177","w":{"d":14,"y":2020,"m":9},"l":{"r":"Scotland","c":"United Kingdom"},"o":{"r":"NCBI","i":"ERR4667854"}}
{"p":"B.1.177","w":{"d":10,"y":2020,"m":9},"l":{"r":"Scotland","c":"United Kingdom"},"o":{"r":"NCBI","i":"ERR4651029"}}
{"p":"B.1","w":{"d":29,"y":2020,"m":9},"l":{"r":"England","c":"United Kingdom"},"o":{"r":"NCBI","i":"ERR4688941"}}
{"p":"B.1.1.315","w":{"d":19,"y":2020,"m":9},"l":{"r":"England","c":"United Kingdom"},"o":{"r":"NCBI","i":"ERR4659351"}}
{"p":"B.1.177.7","w":{"d":12,"y":2020,"m":9},"l":{"r":"Wales","c":"United Kingdom"},"o":{"r":"NCBI","i":"ERR4664504"}}
{"p":"B.1.258","w":{"d":23,"y":2020,"m":9},"l":{"r":"Wales","c":"United Kingdom"},"o":{"r":"NCBI","i":"ERR4666650"}}
{"p":"B.1.1.37","w":{"d":25,"y":2020,"m":9},"l":{"r":"Wales","c":"United Kingdom"},"o":{"r":"NCBI","i":"ERR4665098"}}
{"p":"AD.2","w":{"d":27,"y":2020,"m":9},"l":{"r":"Wales","c":"United Kingdom"},"o":{"r":"NCBI","i":"ERR4671886"}}
{"p":"B.1.177","w":{"d":30,"y":2020,"m":9},"l":{"r":"Wales","c":"United Kingdom"},"o":{"r":"NCBI","i":"ERR4692987"}}
{"p":"B.1.177.57","w":{"d":7,"y":2020,"m":9},"l":{"r":"England","c":"United Kingdom"},"o":{"r":"NCBI","i":"ERR4651067"}}
{"p":"B.1.177","w":{"d":13,"y":2020,"m":9},"l":{"r":"Wales","c":"United Kingdom"},"o":{"r":"NCBI","i":"ERR4664526"}}
{"p":"B.1.1.198","w":{"d":29,"y":2020,"m":9},"l":{"r":"England","c":"United Kingdom"},"o":{"r":"NCBI","i":"ERR4671513"}}
{"p":"B.1.1.301","w":{"d":1,"y":2020,"m":9},"l":{"r":"England","c":"United Kingdom"},"o":{"r":"NCBI","i":"ERR4615652"}}
{"p":"B.1.1.37","w":{"d":29,"y":2020,"m":9},"l":{"r":"England","c":"United Kingdom"},"o":{"r":"NCBI","i":"ERR4688928"}}
{"p":"B.1.177.57","w":{"d":28,"y":2020,"m":9},"l":{"r":"England","c":"United Kingdom"},"o":{"r":"NCBI","i":"ERR4688876"}}
{"p":"B.1.1.286","w":{"d":4,"y":2020,"m":9},"l":{"r":"Wales","c":"United Kingdom"},"o":{"r":"NCBI","i":"ERR4660015"}}
{"p":"B.1.177","w":{"d":24,"y":2020,"m":9},"l":{"r":"Wales","c":"United Kingdom"},"o":{"r":"NCBI","i":"ERR4665103"}}
{"p":"B.1.177.7","w":{"d":12,"y":2020,"m":9},"l":{"r":"Wales","c":"United Kingdom"},"o":{"r":"NCBI","i":"ERR4665050"}}
{"p":"B.1.1.311","w":{"d":27,"y":2020,"m":9},"l":{"r":"England","c":"United Kingdom"},"o":{"r":"NCBI","i":"ERR4687921"}}
{"p":"B.1.1.279","w":{"d":27,"y":2020,"m":9},"l":{"r":"England","c":"United Kingdom"},"o":{"r":"NCBI","i":"ERR4687908"}}
{"p":"B.1.177.7","w":{"d":27,"y":2020,"m":9},"l":{"r":"Wales","c":"United Kingdom"},"o":{"r":"NCBI","i":"ERR4665285"}}
{"p":"B.1.1.307","w":{"d":11,"y":2020,"m":9},"l":{"r":"England","c":"United Kingdom"},"o":{"r":"NCBI","i":"ERR4651745"}}
{"p":"B.1.177.57","w":{"d":28,"y":2020,"m":9},"l":{"r":"England","c":"United Kingdom"},"o":{"r":"NCBI","i":"ERR4688899"}}
{"p":"B.1.177.7","w":{"d":27,"y":2020,"m":9},"l":{"r":"Wales","c":"United Kingdom"},"o":{"r":"NCBI","i":"ERR4664947"}}
{"p":"B.1.177","w":{"d":26,"y":2020,"m":9},"l":{"r":"Wales","c":"United Kingdom"},"o":{"r":"NCBI","i":"ERR4692471"}}
{"p":"B.1.177","w":{"d":30,"y":2020,"m":9},"l":{"r":"Wales","c":"United Kingdom"},"o":{"r":"NCBI","i":"ERR4692516"}}
{"p":"C.35","w":{"d":6,"y":2020,"m":9},"l":{"r":"England","c":"United Kingdom"},"o":{"r":"NCBI","i":"ERR4652385"}}
{"p":"B.1.1.198","w":{"d":27,"y":2020,"m":9},"l":{"r":"England","c":"United Kingdom"},"o":{"r":"NCBI","i":"ERR4671392"}}
{"p":"B.1.177","w":{"d":13,"y":2020,"m":9},"l":{"r":"Wales","c":"United Kingdom"},"o":{"r":"NCBI","i":"ERR4665544"}}
{"p":"B.1.36","w":{"d":20,"y":2020,"m":9},"l":{"r":"England","c":"United Kingdom"},"o":{"r":"NCBI","i":"ERR4681772"}}
{"p":"B.1.1.301","w":{"d":28,"y":2020,"m":9},"l":{"r":"England","c":"United Kingdom"},"o":{"r":"NCBI","i":"ERR4688902"}}
{"p":"B.1.177.7","w":{"d":6,"y":2020,"m":9},"l":{"r":"Wales","c":"United Kingdom"},"o":{"r":"NCBI","i":"ERR4665061"}}
{"p":"B.1.1.37","w":{"d":1,"y":2020,"m":9},"l":{"r":"England","c":"United Kingdom"},"o":{"r":"NCBI","i":"ERR4615635"}}
{"p":"B.1.177","w":{"d":26,"y":2020,"m":9},"l":{"r":"Wales","c":"United Kingdom"},"o":{"r":"NCBI","i":"ERR4667432"}}
{"p":"B.1.177","w":{"d":10,"y":2020,"m":9},"l":{"r":"Scotland","c":"United Kingdom"},"o":{"r":"NCBI","i":"ERR4651027"}}
{"p":"B.1.177","w":{"d":30,"y":2020,"m":9},"l":{"r":"Wales","c":"United Kingdom"},"o":{"r":"NCBI","i":"ERR4692486"}}
{"p":"B.1.177","w":{"d":5,"y":2020,"m":9},"l":{"r":"England","c":"United Kingdom"},"o":{"r":"NCBI","i":"ERR4651175"}}
{"p":"B.1.1.315","w":{"d":28,"y":2020,"m":9},"l":{"r":"England","c":"United Kingdom"},"o":{"r":"NCBI","i":"ERR4688897"}}
{"p":"B.1.258","w":{"d":3,"y":2020,"m":9},"l":{"r":"England","c":"United Kingdom"},"o":{"r":"NCBI","i":"ERR5062168"}}
{"p":"B.1.1","w":{"d":10,"y":2020,"m":9},"l":{"r":"England","c":"United Kingdom"},"o":{"r":"NCBI","i":"ERR4651170"}}
{"p":"B.1.177.33","w":{"d":20,"y":2020,"m":9},"l":{"r":"England","c":"United Kingdom"},"o":{"r":"NCBI","i":"ERR4681783"}}
{"p":"B.1.177.7","w":{"d":6,"y":2020,"m":9},"l":{"r":"Wales","c":"United Kingdom"},"o":{"r":"NCBI","i":"ERR4665578"}}
{"p":"B.1.177.81","w":{"d":8,"y":2020,"m":9},"l":{"r":"England","c":"United Kingdom"},"o":{"r":"NCBI","i":"ERR5062490"}}
{"p":"B.1.177.7","w":{"d":12,"y":2020,"m":9},"l":{"r":"Wales","c":"United Kingdom"},"o":{"r":"NCBI","i":"ERR4664796"}}
{"p":"B.1.1.307","w":{"d":11,"y":2020,"m":9},"l":{"r":"England","c":"United Kingdom"},"o":{"r":"NCBI","i":"ERR4651747"}}
{"p":"B.1.177","w":{"d":26,"y":2020,"m":9},"l":{"r":"Wales","c":"United Kingdom"},"o":{"r":"NCBI","i":"ERR4665599"}}
{"p":"B.1.177","w":{"d":26,"y":2020,"m":9},"l":{"r":"Wales","c":"United Kingdom"},"o":{"r":"NCBI","i":"ERR4671472"}}
{"p":"B.1.1.37","w":{"d":23,"y":2020,"m":9},"l":{"r":"Wales","c":"United Kingdom"},"o":{"r":"NCBI","i":"ERR4664259"}}
{"p":"B.1.1.161","w":{"d":27,"y":2020,"m":9},"l":{"r":"England","c":"United Kingdom"},"o":{"r":"NCBI","i":"ERR4687920"}}
{"p":"B.1.177","w":{"d":27,"y":2020,"m":9},"l":{"r":"Wales","c":"United Kingdom"},"o":{"r":"NCBI","i":"ERR4664467"}}
{"p":"B.1.177","w":{"d":10,"y":2020,"m":9},"l":{"r":"Scotland","c":"United Kingdom"},"o":{"r":"NCBI","i":"ERR4651025"}}
{"p":"B.1.177","w":{"d":12,"y":2020,"m":9},"l":{"r":"England","c":"United Kingdom"},"o":{"r":"NCBI","i":"ERR4652670"}}
{"p":"B.1.177.7","w":{"d":10,"y":2020,"m":9},"l":{"r":"Wales","c":"United Kingdom"},"o":{"r":"NCBI","i":"ERR5061794"}}
{"p":"B.1","w":{"d":7,"y":2020,"m":9},"l":{"r":"Scotland","c":"United Kingdom"},"o":{"r":"NCBI","i":"ERR4651097"}}
{"p":"B.1.1","w":{"d":11,"y":2020,"m":9},"l":{"r":"England","c":"United Kingdom"},"o":{"r":"NCBI","i":"ERR4651811"}}
{"p":"B.1.177","w":{"d":27,"y":2020,"m":9},"l":{"r":"Wales","c":"United Kingdom"},"o":{"r":"NCBI","i":"ERR4664407"}}
{"p":"B.1.177.7","w":{"d":26,"y":2020,"m":9},"l":{"r":"Wales","c":"United Kingdom"},"o":{"r":"NCBI","i":"ERR4664412"}}
{"p":"B.1.177","w":{"d":10,"y":2020,"m":9},"l":{"r":"Scotland","c":"United Kingdom"},"o":{"r":"NCBI","i":"ERR4651168"}}
{"p":"B.1.177.7","w":{"d":30,"y":2020,"m":9},"l":{"r":"Wales","c":"United Kingdom"},"o":{"r":"NCBI","i":"ERR4692983"}}
{"p":"B.1.177.7","w":{"d":27,"y":2020,"m":9},"l":{"r":"Wales","c":"United Kingdom"},"o":{"r":"NCBI","i":"ERR4671348"}}
{"p":"B.1.1.37","w":{"d":19,"y":2020,"m":9},"l":{"r":"England","c":"United Kingdom"},"o":{"r":"NCBI","i":"ERR4659419"}}
{"p":"B.1.177","w":{"d":18,"y":2020,"m":9},"l":{"r":"England","c":"United Kingdom"},"o":{"r":"NCBI","i":"ERR5062218"}}
{"p":"B.1.177","w":{"d":9,"y":2020,"m":9},"l":{"r":"Scotland","c":"United Kingdom"},"o":{"r":"NCBI","i":"ERR5061901"}}
{"p":"B.1.177","w":{"d":27,"y":2020,"m":9},"l":{"r":"Wales","c":"United Kingdom"},"o":{"r":"NCBI","i":"ERR4693198"}}
{"p":"B.1.177","w":{"d":23,"y":2020,"m":9},"l":{"r":"Wales","c":"United Kingdom"},"o":{"r":"NCBI","i":"ERR4666657"}}
{"p":"B.1.36.2","w":{"d":27,"y":2020,"m":9},"l":{"r":"England","c":"United Kingdom"},"o":{"r":"NCBI","i":"ERR4671339"}}
{"p":"B.1.177.7","w":{"d":24,"y":2020,"m":9},"l":{"r":"Wales","c":"United Kingdom"},"o":{"r":"NCBI","i":"ERR4665557"}}
{"p":"B.1","w":{"d":29,"y":2020,"m":9},"l":{"r":"England","c":"United Kingdom"},"o":{"r":"NCBI","i":"ERR4688919"}}
{"p":"B.1.1.310","w":{"d":12,"y":2020,"m":9},"l":{"c":"United Kingdom"},"o":{"r":"NCBI","i":"ERR4692596"}}
{"p":"B.1.1.253","w":{"d":1,"y":2020,"m":9},"l":{"r":"England","c":"United Kingdom"},"o":{"r":"NCBI","i":"ERR4615650"}}
{"p":"B","w":{"d":27,"y":2020,"m":9},"l":{"r":"England","c":"United Kingdom"},"o":{"r":"NCBI","i":"ERR4687887"}}
{"p":"B.1.258","w":{"d":10,"y":2020,"m":9},"l":{"r":"England","c":"United Kingdom"},"o":{"r":"NCBI","i":"ERR5062470"}}
{"p":"B.1.177.7","w":{"d":25,"y":2020,"m":9},"l":{"r":"Wales","c":"United Kingdom"},"o":{"r":"NCBI","i":"ERR4665792"}}
{"p":"B.1.177.20","w":{"d":11,"y":2020,"m":9},"l":{"r":"England","c":"United Kingdom"},"o":{"r":"NCBI","i":"ERR4652261"}}
{"p":"B.1.177","w":{"d":7,"y":2020,"m":9},"l":{"r":"England","c":"United Kingdom"},"o":{"r":"NCBI","i":"ERR4651099"}}
{"p":"B.1.1.286","w":{"d":4,"y":2020,"m":9},"l":{"r":"Wales","c":"United Kingdom"},"o":{"r":"NCBI","i":"ERR4604920"}}
{"p":"B.1.1.37","w":{"d":14,"y":2020,"m":9},"l":{"r":"England","c":"United Kingdom"},"o":{"r":"NCBI","i":"ERR4652826"}}
{"p":"B.1.36.17","w":{"d":11,"y":2020,"m":9},"l":{"r":"England","c":"United Kingdom"},"o":{"r":"NCBI","i":"ERR4651690"}}
{"p":"B.1","w":{"d":12,"y":2020,"m":9},"l":{"r":"England","c":"United Kingdom"},"o":{"r":"NCBI","i":"ERR4652674"}}
{"p":"B.1.1.307","w":{"d":28,"y":2020,"m":9},"l":{"r":"England","c":"United Kingdom"},"o":{"r":"NCBI","i":"ERR4688873"}}
{"p":"B.1.177.15","w":{"d":27,"y":2020,"m":9},"l":{"r":"Wales","c":"United Kingdom"},"o":{"r":"NCBI","i":"ERR4671367"}}
{"p":"B.1","w":{"d":20,"y":2020,"m":9},"l":{"r":"Wales","c":"United Kingdom"},"o":{"r":"NCBI","i":"ERR4681728"}}
{"p":"B.1.177.7","w":{"d":13,"y":2020,"m":9},"l":{"r":"Wales","c":"United Kingdom"},"o":{"r":"NCBI","i":"ERR4664876"}}
{"p":"B.1.258.3","w":{"d":2,"y":2020,"m":9},"l":{"r":"England","c":"United Kingdom"},"o":{"r":"NCBI","i":"ERR4646227"}}
{"p":"B.1.177","w":{"d":20,"y":2020,"m":9},"l":{"r":"Wales","c":"United Kingdom"},"o":{"r":"NCBI","i":"ERR4681747"}}
{"p":"B.1.177.57","w":{"d":20,"y":2020,"m":9},"l":{"r":"England","c":"United Kingdom"},"o":{"r":"NCBI","i":"ERR4659706"}}
{"p":"B.1.389","w":{"d":29,"y":2020,"m":9},"l":{"r":"England","c":"United Kingdom"},"o":{"r":"NCBI","i":"ERR4688925"}}
{"p":"B.1.1.37","w":{"d":13,"y":2020,"m":9},"l":{"r":"Scotland","c":"United Kingdom"},"o":{"r":"NCBI","i":"ERR4667897"}}
{"p":"B.1.236","w":{"d":20,"y":2020,"m":9},"l":{"r":"England","c":"United Kingdom"},"o":{"r":"NCBI","i":"ERR4681745"}}
{"p":"B.1.177.15","w":{"d":24,"y":2020,"m":9},"l":{"r":"Wales","c":"United Kingdom"},"o":{"r":"NCBI","i":"ERR4665503"}}
{"p":"B.1.177","w":{"d":12,"y":2020,"m":9},"l":{"r":"Wales","c":"United Kingdom"},"o":{"r":"NCBI","i":"ERR4665945"}}
{"p":"B.1.177.7","w":{"d":20,"y":2020,"m":9},"l":{"r":"Wales","c":"United Kingdom"},"o":{"r":"NCBI","i":"ERR4659689"}}
{"p":"AD.2","w":{"d":13,"y":2020,"m":9},"l":{"r":"England","c":"United Kingdom"},"o":{"r":"NCBI","i":"ERR4653130"}}
{"p":"B.1.177","w":{"d":26,"y":2020,"m":9},"l":{"r":"Wales","c":"United Kingdom"},"o":{"r":"NCBI","i":"ERR4671493"}}
{"p":"B.1.160","w":{"d":12,"y":2020,"m":9},"l":{"r":"England","c":"United Kingdom"},"o":{"r":"NCBI","i":"ERR4652664"}}
{"p":"B.1.1.301","w":{"d":20,"y":2020,"m":9},"l":{"r":"Wales","c":"United Kingdom"},"o":{"r":"NCBI","i":"ERR4681732"}}
{"p":"B.1.177","w":{"d":26,"y":2020,"m":9},"l":{"r":"Wales","c":"United Kingdom"},"o":{"r":"NCBI","i":"ERR4667108"}}
{"p":"B.1.1.315","w":{"d":7,"y":2020,"m":9},"l":{"r":"England","c":"United Kingdom"},"o":{"r":"NCBI","i":"ERR4651103"}}
{"p":"B.1.1.133","w":{"d":19,"y":2020,"m":9},"l":{"r":"England","c":"United Kingdom"},"o":{"r":"NCBI","i":"ERR4659462"}}
{"p":"B.1.177.19","w":{"d":23,"y":2020,"m":9},"l":{"r":"Wales","c":"United Kingdom"},"o":{"r":"NCBI","i":"ERR4664226"}}
{"p":"AD.2","w":{"d":27,"y":2020,"m":9},"l":{"r":"England","c":"United Kingdom"},"o":{"r":"NCBI","i":"ERR5061690"}}
{"p":"B.1.177","w":{"d":23,"y":2020,"m":9},"l":{"r":"Wales","c":"United Kingdom"},"o":{"r":"NCBI","i":"ERR4665866"}}
{"p":"B.1.177","w":{"d":15,"y":2020,"m":9},"l":{"r":"England","c":"United Kingdom"},"o":{"r":"NCBI","i":"ERR4653188"}}
{"p":"B.1.177.7","w":{"d":26,"y":2020,"m":9},"l":{"r":"Wales","c":"United Kingdom"},"o":{"r":"NCBI","i":"ERR4665648"}}
{"p":"B.1.177","w":{"d":25,"y":2020,"m":9},"l":{"r":"Wales","c":"United Kingdom"},"o":{"r":"NCBI","i":"ERR4665546"}}
{"p":"B.1.389","w":{"d":29,"y":2020,"m":9},"l":{"r":"England","c":"United Kingdom"},"o":{"r":"NCBI","i":"ERR4688918"}}
{"p":"AD.2","w":{"d":6,"y":2020,"m":9},"l":{"r":"Wales","c":"United Kingdom"},"o":{"r":"NCBI","i":"ERR4806376"}}
{"p":"B.1.1.311","w":{"d":24,"y":2020,"m":9},"l":{"r":"Wales","c":"United Kingdom"},"o":{"r":"NCBI","i":"ERR4665431"}}
{"p":"B.1.177","w":{"d":28,"y":2020,"m":9},"l":{"r":"England","c":"United Kingdom"},"o":{"r":"NCBI","i":"ERR4688880"}}
{"p":"B.1.1.37","w":{"d":29,"y":2020,"m":9},"l":{"r":"England","c":"United Kingdom"},"o":{"r":"NCBI","i":"ERR4688923"}}
{"p":"B.1.177","w":{"d":30,"y":2020,"m":9},"l":{"r":"Wales","c":"United Kingdom"},"o":{"r":"NCBI","i":"ERR4692428"}}
{"p":"B.1.258","w":{"d":13,"y":2020,"m":9},"l":{"r":"England","c":"United Kingdom"},"o":{"r":"NCBI","i":"ERR4687209"}}
{"p":"B.1","w":{"d":22,"y":2020,"m":9},"l":{"r":"England","c":"United Kingdom"},"o":{"r":"NCBI","i":"ERR4659702"}}
{"p":"B.1.1.286","w":{"d":4,"y":2020,"m":9},"l":{"r":"Wales","c":"United Kingdom"},"o":{"r":"NCBI","i":"ERR4660078"}}
{"p":"B.1","w":{"d":13,"y":2020,"m":9},"l":{"r":"England","c":"United Kingdom"},"o":{"r":"NCBI","i":"ERR4687224"}}
{"p":"B.1.177","w":{"d":24,"y":2020,"m":9},"l":{"r":"Wales","c":"United Kingdom"},"o":{"r":"NCBI","i":"ERR4652986"}}
{"p":"B.1.1.307","w":{"d":24,"y":2020,"m":9},"l":{"r":"England","c":"United Kingdom"},"o":{"r":"NCBI","i":"ERR5062110"}}
{"p":"B.1.1","w":{"d":4,"y":2020,"m":9},"l":{"r":"Wales","c":"United Kingdom"},"o":{"r":"NCBI","i":"ERR4652219"}}
{"p":"B.1.1.4","w":{"d":4,"y":2020,"m":9},"l":{"r":"England","c":"United Kingdom"},"o":{"r":"NCBI","i":"ERR4652245"}}
{"p":"B.1.177.10","w":{"d":22,"y":2020,"m":9},"l":{"r":"England","c":"United Kingdom"},"o":{"r":"NCBI","i":"ERR4659720"}}
{"p":"B.1.1.37","w":{"d":28,"y":2020,"m":9},"l":{"r":"England","c":"United Kingdom"},"o":{"r":"NCBI","i":"ERR4688905"}}
{"p":"B.1.1.307","w":{"d":29,"y":2020,"m":9},"l":{"r":"England","c":"United Kingdom"},"o":{"r":"NCBI","i":"ERR4688937"}}
{"p":"B.1.177","w":{"d":12,"y":2020,"m":9},"l":{"r":"England","c":"United Kingdom"},"o":{"r":"NCBI","i":"ERR4687187"}}
{"p":"B.1.1.37","w":{"d":13,"y":2020,"m":9},"l":{"r":"England","c":"United Kingdom"},"o":{"r":"NCBI","i":"ERR4668263"}}
{"p":"B.1.1.198","w":{"d":13,"y":2020,"m":9},"l":{"r":"England","c":"United Kingdom"},"o":{"r":"NCBI","i":"ERR4665118"}}
{"p":"B.1.389","w":{"d":14,"y":2020,"m":9},"l":{"r":"England","c":"United Kingdom"},"o":{"r":"NCBI","i":"ERR4652739"}}
{"p":"B.1.177.7","w":{"d":30,"y":2020,"m":9},"l":{"r":"England","c":"United Kingdom"},"o":{"r":"NCBI","i":"ERR4693299"}}
{"p":"B.1.1","w":{"d":14,"y":2020,"m":9},"l":{"r":"Scotland","c":"United Kingdom"},"o":{"r":"NCBI","i":"ERR4667852"}}
{"p":"B.1.1.37","w":{"d":29,"y":2020,"m":9},"l":{"r":"England","c":"United Kingdom"},"o":{"r":"NCBI","i":"ERR4688933"}}
{"p":"B.1.1.37","w":{"d":8,"y":2020,"m":9},"l":{"r":"England","c":"United Kingdom"},"o":{"r":"NCBI","i":"ERR5061413"}}
{"p":"B.1.177.7","w":{"d":28,"y":2020,"m":9},"l":{"r":"Wales","c":"United Kingdom"},"o":{"r":"NCBI","i":"ERR4671747"}}
{"p":"B.1.177.7","w":{"d":24,"y":2020,"m":9},"l":{"r":"Wales","c":"United Kingdom"},"o":{"r":"NCBI","i":"ERR4664410"}}
{"p":"B","w":{"d":14,"y":2020,"m":9},"l":{"r":"Scotland","c":"United Kingdom"},"o":{"r":"NCBI","i":"ERR4667856"}}
{"p":"AD.2","w":{"d":11,"y":2020,"m":9},"l":{"r":"England","c":"United Kingdom"},"o":{"r":"NCBI","i":"ERR4652541"}}
{"p":"B.1.177.7","w":{"d":5,"y":2020,"m":9},"l":{"r":"Wales","c":"United Kingdom"},"o":{"r":"NCBI","i":"ERR4604922"}}
{"p":"B.1.1","w":{"d":6,"y":2020,"m":9},"l":{"r":"England","c":"United Kingdom"},"o":{"r":"NCBI","i":"ERR4651247"}}
{"p":"B.1.177","w":{"d":28,"y":2020,"m":9},"l":{"r":"Wales","c":"United Kingdom"},"o":{"r":"NCBI","i":"ERR4671572"}}
{"p":"B.1.177","w":{"d":30,"y":2020,"m":9},"l":{"r":"Wales","c":"United Kingdom"},"o":{"r":"NCBI","i":"ERR4692584"}}
{"p":"B.1.1.315","w":{"d":27,"y":2020,"m":9},"l":{"r":"England","c":"United Kingdom"},"o":{"r":"NCBI","i":"ERR4687923"}}
{"p":"B.1.177","w":{"d":6,"y":2020,"m":9},"l":{"r":"England","c":"United Kingdom"},"o":{"r":"NCBI","i":"ERR4686951"}}
{"p":"B.1.177","w":{"d":27,"y":2020,"m":9},"l":{"r":"Wales","c":"United Kingdom"},"o":{"r":"NCBI","i":"ERR4671140"}}
{"p":"B.1.1.37","w":{"d":3,"y":2020,"m":9},"l":{"r":"England","c":"United Kingdom"},"o":{"r":"NCBI","i":"ERR5062506"}}
{"p":"B.1.1.307","w":{"d":13,"y":2020,"m":9},"l":{"r":"England","c":"United Kingdom"},"o":{"r":"NCBI","i":"ERR4653123"}}
{"p":"B.1.177","w":{"d":17,"y":2020,"m":9},"l":{"r":"England","c":"United Kingdom"},"o":{"r":"NCBI","i":"ERR4659511"}}
{"p":"B.1.177","w":{"d":26,"y":2020,"m":9},"l":{"r":"Wales","c":"United Kingdom"},"o":{"r":"NCBI","i":"ERR4665565"}}
{"p":"B.1.1.315","w":{"d":20,"y":2020,"m":9},"l":{"r":"Wales","c":"United Kingdom"},"o":{"r":"NCBI","i":"ERR4681792"}}
{"p":"B.1.235","w":{"d":2,"y":2020,"m":9},"l":{"r":"England","c":"United Kingdom"},"o":{"r":"NCBI","i":"ERR4646269"}}
{"p":"B.1.177.7","w":{"d":13,"y":2020,"m":9},"l":{"r":"Wales","c":"United Kingdom"},"o":{"r":"NCBI","i":"ERR4664221"}}
{"p":"B.1.177.7","w":{"d":12,"y":2020,"m":9},"l":{"r":"Wales","c":"United Kingdom"},"o":{"r":"NCBI","i":"ERR4660057"}}
{"p":"B.1.610","w":{"d":6,"y":2020,"m":9},"l":{"r":"England","c":"United Kingdom"},"o":{"r":"NCBI","i":"ERR4647386"}}
{"p":"B.1.177.7","w":{"d":30,"y":2020,"m":9},"l":{"r":"Wales","c":"United Kingdom"},"o":{"r":"NCBI","i":"ERR4692794"}}
{"p":"B.1.177","w":{"d":13,"y":2020,"m":9},"l":{"r":"Wales","c":"United Kingdom"},"o":{"r":"NCBI","i":"ERR4667382"}}
{"p":"B.1.177","w":{"d":27,"y":2020,"m":9},"l":{"r":"Wales","c":"United Kingdom"},"o":{"r":"NCBI","i":"ERR4671386"}}
{"p":"B.1.1","w":{"d":28,"y":2020,"m":9},"l":{"r":"England","c":"United Kingdom"},"o":{"r":"NCBI","i":"ERR4688889"}}
{"p":"B.1.1.25","w":{"d":14,"y":2020,"m":9},"l":{"r":"England","c":"United Kingdom"},"o":{"r":"NCBI","i":"ERR4652811"}}
{"p":"AD.2","w":{"d":29,"y":2020,"m":9},"l":{"r":"England","c":"United Kingdom"},"o":{"r":"NCBI","i":"ERR4688940"}}
{"p":"B.1.1","w":{"d":5,"y":2020,"m":9},"l":{"r":"England","c":"United Kingdom"},"o":{"r":"NCBI","i":"ERR4651178"}}
{"p":"B.1.177.65","w":{"d":26,"y":2020,"m":9},"l":{"r":"Wales","c":"United Kingdom"},"o":{"r":"NCBI","i":"ERR4671328"}}
{"p":"B.1.177","w":{"d":30,"y":2020,"m":9},"l":{"r":"Wales","c":"United Kingdom"},"o":{"r":"NCBI","i":"ERR4692707"}}
{"p":"B.1.177","w":{"d":19,"y":2020,"m":9},"l":{"r":"England","c":"United Kingdom"},"o":{"r":"NCBI","i":"ERR4659353"}}
{"p":"B","w":{"d":13,"y":2020,"m":9},"l":{"r":"England","c":"United Kingdom"},"o":{"r":"NCBI","i":"ERR4653105"}}
{"p":"B.1.1.46","w":{"d":19,"y":2020,"m":9},"l":{"r":"England","c":"United Kingdom"},"o":{"r":"NCBI","i":"ERR5060729"}}
{"p":"B.1.177","w":{"d":30,"y":2020,"m":9},"l":{"r":"Wales","c":"United Kingdom"},"o":{"r":"NCBI","i":"ERR4692498"}}
{"p":"B.1.177","w":{"d":26,"y":2020,"m":9},"l":{"r":"Wales","c":"United Kingdom"},"o":{"r":"NCBI","i":"ERR4665638"}}
{"p":"B.1.1","w":{"d":20,"y":2020,"m":9},"l":{"r":"England","c":"United Kingdom"},"o":{"r":"NCBI","i":"ERR4659716"}}
{"p":"B.1.1.315","w":{"d":1,"y":2020,"m":9},"l":{"r":"England","c":"United Kingdom"},"o":{"r":"NCBI","i":"ERR4615632"}}
{"p":"B.1.610","w":{"d":20,"y":2020,"m":9},"l":{"r":"England","c":"United Kingdom"},"o":{"r":"NCBI","i":"ERR4659692"}}
{"p":"B.1.177","w":{"d":27,"y":2020,"m":9},"l":{"r":"Wales","c":"United Kingdom"},"o":{"r":"NCBI","i":"ERR4664246"}}
{"p":"B.1.177","w":{"d":27,"y":2020,"m":9},"l":{"r":"Wales","c":"United Kingdom"},"o":{"r":"NCBI","i":"ERR4664891"}}
{"p":"B.1.1.37","w":{"d":11,"y":2020,"m":9},"l":{"r":"England","c":"United Kingdom"},"o":{"r":"NCBI","i":"ERR4651807"}}
{"p":"B.1","w":{"d":20,"y":2020,"m":9},"l":{"r":"Wales","c":"United Kingdom"},"o":{"r":"NCBI","i":"ERR4681734"}}
{"p":"B.1.1.279","w":{"d":7,"y":2020,"m":9},"l":{"r":"England","c":"United Kingdom"},"o":{"r":"NCBI","i":"ERR4651083"}}
{"p":"B.1.258.7","w":{"d":23,"y":2020,"m":9},"l":{"r":"Wales","c":"United Kingdom"},"o":{"r":"NCBI","i":"ERR4666003"}}
{"p":"B.1.177.56","w":{"d":25,"y":2020,"m":9},"l":{"r":"Wales","c":"United Kingdom"},"o":{"r":"NCBI","i":"ERR4665332"}}
{"p":"B.1.1.165","w":{"d":7,"y":2020,"m":9},"l":{"r":"England","c":"United Kingdom"},"o":{"r":"NCBI","i":"ERR4651065"}}
{"p":"B.1.1.255","w":{"d":11,"y":2020,"m":9},"l":{"r":"England","c":"United Kingdom"},"o":{"r":"NCBI","i":"ERR4651688"}}
{"p":"B.1.177","w":{"d":18,"y":2020,"m":9},"l":{"r":"England","c":"United Kingdom"},"o":{"r":"NCBI","i":"ERR5062454"}}
{"p":"B.1.258.7","w":{"d":20,"y":2020,"m":9},"l":{"r":"Wales","c":"United Kingdom"},"o":{"r":"NCBI","i":"ERR4681730"}}
{"p":"B.1.1.37","w":{"d":1,"y":2020,"m":9},"l":{"r":"England","c":"United Kingdom"},"o":{"r":"NCBI","i":"ERR4615634"}}
{"p":"B.1.1.37","w":{"d":29,"y":2020,"m":9},"l":{"r":"England","c":"United Kingdom"},"o":{"r":"NCBI","i":"ERR4688934"}}
{"p":"B.1.177","w":{"d":30,"y":2020,"m":9},"l":{"r":"Wales","c":"United Kingdom"},"o":{"r":"NCBI","i":"ERR4693027"}}
{"p":"AD.2","w":{"d":12,"y":2020,"m":9},"l":{"r":"Wales","c":"United Kingdom"},"o":{"r":"NCBI","i":"ERR4664209"}}
{"p":"B.1.177.56","w":{"d":24,"y":2020,"m":9},"l":{"r":"Wales","c":"United Kingdom"},"o":{"r":"NCBI","i":"ERR4664921"}}
{"p":"B.1.177","w":{"d":23,"y":2020,"m":9},"l":{"r":"Wales","c":"United Kingdom"},"o":{"r":"NCBI","i":"ERR4665436"}}
{"p":"B.1.597","w":{"d":1,"y":2020,"m":9},"l":{"r":"England","c":"United Kingdom"},"o":{"r":"NCBI","i":"ERR4615646"}}
{"p":"B.1.177","w":{"d":20,"y":2020,"m":9},"l":{"r":"Wales","c":"United Kingdom"},"o":{"r":"NCBI","i":"ERR4659583"}}
{"p":"B.1.1.37","w":{"d":27,"y":2020,"m":9},"l":{"r":"England","c":"United Kingdom"},"o":{"r":"NCBI","i":"ERR5062447"}}
{"p":"B.1.36.17","w":{"d":14,"y":2020,"m":9},"l":{"r":"England","c":"United Kingdom"},"o":{"r":"NCBI","i":"ERR4653219"}}
{"p":"B.1.1.307","w":{"d":28,"y":2020,"m":9},"l":{"r":"England","c":"United Kingdom"},"o":{"r":"NCBI","i":"ERR4688901"}}
{"p":"B.1.1.307","w":{"d":9,"y":2020,"m":9},"l":{"r":"England","c":"United Kingdom"},"o":{"r":"NCBI","i":"ERR5062416"}}
{"p":"B.1.1","w":{"d":12,"y":2020,"m":9},"l":{"r":"England","c":"United Kingdom"},"o":{"r":"NCBI","i":"ERR4652672"}}
{"p":"B.1","w":{"d":20,"y":2020,"m":9},"l":{"r":"England","c":"United Kingdom"},"o":{"r":"NCBI","i":"ERR4681790"}}
{"p":"B.1.1","w":{"d":20,"y":2020,"m":9},"l":{"r":"England","c":"United Kingdom"},"o":{"r":"NCBI","i":"ERR4659718"}}
{"p":"B.1.177.7","w":{"d":30,"y":2020,"m":9},"l":{"r":"Wales","c":"United Kingdom"},"o":{"r":"NCBI","i":"ERR4692850"}}
{"p":"B.1.177","w":{"d":23,"y":2020,"m":9},"l":{"r":"Wales","c":"United Kingdom"},"o":{"r":"NCBI","i":"ERR4665847"}}
{"p":"B.1.177.54","w":{"d":28,"y":2020,"m":9},"l":{"c":"United Kingdom"},"o":{"r":"NCBI","i":"ERR5060848"}}
{"p":"B.1.177.15","w":{"d":24,"y":2020,"m":9},"l":{"r":"Wales","c":"United Kingdom"},"o":{"r":"NCBI","i":"ERR4664599"}}
{"p":"B.1.1.266","w":{"d":13,"y":2020,"m":9},"l":{"r":"England","c":"United Kingdom"},"o":{"r":"NCBI","i":"ERR4653133"}}
