{"p":"A.2","w":{"d":6,"y":2020,"m":4},"l":{"c":"Austria"},"o":{"r":"NCBI","i":"ERR4704262"}}
{"p":"A.2","w":{"d":3,"y":2020,"m":4},"l":{"c":"Austria"},"o":{"r":"NCBI","i":"ERR4704253"}}
{"p":"A.2","w":{"d":6,"y":2020,"m":4},"l":{"c":"Austria"},"o":{"r":"NCBI","i":"ERR4704260"}}
{"p":"A.2","w":{"d":29,"y":2020,"m":3},"l":{"c":"Austria"},"o":{"r":"NCBI","i":"ERR4704231"}}
