{"p":"AD.2","w":{"d":29,"y":2020,"m":9},"l":{"r":"England","c":"United Kingdom"},"o":{"r":"NCBI","i":"ERR4688916"}}
{"p":"AD.2","w":{"d":22,"y":2020,"m":9},"l":{"r":"England","c":"United Kingdom"},"o":{"r":"NCBI","i":"ERR4659722"}}
{"p":"AD.2","w":{"d":26,"y":2020,"m":8},"l":{"r":"England","c":"United Kingdom"},"o":{"r":"NCBI","i":"ERR4599581"}}
{"p":"AD.2","w":{"d":9,"y":2020,"m":11},"l":{"r":"Wales","c":"United Kingdom"},"o":{"r":"NCBI","i":"ERR5061993"}}
{"p":"AD.2","w":{"d":4,"y":2020,"m":9},"l":{"r":"England","c":"United Kingdom"},"o":{"r":"NCBI","i":"ERR4664207"}}
{"p":"AD.2","w":{"d":27,"y":2020,"m":8},"l":{"r":"England","c":"United Kingdom"},"o":{"r":"NCBI","i":"ERR4599660"}}
{"p":"AD.2","w":{"d":8,"y":2020,"m":8},"l":{"r":"Scotland","c":"United Kingdom"},"o":{"r":"NCBI","i":"ERR4597278"}}
{"p":"AD.2","w":{"d":16,"y":2020,"m":10},"l":{"r":"Wales","c":"United Kingdom"},"o":{"r":"NCBI","i":"ERR4778985"}}
{"p":"AD.2","w":{"d":29,"y":2020,"m":9},"l":{"r":"England","c":"United Kingdom"},"o":{"r":"NCBI","i":"ERR4688894"}}
{"p":"AD.2","w":{"d":20,"y":2020,"m":9},"l":{"r":"England","c":"United Kingdom"},"o":{"r":"NCBI","i":"ERR4659738"}}
{"p":"AD.2","w":{"d":29,"y":2020,"m":8},"l":{"r":"England","c":"United Kingdom"},"o":{"r":"NCBI","i":"ERR4599551"}}
{"p":"AD.2","w":{"d":11,"y":2020,"m":8},"l":{"r":"Scotland","c":"United Kingdom"},"o":{"r":"NCBI","i":"ERR4597709"}}
{"p":"AD.2","w":{"d":6,"y":2020,"m":9},"l":{"r":"Wales","c":"United Kingdom"},"o":{"r":"NCBI","i":"ERR4665064"}}
{"p":"AD.2","w":{"d":3,"y":2020,"m":10},"l":{"r":"Wales","c":"United Kingdom"},"o":{"r":"NCBI","i":"ERR4692523"}}
{"p":"AD.2","w":{"d":30,"y":2020,"m":10},"l":{"r":"England","c":"United Kingdom"},"o":{"r":"NCBI","i":"ERR4838732"}}
{"p":"AD.2","w":{"d":24,"y":2020,"m":9},"l":{"r":"Wales","c":"United Kingdom"},"o":{"r":"NCBI","i":"ERR4665346"}}
{"p":"AD.2","w":{"d":29,"y":2020,"m":8},"l":{"r":"Wales","c":"United Kingdom"},"o":{"r":"NCBI","i":"ERR4645016"}}
{"p":"AD.2","w":{"d":11,"y":2020,"m":8},"l":{"r":"Scotland","c":"United Kingdom"},"o":{"r":"NCBI","i":"ERR4597711"}}
{"p":"AD.2","w":{"d":15,"y":2020,"m":11},"l":{"r":"England","c":"United Kingdom"},"o":{"r":"NCBI","i":"ERR4906974"}}
{"p":"AD.2","w":{"d":13,"y":2020,"m":12},"l":{"r":"England","c":"United Kingdom"},"o":{"r":"NCBI","i":"ERR5026946"}}
{"p":"AD.2","w":{"d":24,"y":2020,"m":8},"l":{"r":"Wales","c":"United Kingdom"},"o":{"r":"NCBI","i":"ERR4569803"}}
{"p":"AD.2","w":{"d":17,"y":2020,"m":10},"l":{"r":"Wales","c":"United Kingdom"},"o":{"r":"NCBI","i":"ERR4779402"}}
{"p":"AD.2","w":{"d":29,"y":2020,"m":8},"l":{"r":"England","c":"United Kingdom"},"o":{"r":"NCBI","i":"ERR4599568"}}
{"p":"AD.2","w":{"d":11,"y":2020,"m":8},"l":{"r":"Scotland","c":"United Kingdom"},"o":{"r":"NCBI","i":"ERR4597682"}}
{"p":"AD.2","w":{"d":6,"y":2020,"m":9},"l":{"r":"Wales","c":"United Kingdom"},"o":{"r":"NCBI","i":"ERR4665205"}}
{"p":"AD.2","w":{"d":13,"y":2020,"m":9},"l":{"r":"England","c":"United Kingdom"},"o":{"r":"NCBI","i":"ERR4653125"}}
{"p":"AD.2","w":{"d":11,"y":2020,"m":9},"l":{"r":"England","c":"United Kingdom"},"o":{"r":"NCBI","i":"ERR4652374"}}
{"p":"AD.2","w":{"d":27,"y":2020,"m":9},"l":{"r":"Wales","c":"United Kingdom"},"o":{"r":"NCBI","i":"ERR4671886"}}
{"p":"AD.2","w":{"d":6,"y":2020,"m":12},"l":{"r":"England","c":"United Kingdom"},"o":{"r":"NCBI","i":"ERR5037813"}}
{"p":"AD.2","w":{"d":2,"y":2020,"m":10},"l":{"r":"England","c":"United Kingdom"},"o":{"r":"NCBI","i":"ERR5061042"}}
{"p":"AD.2","w":{"d":29,"y":2020,"m":8},"l":{"r":"England","c":"United Kingdom"},"o":{"r":"NCBI","i":"ERR4646874"}}
{"p":"AD.2","w":{"d":16,"y":2020,"m":10},"l":{"r":"Wales","c":"United Kingdom"},"o":{"r":"NCBI","i":"ERR4779012"}}
{"p":"AD.2","w":{"d":13,"y":2020,"m":9},"l":{"r":"England","c":"United Kingdom"},"o":{"r":"NCBI","i":"ERR4653130"}}
{"p":"AD.2","w":{"d":3,"y":2020,"m":10},"l":{"r":"Scotland","c":"United Kingdom"},"o":{"r":"NCBI","i":"ERR4694059"}}
{"p":"AD.2","w":{"d":30,"y":2020,"m":8},"l":{"r":"England","c":"United Kingdom"},"o":{"r":"NCBI","i":"ERR4646414"}}
{"p":"AD.2","w":{"d":27,"y":2020,"m":9},"l":{"r":"England","c":"United Kingdom"},"o":{"r":"NCBI","i":"ERR5061690"}}
{"p":"AD.2","w":{"d":18,"y":2020,"m":10},"l":{"r":"Wales","c":"United Kingdom"},"o":{"r":"NCBI","i":"ERR4778937"}}
{"p":"AD.2","w":{"d":6,"y":2020,"m":9},"l":{"r":"Wales","c":"United Kingdom"},"o":{"r":"NCBI","i":"ERR4806376"}}
{"p":"AD.2","w":{"d":5,"y":2020,"m":10},"l":{"r":"Wales","c":"United Kingdom"},"o":{"r":"NCBI","i":"ERR4692883"}}
{"p":"AD.2","w":{"d":29,"y":2020,"m":8},"l":{"r":"England","c":"United Kingdom"},"o":{"r":"NCBI","i":"ERR4599548"}}
{"p":"AD.2","w":{"d":11,"y":2020,"m":9},"l":{"r":"England","c":"United Kingdom"},"o":{"r":"NCBI","i":"ERR4652541"}}
{"p":"AD.2","w":{"d":4,"y":2020,"m":10},"l":{"r":"Wales","c":"United Kingdom"},"o":{"r":"NCBI","i":"ERR4692502"}}
{"p":"AD.2","w":{"d":29,"y":2020,"m":9},"l":{"r":"England","c":"United Kingdom"},"o":{"r":"NCBI","i":"ERR4688940"}}
{"p":"AD.2","w":{"d":12,"y":2020,"m":9},"l":{"r":"Wales","c":"United Kingdom"},"o":{"r":"NCBI","i":"ERR4664209"}}
