{"p":"AP.1","w":{"d":24,"y":2020,"m":10},"l":{"r":"Wales","c":"United Kingdom"},"o":{"r":"NCBI","i":"ERR4806772"}}
{"p":"AP.1","w":{"d":11,"y":2020,"m":10},"l":{"r":"Wales","c":"United Kingdom"},"o":{"r":"NCBI","i":"ERR4780417"}}
{"p":"AP.1","w":{"d":31,"y":2020,"m":10},"l":{"r":"Wales","c":"United Kingdom"},"o":{"r":"NCBI","i":"ERR4837720"}}
{"p":"AP.1","w":{"d":24,"y":2020,"m":10},"l":{"r":"Wales","c":"United Kingdom"},"o":{"r":"NCBI","i":"ERR4806805"}}
{"p":"AP.1","w":{"d":12,"y":2020,"m":10},"l":{"r":"Wales","c":"United Kingdom"},"o":{"r":"NCBI","i":"ERR4758401"}}
{"p":"AP.1","w":{"d":31,"y":2020,"m":10},"l":{"r":"Wales","c":"United Kingdom"},"o":{"r":"NCBI","i":"ERR4838771"}}
{"p":"AP.1","w":{"d":18,"y":2020,"m":10},"l":{"r":"Wales","c":"United Kingdom"},"o":{"r":"NCBI","i":"ERR4779723"}}
{"p":"AP.1","w":{"d":1,"y":2020,"m":11},"l":{"r":"Wales","c":"United Kingdom"},"o":{"r":"NCBI","i":"ERR4837852"}}
{"p":"AP.1","w":{"d":1,"y":2020,"m":11},"l":{"r":"Wales","c":"United Kingdom"},"o":{"r":"NCBI","i":"ERR4839599"}}
{"p":"AP.1","w":{"d":24,"y":2020,"m":10},"l":{"r":"Wales","c":"United Kingdom"},"o":{"r":"NCBI","i":"ERR4807207"}}
{"p":"AP.1","w":{"d":22,"y":2020,"m":10},"l":{"r":"Wales","c":"United Kingdom"},"o":{"r":"NCBI","i":"ERR4778968"}}
{"p":"AP.1","w":{"d":1,"y":2020,"m":11},"l":{"r":"Wales","c":"United Kingdom"},"o":{"r":"NCBI","i":"ERR4838025"}}
{"p":"AP.1","w":{"d":4,"y":2020,"m":10},"l":{"r":"Wales","c":"United Kingdom"},"o":{"r":"NCBI","i":"ERR4693329"}}
{"p":"AP.1","w":{"d":29,"y":2020,"m":10},"l":{"r":"Wales","c":"United Kingdom"},"o":{"r":"NCBI","i":"ERR4838787"}}
{"p":"AP.1","w":{"d":21,"y":2020,"m":10},"l":{"r":"Wales","c":"United Kingdom"},"o":{"r":"NCBI","i":"ERR4779836"}}
{"p":"AP.1","w":{"d":1,"y":2020,"m":11},"l":{"r":"Wales","c":"United Kingdom"},"o":{"r":"NCBI","i":"ERR4837686"}}
{"p":"AP.1","w":{"d":9,"y":2020,"m":10},"l":{"r":"Wales","c":"United Kingdom"},"o":{"r":"NCBI","i":"ERR4693193"}}
{"p":"AP.1","w":{"d":17,"y":2020,"m":10},"l":{"r":"Wales","c":"United Kingdom"},"o":{"r":"NCBI","i":"ERR4779573"}}
{"p":"AP.1","w":{"d":16,"y":2020,"m":10},"l":{"r":"Wales","c":"United Kingdom"},"o":{"r":"NCBI","i":"ERR4779080"}}
{"p":"AP.1","w":{"d":25,"y":2020,"m":10},"l":{"r":"Wales","c":"United Kingdom"},"o":{"r":"NCBI","i":"ERR4806968"}}
{"p":"AP.1","w":{"d":21,"y":2020,"m":11},"l":{"r":"Wales","c":"United Kingdom"},"o":{"r":"NCBI","i":"ERR5060769"}}
{"p":"AP.1","w":{"d":31,"y":2020,"m":10},"l":{"r":"Wales","c":"United Kingdom"},"o":{"r":"NCBI","i":"ERR4867194"}}
{"p":"AP.1","w":{"d":1,"y":2020,"m":11},"l":{"r":"Wales","c":"United Kingdom"},"o":{"r":"NCBI","i":"ERR4839190"}}
{"p":"AP.1","w":{"d":30,"y":2020,"m":10},"l":{"r":"Wales","c":"United Kingdom"},"o":{"r":"NCBI","i":"ERR4838613"}}
{"p":"AP.1","w":{"d":1,"y":2020,"m":11},"l":{"r":"Wales","c":"United Kingdom"},"o":{"r":"NCBI","i":"ERR4839063"}}
{"p":"AP.1","w":{"d":26,"y":2020,"m":11},"l":{"r":"Wales","c":"United Kingdom"},"o":{"r":"NCBI","i":"ERR5061656"}}
{"p":"AP.1","w":{"d":25,"y":2020,"m":10},"l":{"r":"Wales","c":"United Kingdom"},"o":{"r":"NCBI","i":"ERR4807403"}}
{"p":"AP.1","w":{"d":25,"y":2020,"m":10},"l":{"r":"Wales","c":"United Kingdom"},"o":{"r":"NCBI","i":"ERR4806881"}}
{"p":"AP.1","w":{"d":9,"y":2020,"m":11},"l":{"r":"Wales","c":"United Kingdom"},"o":{"r":"NCBI","i":"ERR5061798"}}
{"p":"AP.1","w":{"d":1,"y":2020,"m":11},"l":{"r":"Wales","c":"United Kingdom"},"o":{"r":"NCBI","i":"ERR4837965"}}
{"p":"AP.1","w":{"d":8,"y":2020,"m":10},"l":{"r":"Wales","c":"United Kingdom"},"o":{"r":"NCBI","i":"ERR4693411"}}
{"p":"AP.1","w":{"d":8,"y":2020,"m":10},"l":{"r":"Wales","c":"United Kingdom"},"o":{"r":"NCBI","i":"ERR4693106"}}
{"p":"AP.1","w":{"d":1,"y":2020,"m":11},"l":{"r":"Wales","c":"United Kingdom"},"o":{"r":"NCBI","i":"ERR4838583"}}
{"p":"AP.1","w":{"d":4,"y":2020,"m":10},"l":{"r":"Wales","c":"United Kingdom"},"o":{"r":"NCBI","i":"ERR4693057"}}
{"p":"AP.1","w":{"d":31,"y":2020,"m":10},"l":{"r":"Wales","c":"United Kingdom"},"o":{"r":"NCBI","i":"ERR4838965"}}
{"p":"AP.1","w":{"d":27,"y":2020,"m":10},"l":{"r":"Wales","c":"United Kingdom"},"o":{"r":"NCBI","i":"ERR4807870"}}
{"p":"AP.1","w":{"d":30,"y":2020,"m":10},"l":{"r":"Wales","c":"United Kingdom"},"o":{"r":"NCBI","i":"ERR4838656"}}
{"p":"AP.1","w":{"d":26,"y":2020,"m":11},"l":{"r":"Wales","c":"United Kingdom"},"o":{"r":"NCBI","i":"ERR5062087"}}
{"p":"AP.1","w":{"d":30,"y":2020,"m":10},"l":{"r":"Wales","c":"United Kingdom"},"o":{"r":"NCBI","i":"ERR4838718"}}
{"p":"AP.1","w":{"d":1,"y":2020,"m":11},"l":{"r":"Wales","c":"United Kingdom"},"o":{"r":"NCBI","i":"ERR4837985"}}
{"p":"AP.1","w":{"d":1,"y":2020,"m":11},"l":{"r":"Wales","c":"United Kingdom"},"o":{"r":"NCBI","i":"ERR4838036"}}
{"p":"AP.1","w":{"d":31,"y":2020,"m":10},"l":{"r":"Wales","c":"United Kingdom"},"o":{"r":"NCBI","i":"ERR4839041"}}
{"p":"AP.1","w":{"d":1,"y":2020,"m":11},"l":{"r":"Wales","c":"United Kingdom"},"o":{"r":"NCBI","i":"ERR4838975"}}
