{"p":"B.1.1.10","w":{"d":26,"y":2020,"m":4},"l":{"r":"Scotland","c":"United Kingdom"},"o":{"r":"NCBI","i":"ERR4242240"}}
{"p":"B.1.1.10","w":{"d":19,"y":2020,"m":4},"l":{"r":"Wales","c":"United Kingdom"},"o":{"r":"NCBI","i":"ERR4308824"}}
{"p":"B.1.1.10","w":{"d":25,"y":2020,"m":4},"l":{"r":"Wales","c":"United Kingdom"},"o":{"r":"NCBI","i":"ERR4307866"}}
{"p":"B.1.1.10","w":{"d":14,"y":2020,"m":6},"l":{"r":"Scotland","c":"United Kingdom"},"o":{"r":"NCBI","i":"ERR4364799"}}
{"p":"B.1.1.10","w":{"d":16,"y":2020,"m":6},"l":{"r":"Scotland","c":"United Kingdom"},"o":{"r":"NCBI","i":"ERR4364922"}}
{"p":"B.1.1.10","w":{"d":9,"y":2020,"m":3},"l":{"r":"England","c":"United Kingdom"},"o":{"r":"NCBI","i":"ERR4206279"}}
{"p":"B.1.1.10","w":{"d":30,"y":2020,"m":5},"l":{"r":"Scotland","c":"United Kingdom"},"o":{"r":"NCBI","i":"ERR4365261"}}
