{"p":"B.1.44","w":{"d":25,"y":2020,"m":4},"l":{"r":"Wales","c":"United Kingdom"},"o":{"r":"NCBI","i":"ERR4307879"}}
{"p":"B.1.44","w":{"d":26,"y":2020,"m":4},"l":{"r":"Wales","c":"United Kingdom"},"o":{"r":"NCBI","i":"ERR4309125"}}
{"p":"B.1.44","w":{"d":25,"y":2020,"m":4},"l":{"r":"Wales","c":"United Kingdom"},"o":{"r":"NCBI","i":"ERR4308232"}}
