{"p":"B.1.1.277","w":{"d":24,"y":2020,"m":8},"l":{"r":"England","c":"United Kingdom"},"o":{"r":"NCBI","i":"ERR4599586"}}
{"p":"B.1.1.277","w":{"d":28,"y":2020,"m":9},"l":{"r":"England","c":"United Kingdom"},"o":{"r":"NCBI","i":"ERR4688872"}}
{"p":"B.1.1.277","w":{"d":11,"y":2020,"m":8},"l":{"r":"England","c":"United Kingdom"},"o":{"r":"NCBI","i":"ERR4598011"}}
{"p":"B.1.1.277","w":{"d":11,"y":2020,"m":9},"l":{"r":"England","c":"United Kingdom"},"o":{"r":"NCBI","i":"ERR4652218"}}
{"p":"B.1.1.277","w":{"d":14,"y":2020,"m":8},"l":{"r":"England","c":"United Kingdom"},"o":{"r":"NCBI","i":"ERR4598188"}}
{"p":"B.1.1.277","w":{"d":14,"y":2020,"m":8},"l":{"r":"Scotland","c":"United Kingdom"},"o":{"r":"NCBI","i":"ERR4598209"}}
{"p":"B.1.1.277","w":{"d":5,"y":2020,"m":8},"l":{"r":"England","c":"United Kingdom"},"o":{"r":"NCBI","i":"ERR4597199"}}
{"p":"B.1.1.277","w":{"d":21,"y":2020,"m":8},"l":{"r":"Scotland","c":"United Kingdom"},"o":{"r":"NCBI","i":"ERR4599494"}}
