{"p":"B.1.1.253","w":{"d":5,"y":2020,"m":8},"l":{"r":"England","c":"United Kingdom"},"o":{"r":"NCBI","i":"ERR4597337"}}
{"p":"B.1.1.253","w":{"d":28,"y":2020,"m":8},"l":{"r":"England","c":"United Kingdom"},"o":{"r":"NCBI","i":"ERR4615583"}}
{"p":"B.1.1.253","w":{"d":9,"y":2020,"m":8},"l":{"r":"England","c":"United Kingdom"},"o":{"r":"NCBI","i":"ERR4644319"}}
{"p":"B.1.1.253","w":{"d":14,"y":2020,"m":8},"l":{"r":"England","c":"United Kingdom"},"o":{"r":"NCBI","i":"ERR4598227"}}
{"p":"B.1.1.253","w":{"d":3,"y":2020,"m":7},"l":{"r":"England","c":"United Kingdom"},"o":{"r":"NCBI","i":"ERR4633983"}}
{"p":"B.1.1.253","w":{"d":1,"y":2020,"m":9},"l":{"r":"England","c":"United Kingdom"},"o":{"r":"NCBI","i":"ERR4615637"}}
{"p":"B.1.1.253","w":{"d":13,"y":2020,"m":8},"l":{"r":"England","c":"United Kingdom"},"o":{"r":"NCBI","i":"ERR4598084"}}
{"p":"B.1.1.253","w":{"d":2,"y":2020,"m":6},"l":{"r":"England","c":"United Kingdom"},"o":{"r":"NCBI","i":"ERR4632890"}}
{"p":"B.1.1.253","w":{"d":1,"y":2020,"m":8},"l":{"r":"England","c":"United Kingdom"},"o":{"r":"NCBI","i":"ERR4599777"}}
{"p":"B.1.1.253","w":{"d":2,"y":2020,"m":8},"l":{"r":"England","c":"United Kingdom"},"o":{"r":"NCBI","i":"ERR4585109"}}
{"p":"B.1.1.253","w":{"d":18,"y":2020,"m":8},"l":{"r":"England","c":"United Kingdom"},"o":{"r":"NCBI","i":"ERR4599209"}}
{"p":"B.1.1.253","w":{"d":1,"y":2020,"m":9},"l":{"r":"England","c":"United Kingdom"},"o":{"r":"NCBI","i":"ERR4615650"}}
{"p":"B.1.1.253","w":{"d":3,"y":2020,"m":8},"l":{"r":"England","c":"United Kingdom"},"o":{"r":"NCBI","i":"ERR4585182"}}
{"p":"B.1.1.253","w":{"d":31,"y":2020,"m":7},"l":{"r":"England","c":"United Kingdom"},"o":{"r":"NCBI","i":"ERR4599779"}}
{"p":"B.1.1.253","w":{"d":3,"y":2020,"m":8},"l":{"r":"England","c":"United Kingdom"},"o":{"r":"NCBI","i":"ERR4585198"}}
{"p":"B.1.1.253","w":{"d":2,"y":2020,"m":8},"l":{"r":"England","c":"United Kingdom"},"o":{"r":"NCBI","i":"ERR4599724"}}
{"p":"B.1.1.253","w":{"d":25,"y":2020,"m":8},"l":{"r":"England","c":"United Kingdom"},"o":{"r":"NCBI","i":"ERR4615535"}}
{"p":"B.1.1.253","w":{"d":10,"y":2020,"m":8},"l":{"r":"England","c":"United Kingdom"},"o":{"r":"NCBI","i":"ERR4597870"}}
{"p":"B.1.1.253","w":{"d":8,"y":2020,"m":8},"l":{"r":"England","c":"United Kingdom"},"o":{"r":"NCBI","i":"ERR4597843"}}
