{"p":"B.1.1.41","w":{"d":14,"y":2020,"m":5},"l":{"r":"Wales","c":"United Kingdom"},"o":{"r":"NCBI","i":"ERR4305384"}}
{"p":"B.1.1.41","w":{"d":13,"y":2020,"m":6},"l":{"r":"Wales","c":"United Kingdom"},"o":{"r":"NCBI","i":"ERR4365725"}}
{"p":"B.1.1.41","w":{"d":20,"y":2020,"m":6},"l":{"r":"Wales","c":"United Kingdom"},"o":{"r":"NCBI","i":"ERR4365788"}}
{"p":"B.1.1.41","w":{"d":8,"y":2020,"m":6},"l":{"r":"England","c":"United Kingdom"},"o":{"r":"NCBI","i":"ERR4632168"}}
{"p":"B.1.1.41","w":{"d":28,"y":2020,"m":5},"l":{"r":"Wales","c":"United Kingdom"},"o":{"r":"NCBI","i":"ERR4309307"}}
{"p":"B.1.1.41","w":{"d":14,"y":2020,"m":6},"l":{"r":"England","c":"United Kingdom"},"o":{"r":"NCBI","i":"ERR4632535"}}
