{"p":"B.1.177.56","w":{"d":13,"y":2020,"m":10},"l":{"r":"Wales","c":"United Kingdom"},"o":{"r":"NCBI","i":"ERR4758224"}}
{"p":"B.1.177.56","w":{"d":23,"y":2020,"m":9},"l":{"r":"Wales","c":"United Kingdom"},"o":{"r":"NCBI","i":"ERR4664360"}}
{"p":"B.1.177.56","w":{"d":28,"y":2020,"m":9},"l":{"c":"United Kingdom"},"o":{"r":"NCBI","i":"ERR5061600"}}
{"p":"B.1.177.56","w":{"d":13,"y":2020,"m":10},"l":{"c":"United Kingdom"},"o":{"r":"NCBI","i":"ERR5061475"}}
{"p":"B.1.177.56","w":{"d":13,"y":2020,"m":9},"l":{"r":"Wales","c":"United Kingdom"},"o":{"r":"NCBI","i":"ERR4666014"}}
{"p":"B.1.177.56","w":{"d":27,"y":2020,"m":9},"l":{"r":"Wales","c":"United Kingdom"},"o":{"r":"NCBI","i":"ERR4671566"}}
{"p":"B.1.177.56","w":{"d":18,"y":2020,"m":9},"l":{"r":"England","c":"United Kingdom"},"o":{"r":"NCBI","i":"ERR5061116"}}
{"p":"B.1.177.56","w":{"d":29,"y":2020,"m":8},"l":{"r":"England","c":"United Kingdom"},"o":{"r":"NCBI","i":"ERR4645847"}}
{"p":"B.1.177.56","w":{"d":24,"y":2020,"m":9},"l":{"r":"Wales","c":"United Kingdom"},"o":{"r":"NCBI","i":"ERR4665750"}}
{"p":"B.1.177.56","w":{"d":30,"y":2020,"m":9},"l":{"r":"Wales","c":"United Kingdom"},"o":{"r":"NCBI","i":"ERR4693004"}}
{"p":"B.1.177.56","w":{"d":23,"y":2020,"m":9},"l":{"r":"Wales","c":"United Kingdom"},"o":{"r":"NCBI","i":"ERR4664666"}}
{"p":"B.1.177.56","w":{"d":23,"y":2020,"m":9},"l":{"r":"Wales","c":"United Kingdom"},"o":{"r":"NCBI","i":"ERR4664697"}}
{"p":"B.1.177.56","w":{"d":10,"y":2020,"m":11},"l":{"c":"Ireland","l":"Louth"},"o":{"r":"NCBI","i":"ERR5029406"}}
{"p":"B.1.177.56","w":{"d":29,"y":2020,"m":8},"l":{"r":"England","c":"United Kingdom"},"o":{"r":"NCBI","i":"ERR4645858"}}
{"p":"B.1.177.56","w":{"d":15,"y":2020,"m":10},"l":{"r":"Wales","c":"United Kingdom"},"o":{"r":"NCBI","i":"ERR4779064"}}
{"p":"B.1.177.56","w":{"d":30,"y":2020,"m":9},"l":{"r":"Wales","c":"United Kingdom"},"o":{"r":"NCBI","i":"ERR4692930"}}
{"p":"B.1.177.56","w":{"d":18,"y":2020,"m":8},"l":{"r":"Scotland","c":"United Kingdom"},"o":{"r":"NCBI","i":"ERR4598278"}}
{"p":"B.1.177.56","w":{"d":23,"y":2020,"m":9},"l":{"r":"Wales","c":"United Kingdom"},"o":{"r":"NCBI","i":"ERR4665441"}}
{"p":"B.1.177.56","w":{"d":13,"y":2020,"m":9},"l":{"r":"Wales","c":"United Kingdom"},"o":{"r":"NCBI","i":"ERR4666841"}}
{"p":"B.1.177.56","w":{"d":22,"y":2020,"m":11},"l":{"r":"Wales","c":"United Kingdom"},"o":{"r":"NCBI","i":"ERR5049879"}}
{"p":"B.1.177.56","w":{"d":22,"y":2020,"m":9},"l":{"r":"Wales","c":"United Kingdom"},"o":{"r":"NCBI","i":"ERR4664260"}}
{"p":"B.1.177.56","w":{"d":29,"y":2020,"m":9},"l":{"r":"England","c":"United Kingdom"},"o":{"r":"NCBI","i":"ERR4688895"}}
{"p":"B.1.177.56","w":{"d":23,"y":2020,"m":10},"l":{"c":"United Kingdom"},"o":{"r":"NCBI","i":"ERR5061366"}}
{"p":"B.1.177.56","w":{"d":9,"y":2020,"m":11},"l":{"c":"Ireland","l":"Louth"},"o":{"r":"NCBI","i":"ERR5029412"}}
{"p":"B.1.177.56","w":{"d":6,"y":2020,"m":10},"l":{"r":"Wales","c":"United Kingdom"},"o":{"r":"NCBI","i":"ERR4693152"}}
{"p":"B.1.177.56","w":{"d":6,"y":2020,"m":12},"l":{"r":"England","c":"United Kingdom"},"o":{"r":"NCBI","i":"ERR5037779"}}
{"p":"B.1.177.56","w":{"d":26,"y":2020,"m":10},"l":{"c":"United Kingdom"},"o":{"r":"NCBI","i":"ERR5060755"}}
{"p":"B.1.177.56","w":{"d":15,"y":2020,"m":11},"l":{"r":"England","c":"United Kingdom"},"o":{"r":"NCBI","i":"ERR4906676"}}
{"p":"B.1.177.56","w":{"d":6,"y":2020,"m":11},"l":{"r":"England","c":"United Kingdom"},"o":{"r":"NCBI","i":"ERR4837956"}}
{"p":"B.1.177.56","w":{"d":25,"y":2020,"m":9},"l":{"r":"Wales","c":"United Kingdom"},"o":{"r":"NCBI","i":"ERR4665332"}}
{"p":"B.1.177.56","w":{"d":24,"y":2020,"m":9},"l":{"r":"Wales","c":"United Kingdom"},"o":{"r":"NCBI","i":"ERR4664921"}}
{"p":"B.1.177.56","w":{"d":21,"y":2020,"m":10},"l":{"r":"England","c":"United Kingdom"},"o":{"r":"NCBI","i":"ERR4803526"}}
