{"p":"B.1.177.65","w":{"d":21,"y":2020,"m":10},"l":{"r":"Wales","c":"United Kingdom"},"o":{"r":"NCBI","i":"ERR4779453"}}
{"p":"B.1.177.65","w":{"d":15,"y":2020,"m":11},"l":{"r":"Wales","c":"United Kingdom"},"o":{"r":"NCBI","i":"ERR5061045"}}
{"p":"B.1.177.65","w":{"d":11,"y":2020,"m":10},"l":{"r":"Wales","c":"United Kingdom"},"o":{"r":"NCBI","i":"ERR4759151"}}
{"p":"B.1.177.65","w":{"d":6,"y":2020,"m":10},"l":{"r":"Wales","c":"United Kingdom"},"o":{"r":"NCBI","i":"ERR4692700"}}
{"p":"B.1.177.65","w":{"d":1,"y":2020,"m":11},"l":{"r":"Wales","c":"United Kingdom"},"o":{"r":"NCBI","i":"ERR4837572"}}
{"p":"B.1.177.65","w":{"d":29,"y":2020,"m":10},"l":{"r":"Wales","c":"United Kingdom"},"o":{"r":"NCBI","i":"ERR4838750"}}
{"p":"B.1.177.65","w":{"d":31,"y":2020,"m":10},"l":{"r":"Wales","c":"United Kingdom"},"o":{"r":"NCBI","i":"ERR4838663"}}
{"p":"B.1.177.65","w":{"d":21,"y":2020,"m":10},"l":{"r":"Wales","c":"United Kingdom"},"o":{"r":"NCBI","i":"ERR4780772"}}
{"p":"B.1.177.65","w":{"d":6,"y":2020,"m":10},"l":{"r":"Wales","c":"United Kingdom"},"o":{"r":"NCBI","i":"ERR4692960"}}
{"p":"B.1.177.65","w":{"d":10,"y":2020,"m":10},"l":{"r":"Wales","c":"United Kingdom"},"o":{"r":"NCBI","i":"ERR4693136"}}
{"p":"B.1.177.65","w":{"d":18,"y":2020,"m":10},"l":{"r":"Wales","c":"United Kingdom"},"o":{"r":"NCBI","i":"ERR4779244"}}
{"p":"B.1.177.65","w":{"d":6,"y":2020,"m":10},"l":{"r":"Wales","c":"United Kingdom"},"o":{"r":"NCBI","i":"ERR4692738"}}
{"p":"B.1.177.65","w":{"d":30,"y":2020,"m":10},"l":{"r":"Wales","c":"United Kingdom"},"o":{"r":"NCBI","i":"ERR4839008"}}
{"p":"B.1.177.65","w":{"d":1,"y":2020,"m":11},"l":{"r":"Wales","c":"United Kingdom"},"o":{"r":"NCBI","i":"ERR4837438"}}
{"p":"B.1.177.65","w":{"d":30,"y":2020,"m":10},"l":{"r":"Wales","c":"United Kingdom"},"o":{"r":"NCBI","i":"ERR4838857"}}
{"p":"B.1.177.65","w":{"d":14,"y":2020,"m":11},"l":{"r":"Wales","c":"United Kingdom"},"o":{"r":"NCBI","i":"ERR5061644"}}
{"p":"B.1.177.65","w":{"d":30,"y":2020,"m":10},"l":{"r":"Wales","c":"United Kingdom"},"o":{"r":"NCBI","i":"ERR4838639"}}
{"p":"B.1.177.65","w":{"d":7,"y":2020,"m":11},"l":{"r":"Wales","c":"United Kingdom"},"o":{"r":"NCBI","i":"ERR5062329"}}
{"p":"B.1.177.65","w":{"d":7,"y":2020,"m":10},"l":{"r":"Wales","c":"United Kingdom"},"o":{"r":"NCBI","i":"ERR4692692"}}
{"p":"B.1.177.65","w":{"d":7,"y":2020,"m":10},"l":{"r":"Wales","c":"United Kingdom"},"o":{"r":"NCBI","i":"ERR4692399"}}
{"p":"B.1.177.65","w":{"d":26,"y":2020,"m":9},"l":{"r":"Wales","c":"United Kingdom"},"o":{"r":"NCBI","i":"ERR4671328"}}
{"p":"B.1.177.65","w":{"d":6,"y":2020,"m":11},"l":{"r":"Wales","c":"United Kingdom"},"o":{"r":"NCBI","i":"ERR5061272"}}
{"p":"B.1.177.65","w":{"d":18,"y":2020,"m":10},"l":{"r":"Wales","c":"United Kingdom"},"o":{"r":"NCBI","i":"ERR4779817"}}
{"p":"B.1.177.65","w":{"d":9,"y":2020,"m":10},"l":{"r":"Wales","c":"United Kingdom"},"o":{"r":"NCBI","i":"ERR4693041"}}
{"p":"B.1.177.65","w":{"d":21,"y":2020,"m":10},"l":{"r":"Wales","c":"United Kingdom"},"o":{"r":"NCBI","i":"ERR4779280"}}
{"p":"B.1.177.65","w":{"d":18,"y":2020,"m":10},"l":{"r":"Wales","c":"United Kingdom"},"o":{"r":"NCBI","i":"ERR4779014"}}
