{"p":"B.1.1.255","w":{"d":3,"y":2020,"m":8},"l":{"r":"England","c":"United Kingdom"},"o":{"r":"NCBI","i":"ERR4585053"}}
{"p":"B.1.1.255","w":{"d":11,"y":2020,"m":8},"l":{"r":"England","c":"United Kingdom"},"o":{"r":"NCBI","i":"ERR4598022"}}
{"p":"B.1.1.255","w":{"d":14,"y":2020,"m":9},"l":{"r":"Scotland","c":"United Kingdom"},"o":{"r":"NCBI","i":"ERR4667869"}}
{"p":"B.1.1.255","w":{"d":13,"y":2020,"m":8},"l":{"r":"England","c":"United Kingdom"},"o":{"r":"NCBI","i":"ERR4598076"}}
{"p":"B.1.1.255","w":{"d":11,"y":2020,"m":8},"l":{"r":"England","c":"United Kingdom"},"o":{"r":"NCBI","i":"ERR4598026"}}
{"p":"B.1.1.255","w":{"d":25,"y":2020,"m":7},"l":{"r":"England","c":"United Kingdom"},"o":{"r":"NCBI","i":"ERR4584788"}}
{"p":"B.1.1.255","w":{"d":25,"y":2020,"m":10},"l":{"r":"England","c":"United Kingdom"},"o":{"r":"NCBI","i":"ERR4834264"}}
{"p":"B.1.1.255","w":{"d":14,"y":2020,"m":8},"l":{"r":"England","c":"United Kingdom"},"o":{"r":"NCBI","i":"ERR4598013"}}
{"p":"B.1.1.255","w":{"d":11,"y":2020,"m":9},"l":{"r":"England","c":"United Kingdom"},"o":{"r":"NCBI","i":"ERR4651688"}}
{"p":"B.1.1.255","w":{"d":14,"y":2020,"m":8},"l":{"r":"England","c":"United Kingdom"},"o":{"r":"NCBI","i":"ERR4598173"}}
