{"p":"B.1.222","w":{"d":5,"y":2020,"m":6},"l":{"r":"Scotland","c":"United Kingdom"},"o":{"r":"NCBI","i":"ERR4365124"}}
{"p":"B.1.222","w":{"d":31,"y":2020,"m":5},"l":{"r":"Scotland","c":"United Kingdom"},"o":{"r":"NCBI","i":"ERR4364164"}}
{"p":"B.1.222","w":{"d":5,"y":2020,"m":6},"l":{"r":"Scotland","c":"United Kingdom"},"o":{"r":"NCBI","i":"ERR4366914"}}
{"p":"B.1.222","w":{"d":24,"y":2020,"m":8},"l":{"r":"England","c":"United Kingdom"},"o":{"r":"NCBI","i":"ERR4615943"}}
{"p":"B.1.222","w":{"d":31,"y":2020,"m":5},"l":{"r":"Scotland","c":"United Kingdom"},"o":{"r":"NCBI","i":"ERR4365252"}}
{"p":"B.1.222","w":{"d":30,"y":2020,"m":5},"l":{"r":"Scotland","c":"United Kingdom"},"o":{"r":"NCBI","i":"ERR4363685"}}
{"p":"B.1.222","w":{"d":25,"y":2020,"m":4},"l":{"r":"Scotland","c":"United Kingdom"},"o":{"r":"NCBI","i":"ERR4241695"}}
{"p":"B.1.222","w":{"d":25,"y":2020,"m":4},"l":{"r":"Scotland","c":"United Kingdom"},"o":{"r":"NCBI","i":"ERR4241279"}}
{"p":"B.1.222","w":{"d":9,"y":2020,"m":5},"l":{"r":"Scotland","c":"United Kingdom"},"o":{"r":"NCBI","i":"ERR4247206"}}
{"p":"B.1.222","w":{"d":6,"y":2020,"m":5},"l":{"r":"Scotland","c":"United Kingdom"},"o":{"r":"NCBI","i":"ERR4248170"}}
{"p":"B.1.222","w":{"d":25,"y":2020,"m":4},"l":{"r":"Scotland","c":"United Kingdom"},"o":{"r":"NCBI","i":"ERR4240589"}}
{"p":"B.1.222","w":{"d":30,"y":2020,"m":5},"l":{"r":"Scotland","c":"United Kingdom"},"o":{"r":"NCBI","i":"ERR4363402"}}
{"p":"B.1.222","w":{"d":25,"y":2020,"m":5},"l":{"r":"Scotland","c":"United Kingdom"},"o":{"r":"NCBI","i":"ERR4363941"}}
{"p":"B.1.222","w":{"d":5,"y":2020,"m":5},"l":{"r":"Scotland","c":"United Kingdom"},"o":{"r":"NCBI","i":"ERR4247305"}}
{"p":"B.1.222","w":{"d":5,"y":2020,"m":5},"l":{"r":"Scotland","c":"United Kingdom"},"o":{"r":"NCBI","i":"ERR4247316"}}
{"p":"B.1.222","w":{"d":25,"y":2020,"m":4},"l":{"r":"Scotland","c":"United Kingdom"},"o":{"r":"NCBI","i":"ERR4240506"}}
{"p":"B.1.222","w":{"d":2,"y":2020,"m":6},"l":{"r":"Scotland","c":"United Kingdom"},"o":{"r":"NCBI","i":"ERR4364195"}}
{"p":"B.1.222","w":{"d":2,"y":2020,"m":5},"l":{"r":"Scotland","c":"United Kingdom"},"o":{"r":"NCBI","i":"ERR4247383"}}
{"p":"B.1.222","w":{"d":4,"y":2020,"m":4},"l":{"r":"Scotland","c":"United Kingdom"},"o":{"r":"NCBI","i":"ERR5061608"}}
{"p":"B.1.222","w":{"d":7,"y":2020,"m":5},"l":{"r":"Scotland","c":"United Kingdom"},"o":{"r":"NCBI","i":"ERR4248207"}}
{"p":"B.1.222","w":{"d":16,"y":2020,"m":4},"l":{"r":"Scotland","c":"United Kingdom"},"o":{"r":"NCBI","i":"ERR4240340"}}
{"p":"B.1.222","w":{"d":25,"y":2020,"m":4},"l":{"r":"Scotland","c":"United Kingdom"},"o":{"r":"NCBI","i":"ERR4241674"}}
{"p":"B.1.222","w":{"d":26,"y":2020,"m":4},"l":{"r":"Scotland","c":"United Kingdom"},"o":{"r":"NCBI","i":"ERR4241552"}}
{"p":"B.1.222","w":{"d":9,"y":2020,"m":5},"l":{"r":"Scotland","c":"United Kingdom"},"o":{"r":"NCBI","i":"ERR4247785"}}
{"p":"B.1.222","w":{"d":2,"y":2020,"m":5},"l":{"r":"Scotland","c":"United Kingdom"},"o":{"r":"NCBI","i":"ERR4249579"}}
{"p":"B.1.222","w":{"d":25,"y":2020,"m":4},"l":{"r":"Scotland","c":"United Kingdom"},"o":{"r":"NCBI","i":"ERR4242048"}}
{"p":"B.1.222","w":{"d":5,"y":2020,"m":6},"l":{"r":"Scotland","c":"United Kingdom"},"o":{"r":"NCBI","i":"ERR4365217"}}
{"p":"B.1.222","w":{"d":26,"y":2020,"m":4},"l":{"r":"Scotland","c":"United Kingdom"},"o":{"r":"NCBI","i":"ERR4240497"}}
