{"p":"B.1.1.12","w":{"d":28,"y":2020,"m":8},"l":{"r":"England","c":"United Kingdom"},"o":{"r":"NCBI","i":"ERR4615557"}}
{"p":"B.1.1.12","w":{"d":7,"y":2020,"m":8},"l":{"r":"England","c":"United Kingdom"},"o":{"r":"NCBI","i":"ERR4597132"}}
{"p":"B.1.1.12","w":{"d":21,"y":2020,"m":6},"l":{"r":"Wales","c":"United Kingdom"},"o":{"r":"NCBI","i":"ERR4365868"}}
{"p":"B.1.1.12","w":{"d":30,"y":2020,"m":8},"l":{"r":"England","c":"United Kingdom"},"o":{"r":"NCBI","i":"ERR4644535"}}
