{"p":"B.1.177.3","w":{"d":23,"y":2020,"m":9},"l":{"r":"Wales","c":"United Kingdom"},"o":{"r":"NCBI","i":"ERR4666839"}}
{"p":"B.1.177.3","w":{"d":27,"y":2020,"m":9},"l":{"r":"Wales","c":"United Kingdom"},"o":{"r":"NCBI","i":"ERR4671507"}}
{"p":"B.1.177.3","w":{"d":24,"y":2020,"m":9},"l":{"r":"Wales","c":"United Kingdom"},"o":{"r":"NCBI","i":"ERR4664409"}}
{"p":"B.1.177.3","w":{"d":6,"y":2020,"m":10},"l":{"r":"Wales","c":"United Kingdom"},"o":{"r":"NCBI","i":"ERR4692769"}}
{"p":"B.1.177.3","w":{"d":9,"y":2020,"m":10},"l":{"r":"Wales","c":"United Kingdom"},"o":{"r":"NCBI","i":"ERR4693147"}}
{"p":"B.1.177.3","w":{"d":6,"y":2020,"m":10},"l":{"r":"Wales","c":"United Kingdom"},"o":{"r":"NCBI","i":"ERR4692835"}}
{"p":"B.1.177.3","w":{"d":3,"y":2020,"m":11},"l":{"r":"Wales","c":"United Kingdom"},"o":{"r":"NCBI","i":"ERR4838619"}}
