{"p":"B.1.142","w":{"d":28,"y":2020,"m":5},"l":{"r":"Wales","c":"United Kingdom"},"o":{"r":"NCBI","i":"ERR4308994"}}
{"p":"B.1.142","w":{"d":25,"y":2020,"m":5},"l":{"r":"Wales","c":"United Kingdom"},"o":{"r":"NCBI","i":"ERR4308848"}}
{"p":"B.1.142","w":{"d":9,"y":2020,"m":6},"l":{"r":"Wales","c":"United Kingdom"},"o":{"r":"NCBI","i":"ERR4364566"}}
{"p":"B.1.142","w":{"d":8,"y":2020,"m":6},"l":{"r":"Wales","c":"United Kingdom"},"o":{"r":"NCBI","i":"ERR4365674"}}
{"p":"B.1.142","w":{"d":3,"y":2020,"m":6},"l":{"r":"Wales","c":"United Kingdom"},"o":{"r":"NCBI","i":"ERR4309090"}}
{"p":"B.1.142","w":{"d":11,"y":2020,"m":5},"l":{"r":"Wales","c":"United Kingdom"},"o":{"r":"NCBI","i":"ERR4308989"}}
{"p":"B.1.142","w":{"d":24,"y":2020,"m":5},"l":{"r":"Wales","c":"United Kingdom"},"o":{"r":"NCBI","i":"ERR4308930"}}
{"p":"B.1.142","w":{"d":31,"y":2020,"m":5},"l":{"r":"Wales","c":"United Kingdom"},"o":{"r":"NCBI","i":"ERR4309100"}}
{"p":"B.1.142","w":{"d":6,"y":2020,"m":6},"l":{"r":"Wales","c":"United Kingdom"},"o":{"r":"NCBI","i":"ERR4439532"}}
{"p":"B.1.142","w":{"d":16,"y":2020,"m":6},"l":{"r":"Wales","c":"United Kingdom"},"o":{"r":"NCBI","i":"ERR4365470"}}
{"p":"B.1.142","w":{"d":19,"y":2020,"m":4},"l":{"r":"Wales","c":"United Kingdom"},"o":{"r":"NCBI","i":"ERR4308836"}}
{"p":"B.1.142","w":{"d":11,"y":2020,"m":5},"l":{"r":"Wales","c":"United Kingdom"},"o":{"r":"NCBI","i":"ERR4308963"}}
{"p":"B.1.142","w":{"d":18,"y":2020,"m":5},"l":{"r":"Wales","c":"United Kingdom"},"o":{"r":"NCBI","i":"ERR4364067"}}
{"p":"B.1.142","w":{"d":26,"y":2020,"m":5},"l":{"r":"Wales","c":"United Kingdom"},"o":{"r":"NCBI","i":"ERR4308795"}}
{"p":"B.1.142","w":{"d":23,"y":2020,"m":5},"l":{"r":"Wales","c":"United Kingdom"},"o":{"r":"NCBI","i":"ERR4308899"}}
{"p":"B.1.142","w":{"d":5,"y":2020,"m":6},"l":{"r":"Wales","c":"United Kingdom"},"o":{"r":"NCBI","i":"ERR4307796"}}
{"p":"B.1.142","w":{"d":25,"y":2020,"m":4},"l":{"r":"Wales","c":"United Kingdom"},"o":{"r":"NCBI","i":"ERR4307853"}}
{"p":"B.1.142","w":{"d":24,"y":2020,"m":5},"l":{"r":"Wales","c":"United Kingdom"},"o":{"r":"NCBI","i":"ERR4308898"}}
{"p":"B.1.142","w":{"d":1,"y":2020,"m":6},"l":{"r":"Wales","c":"United Kingdom"},"o":{"r":"NCBI","i":"ERR4309026"}}
{"p":"B.1.142","w":{"d":13,"y":2020,"m":6},"l":{"r":"Wales","c":"United Kingdom"},"o":{"r":"NCBI","i":"ERR4365837"}}
{"p":"B.1.142","w":{"d":25,"y":2020,"m":4},"l":{"r":"Wales","c":"United Kingdom"},"o":{"r":"NCBI","i":"ERR4308014"}}
{"p":"B.1.142","w":{"d":23,"y":2020,"m":5},"l":{"r":"Wales","c":"United Kingdom"},"o":{"r":"NCBI","i":"ERR4306326"}}
{"p":"B.1.142","w":{"d":15,"y":2020,"m":5},"l":{"r":"Wales","c":"United Kingdom"},"o":{"r":"NCBI","i":"ERR4308764"}}
{"p":"B.1.142","w":{"d":8,"y":2020,"m":5},"l":{"r":"Wales","c":"United Kingdom"},"o":{"r":"NCBI","i":"ERR4308495"}}
{"p":"B.1.142","w":{"d":30,"y":2020,"m":5},"l":{"r":"Wales","c":"United Kingdom"},"o":{"r":"NCBI","i":"ERR4309329"}}
{"p":"B.1.142","w":{"d":1,"y":2020,"m":6},"l":{"r":"Wales","c":"United Kingdom"},"o":{"r":"NCBI","i":"ERR4309334"}}
{"p":"B.1.142","w":{"d":9,"y":2020,"m":6},"l":{"r":"Wales","c":"United Kingdom"},"o":{"r":"NCBI","i":"ERR4363478"}}
{"p":"B.1.142","w":{"d":8,"y":2020,"m":6},"l":{"r":"Wales","c":"United Kingdom"},"o":{"r":"NCBI","i":"ERR4366860"}}
{"p":"B.1.142","w":{"d":7,"y":2020,"m":6},"l":{"r":"Wales","c":"United Kingdom"},"o":{"r":"NCBI","i":"ERR4365649"}}
{"p":"B.1.142","w":{"d":16,"y":2020,"m":6},"l":{"r":"Wales","c":"United Kingdom"},"o":{"r":"NCBI","i":"ERR4365626"}}
{"p":"B.1.142","w":{"d":16,"y":2020,"m":6},"l":{"r":"Wales","c":"United Kingdom"},"o":{"r":"NCBI","i":"ERR4364470"}}
{"p":"B.1.142","w":{"d":30,"y":2020,"m":5},"l":{"r":"Wales","c":"United Kingdom"},"o":{"r":"NCBI","i":"ERR4366513"}}
{"p":"B.1.142","w":{"d":12,"y":2020,"m":5},"l":{"r":"Wales","c":"United Kingdom"},"o":{"r":"NCBI","i":"ERR4308019"}}
{"p":"B.1.142","w":{"d":12,"y":2020,"m":6},"l":{"r":"Wales","c":"United Kingdom"},"o":{"r":"NCBI","i":"ERR4365752"}}
{"p":"B.1.142","w":{"d":31,"y":2020,"m":5},"l":{"r":"Wales","c":"United Kingdom"},"o":{"r":"NCBI","i":"ERR4306688"}}
{"p":"B.1.142","w":{"d":28,"y":2020,"m":5},"l":{"r":"Wales","c":"United Kingdom"},"o":{"r":"NCBI","i":"ERR4309306"}}
{"p":"B.1.142","w":{"d":2,"y":2020,"m":6},"l":{"r":"Wales","c":"United Kingdom"},"o":{"r":"NCBI","i":"ERR4421448"}}
{"p":"B.1.142","w":{"d":29,"y":2020,"m":5},"l":{"r":"Wales","c":"United Kingdom"},"o":{"r":"NCBI","i":"ERR4307675"}}
{"p":"B.1.142","w":{"d":25,"y":2020,"m":5},"l":{"r":"Wales","c":"United Kingdom"},"o":{"r":"NCBI","i":"ERR4308951"}}
{"p":"B.1.142","w":{"d":16,"y":2020,"m":6},"l":{"r":"Wales","c":"United Kingdom"},"o":{"r":"NCBI","i":"ERR4365460"}}
{"p":"B.1.142","w":{"d":25,"y":2020,"m":5},"l":{"r":"Wales","c":"United Kingdom"},"o":{"r":"NCBI","i":"ERR4308879"}}
{"p":"B.1.142","w":{"d":25,"y":2020,"m":4},"l":{"r":"Wales","c":"United Kingdom"},"o":{"r":"NCBI","i":"ERR4308901"}}
{"p":"B.1.142","w":{"d":20,"y":2020,"m":6},"l":{"r":"Wales","c":"United Kingdom"},"o":{"r":"NCBI","i":"ERR4365980"}}
{"p":"B.1.142","w":{"d":8,"y":2020,"m":5},"l":{"r":"Wales","c":"United Kingdom"},"o":{"r":"NCBI","i":"ERR4308676"}}
{"p":"B.1.142","w":{"d":23,"y":2020,"m":5},"l":{"r":"Wales","c":"United Kingdom"},"o":{"r":"NCBI","i":"ERR4305572"}}
{"p":"B.1.142","w":{"d":3,"y":2020,"m":6},"l":{"r":"Wales","c":"United Kingdom"},"o":{"r":"NCBI","i":"ERR4364066"}}
{"p":"B.1.142","w":{"d":13,"y":2020,"m":6},"l":{"r":"Wales","c":"United Kingdom"},"o":{"r":"NCBI","i":"ERR4365784"}}
{"p":"B.1.142","w":{"d":16,"y":2020,"m":6},"l":{"r":"Wales","c":"United Kingdom"},"o":{"r":"NCBI","i":"ERR4364759"}}
{"p":"B.1.142","w":{"d":26,"y":2020,"m":5},"l":{"r":"Wales","c":"United Kingdom"},"o":{"r":"NCBI","i":"ERR4308809"}}
{"p":"B.1.142","w":{"d":20,"y":2020,"m":6},"l":{"r":"Wales","c":"United Kingdom"},"o":{"r":"NCBI","i":"ERR4365828"}}
