{"p":"B.1.465","w":{"d":9,"y":2020,"m":6},"l":{"r":"England","c":"United Kingdom"},"o":{"r":"NCBI","i":"ERR4639823"}}
{"p":"B.1.465","w":{"d":9,"y":2020,"m":4},"l":{"c":"Austria"},"o":{"r":"NCBI","i":"ERR4704350"}}
{"p":"B.1.465","w":{"d":16,"y":2020,"m":3},"l":{"c":"Austria"},"o":{"r":"NCBI","i":"ERR4704333"}}
