{"p":"B.1.177.55","w":{"d":15,"y":2020,"m":10},"l":{"r":"England","c":"United Kingdom"},"o":{"r":"NCBI","i":"ERR4758490"}}
{"p":"B.1.177.55","w":{"d":15,"y":2020,"m":10},"l":{"r":"England","c":"United Kingdom"},"o":{"r":"NCBI","i":"ERR4764060"}}
{"p":"B.1.177.55","w":{"d":8,"y":2020,"m":11},"l":{"c":"Ireland","l":"Dublin"},"o":{"r":"NCBI","i":"ERR5029423"}}
{"p":"B.1.177.55","w":{"d":8,"y":2020,"m":11},"l":{"c":"Ireland","l":"Dublin"},"o":{"r":"NCBI","i":"ERR5029390"}}
{"p":"B.1.177.55","w":{"d":5,"y":2020,"m":11},"l":{"c":"Ireland","l":"Dublin"},"o":{"r":"NCBI","i":"ERR5029404"}}
{"p":"B.1.177.55","w":{"d":4,"y":2020,"m":11},"l":{"c":"Ireland","l":"Dublin"},"o":{"r":"NCBI","i":"ERR5029389"}}
{"p":"B.1.177.55","w":{"d":5,"y":2020,"m":11},"l":{"c":"Ireland","l":"Dublin"},"o":{"r":"NCBI","i":"ERR5029400"}}
{"p":"B.1.177.55","w":{"d":3,"y":2020,"m":11},"l":{"c":"Ireland","l":"Dublin"},"o":{"r":"NCBI","i":"ERR5029399"}}
{"p":"B.1.177.55","w":{"d":5,"y":2020,"m":11},"l":{"c":"Ireland","l":"Dublin"},"o":{"r":"NCBI","i":"ERR5029409"}}
{"p":"B.1.177.55","w":{"d":19,"y":2020,"m":10},"l":{"r":"England","c":"United Kingdom"},"o":{"r":"NCBI","i":"ERR4778923"}}
{"p":"B.1.177.55","w":{"d":5,"y":2020,"m":11},"l":{"c":"Ireland","l":"Dublin"},"o":{"r":"NCBI","i":"ERR5029395"}}
{"p":"B.1.177.55","w":{"d":19,"y":2020,"m":12},"l":{"r":"England","c":"United Kingdom"},"o":{"r":"NCBI","i":"ERR5041810"}}
{"p":"B.1.177.55","w":{"d":7,"y":2020,"m":11},"l":{"c":"Ireland","l":"Dublin"},"o":{"r":"NCBI","i":"ERR5029418"}}
