{"p":"B.1.36.12","w":{"d":7,"y":2020,"m":9},"l":{"r":"England","c":"United Kingdom"},"o":{"r":"NCBI","i":"ERR4651055"}}
{"p":"B.1.36.12","w":{"d":1,"y":2020,"m":8},"l":{"r":"England","c":"United Kingdom"},"o":{"r":"NCBI","i":"ERR4646721"}}
{"p":"B.1.36.12","w":{"d":14,"y":2020,"m":8},"l":{"r":"England","c":"United Kingdom"},"o":{"r":"NCBI","i":"ERR4598180"}}
{"p":"B.1.36.12","w":{"d":14,"y":2020,"m":8},"l":{"r":"England","c":"United Kingdom"},"o":{"r":"NCBI","i":"ERR4598208"}}
{"p":"B.1.36.12","w":{"d":1,"y":2020,"m":8},"l":{"r":"England","c":"United Kingdom"},"o":{"r":"NCBI","i":"ERR4646723"}}
{"p":"B.1.36.12","w":{"d":1,"y":2020,"m":8},"l":{"r":"England","c":"United Kingdom"},"o":{"r":"NCBI","i":"ERR4646719"}}
{"p":"B.1.36.12","w":{"d":26,"y":2020,"m":7},"l":{"r":"England","c":"United Kingdom"},"o":{"r":"NCBI","i":"ERR4639268"}}
{"p":"B.1.36.12","w":{"d":10,"y":2020,"m":8},"l":{"r":"England","c":"United Kingdom"},"o":{"r":"NCBI","i":"ERR4597685"}}
{"p":"B.1.36.12","w":{"d":22,"y":2020,"m":8},"l":{"r":"England","c":"United Kingdom"},"o":{"r":"NCBI","i":"ERR4615910"}}
{"p":"B.1.36.12","w":{"d":18,"y":2020,"m":8},"l":{"r":"England","c":"United Kingdom"},"o":{"r":"NCBI","i":"ERR4598957"}}
